3371
sydq 8
ssdq 8
szdq 8
sgdq 8
s9dq 8
sndq 8
s4dq 8
s8dq 8
spdq 8
s5dq 8
sqrq 8
sd7q 8
salx 8
s98 8
s8rt 8
cddq 8
scix 8
shix 8
s2ix 8
sgzt 8
safx 8
svvq 8
suvq 8
sbvq 8
snst 8
smsx 8
sbyq 8
skyq 8
sryq 8
srn 8
sozx 8
sg3t 8
setj 8
s68j 8
s0sx 8
cmix 8
c0vq 8
cuyq 8
sdyq 2
syyq 2
ssyq 2
s7dq 6
szyq 2
sgyq 2
sw1t 2
se8 2
sedq 6
s5ex 2
spr 8
s5r 8
c3yq 2
s0r 8
sm5x 2
sc5x 2
s2c 8
sh5x 2
sidq 6
s65x 2
sl5x 2
symt 2
sqz 2
sqz 8
s04t 2
sfdq 6
s6nq 2
sadq 6
s8pj 8
sppj 8
s5pj 8
s0pj 8
svpj 8
smdq 6
slnq 2
smyt 8
scyt 8
st0 8
sapt 8
scdq 6
c8r 8
sq5t 6
szqx 8
sgqx 8
s9qx 8
sonq 2
sjvq 8
crdq 6
sy9j 8
sm2j 8
scaq 8
sfyq 6
s7jx 8
s6at 8
s49x 8
sayq 6
s3xx 8
sqnq 2
c4pj 8
sa0j 8
sm0j 8
smyq 6
sc0j 8
sh0j 8
s20j 8
sjnq 2
s60j 8
sl0j 8
scyq 6
so0j 8
svvj 8
suex 8
sb3x 8
s3yx 8
shyq 6
s25x 8
s25x 2
cayt 8
sr5t 6
sq2q 6
shot 0
sxnq 2
sxsq 8
s2ot 0
snj 6
s6ot 0
stnq 2
slot 0
sixx 6
szxt 2
stsq 8
svox 2
sewt 0
s89x 6
sq5 2
sbr 0
skr 0
s49j 2
srr 0
swsq 8
sc8t 0
sh8t 0
s28t 0
s68t 0
susq 2
ciyq 6
sl8t 0
so8t 0
sq8t 0
s1zq 8
s1zq 2
sbsq 2
sj8t 0
ss7t 0
sjrt 0
sygx 2
sx6j 2
sgut 0
s3zq 8
sg0t 0
saix 2
sfat 0
scjt 0
scjt 9
s3a 0
ccot 0
sdzq 8
s1lq 2
ca5x 2
spyq 0
sxct 0
syzq 8
shdx 0
sdkt 0
sabx 0
sszq 8
s4rt 0
s4iq 0
cvr 0
cm8t 0
c2nq 2
cvsq 2
szzq 8
c8yq 0
snyq 1
s4yq 1
su4t 1
sisq 0
sk2q 1
siqx 1
sfsq 0
s5zt 1
s3vx 1
sgzq 8
swd 8
s2dq 5
stzx 8
c9yq 1
sbkx 8
sev 2
sfv 2
sav 2
csqx 8
scv 2
cqvq 8
cf0j 8
s6dq 5
cjsq 8
cesq 0
s6jq 0
swq 9
sojq 0
sqjq 0
srsq 1
sy0 2
sdj 9
ss0 2
sjjq 0
crv 2
sxjq 0
stjq 0
s5gq 2
sgj 9
swjq 0
sldq 5
shjt 9
s0gq 2
s2jt 9
s4p 6
s6jt 9
sljt 9
s8p 6
s7sq 1
sojt 9
skjq 1
si5t 1
srgq 0
sqjt 9
sjjt 9
sf5j 1
sxjt 9
sodq 5
svgq 2
sqdq 5
ctq 9
syex 5
sufj 9
sagt 1
sdxx 5
s6wj 1
s7gq 0
s4lt 1
cajt 9
s4ix 1
sbqx 6
shb 9
sz4t 6
sgyt 9
cd0 2
cyl 9
chdq 5
s0mt 6
cksq 1
soit 6
sqit 6
sw3q 9
sjit 6
segq 0
sxit 6
stit 6
swit 6
cpgq 2
sc9q 2
s1ft 6
stij 2
sbgq 1
s9lx 2
sigq 0
s3ft 6
syft 6
szlt 6
sdcx 1
scy 1
sbtq 1
s1dq 9
slg 6
sxdq 4
sfgq 0
sg4 6
cnp 6
cugq 1
s6jx 0
s0tj 0
s6yq 5
slyq 5
c2jq 0
stdq 4
soyq 5
cm9q 2
styt 4
slix 2
spaj 4
soix 2
sj4t 4
s3dq 9
sqix 2
sjix 2
suix 9
ckgq 0
sxix 2
sqyq 5
sxwq 0
stix 2
swix 2
swwq 0
s11j 0
s31j 0
s31j 6
s1fx 2
sd1j 0
s3fx 2
sy1j 0
sjyq 5
ss1j 0
sz1j 0
sg1j 0
smcq 9
s14q 2
skpt 0
sh3x 0
sgyx 9
svzq 6
s34q 2
sxyq 5
s46j 9
sl9q 0
cyiq 9
so9q 0
ccjx 9
ct3q 9
sd4q 2
cjdq 4
styq 5
sq9q 0
suzq 6
sj9q 0
sy4q 2
sbzq 6
s23x 4
ss4q 2
sz4q 2
swyq 5
sx9q 0
s7m 0
s7m 2
s32t 0
cjwq 0
cdsq 4
skzq 6
s1sq 5
sdqq 4
c69q 0
syqq 4
sg4q 2
ssqq 4
s3sq 5
sy2x 4
sz3j 2
sv1x 4
si7x 5
smtx 2
sunx 4
siat 4
slgq 8
sdzt 2
sbmj 2
shcx 4
s69x 2
sf9x 4
s4yj 2
s54q 0
sa3x 4
s2mx 2
c2yq 5
s7fx 4
c6ix 2
cwnq 2
srzq 6
s78j 4
s6zq 4
s7zq 6
smzq 5
slzq 4
sogq 8
sczq 5
sezq 6
sizq 6
s48q 2
s88q 2
shzq 5
sozq 4
sfzq 6
cazq 5
sgy 5
s9y 5
sny 5
sp8q 2
stjj 6
s5m 1
s0m 1
s4y 5
srpj 6
sqgq 8
s8y 5
s8y 7
sr3x 6
spy 5
sbm 1
sqxq 6
s1yq 3
cuqx 6
s5y 5
s5y 8
sylx 3
s0y 5
clit 6
svy 5
sqzq 4
sty 5
sif 5
s2k 5
s2k 6
sinx 5
sjgq 8
czy 5
s58q 2
s08q 2
sjzq 4
cwdq 3
sva 1
sssq 3
c0zq 6
ci9q 5
sv8q 2
sba 1
sxgq 8
ska 1
schj 5
sra 1
sxzq 4
shhj 5
su6q 7
s7a 1
s2hj 5
s6hj 5
s6hj 1
sb6q 7
s7q 1
s7q 2
sk6q 7
slhj 5
sohj 5
sr6q 7
s76q 7
se6q 7
ssux 5
stzq 4
szsq 3
su8q 2
sk5x 5
stgq 8
swgq 8
s5qj 5
s76t 1
sx7 1
s16j 5
ssxt 1
sz6 0
sshj 5
sg6 0
sg6 4
sg6 3
sb8q 2
sqg 1
szhj 5
s3xt 1
s19q 8
sghj 5
sr9x 8
sp7x 8
s9hj 5
s0i 8
s0n 1
s0n 9
svdq 7
snhj 5
svp 9
cpm 1
s4hj 5
swzq 4
smjt 9
sgsq 3
c5a 1
cmhj 5
su1t 5
sopx 1
sb1t 5
sk8q 2
sqpx 1
s1m 9
swjt 5
ses 5
s1gq 4
sjpx 1
c6gq 8
sxpx 1
sfzx 9
sfnq 5
sio 8
sio 6
sazx 9
stpx 1
smzx 9
s9sq 3
sczx 9
s15x 1
sudq 7
so4x 9
s35x 1
s3gq 4
sr8q 2
sjkx 9
snsq 3
srbj 6
sh3t 2
scfx 9
sbex 9
c3qq 4
s7bj 6
s40t 9
c2zq 4
sebj 6
s10x 9
sibj 6
s16 8
s16 6
sbdq 7
sanq 5
stlt 4
sfbj 6
cf9q 4
smv 5
smv 2
sabj 6
sd6 8
sd6 6
slfq 5
smbj 6
scbj 6
scbj 7
s4sq 3
s1qj 5
shbj 6
sttt 6
s47 1
s47 2
s19t 5
ceo 8
ceo 6
sqxx 6
sqxx 8
scnq 4
s87 1
s87 2
cyhj 5
skdq 7
cn8q 2
sidx 7
cv1t 5
sakt 7
s7vt 6
s6nx 6
s6dt 6
cinq 5
s57 1
s57 2
s2rq 7
s0yq 9
s8sq 3
spf 0
svyq 9
s07 1
s07 2
seeq 9
cv6q 7
scc 0
scc 7
scc 6
shnq 4
slm 1
slm 2
sb2 0
sk7 1
sk7 2
sbbq 2
sbbq 1
spsq 3
sam 1
sam 2
srdj 2
saf 1
saf 2
s09q 6
cs6 0
c0dq 7
cuqt 9
crq 1
crq 2
cizx 9
soz 2
cmnq 4
sgqq 1
s9qq 1
sec 4
s4vj 2
spo 0
seyq 7
sv9q 6
sx4q 5
sic 4
snqq 1
s4qq 1
s5o 0
sqdj 2
c7yq 7
s8qq 1
sjdj 2
spqq 1
s0o 0
sk1j 7
sxdj 2
stdj 2
sr1j 7
s71j 7
se1j 7
swdj 2
s0qq 1
s4g 4
s4g 6
si1j 7
svqq 1
swtx 7
swtx 9
suo 0
s8g 4
s5sq 3
sw7x 7
s3qt 7
sro 0
s85j 2
s0sq 3
st4q 5
suqq 1
suqq 6
sdlj 7
sylj 7
szcx 1
c5yq 9
ssxx 1
sj1j 3
sslj 7
sodx 1
szlj 7
cysq 3
sh0 4
so9j 1
smsq 9
sglj 7
s9lj 7
sdkj 1
sph 8
sph 1
sph 6
s67j 1
crc 4
su9q 6
ssvx 4
snzq 7
s43j 1
swpq 2
svh 8
svh 6
s0nt 1
sgvx 4
s9vx 4
cr6t 1
sbh 8
sbh 6
snvx 4
snvx 9
clpx 1
sng 4
sk3t 1
s4zq 7
srh 8
srh 6
sr3t 1
sw4q 5
sw4q 9
c9g 4
s7h 8
s7h 6
scsq 9
s73t 1
sb9q 6
stox 4
stox 1
s15q 2
sygq 3
se3t 1
swox 4
swox 1
s8zq 7
s4j 8
s4j 6
s4j 9
si3t 1
s1qx 4
s1qx 1
sf3t 1
ssgq 3
cw2 8
cw2 6
sa3t 1
s18q 5
s3qx 4
s3qx 1
smz 1
s38q 5
skgt 1
s8wx 5
sgvt 1
syqx 4
syqx 1
sczt 1
su5 4
su5 1
sk9q 6
szgq 3
shsq 9
sb3 1
s35q 2
ssmj 4
sa4t 1
sggq 3
szmj 4
s9gq 3
sgmj 4
spzq 7
s59 1
s9mj 4
sr9q 6
s5zq 7
s6e 8
s6e 6
snmj 4
sle 8
sle 6
c97 1
c97 2
cb1j 7
szoq 1
soe 8
soe 6
soe 9
s4mj 4
sqe 8
sqe 6
c3lj 7
sgoq 1
sje 8
sje 6
s8mj 4
c9zq 7
sui 7
sui 6
s9oq 1
sxe 8
sxe 6
s2sq 9
sbi 7
sbi 6
cj4q 5
svtq 1
sngq 3
ste 8
ste 6
ski 7
ski 6
s5mj 4
suvj 1
sw6t 4
sri 7
sri 6
ssmt 4
s79q 6
skc 8
skc 6
s7i 7
s7i 6
sum 1
s6sq 9
sqs 1
s8i 8
s8i 6
sei 7
sei 6
sn3t 1
se9q 6
sii 7
sii 6
sd5q 2
sd5q 4
sg6x 4
sfi 7
sfi 6
sykj 6
s9bj 1
sdmt 4
s3c 8
s3c 6
sai 7
sai 6
sfvt 6
s5pq 5
smi 7
smi 6
s2m 8
s2m 6
s2m 0
sb3j 6
s0pq 5
s93t 1
s4gq 3
czqq 1
sc6j 4
c4h 8
c4h 6
slsq 9
sep 8
sep 6
cb3t 1
s7hx 4
cyvx 4
ckbj 6
sua 8
sua 1
sua 6
cxox 4
cxox 1
sie 8
sie 1
sie 6
s8gq 3
smxt 3
svpq 5
svpq 0
sy8q 4
sbcj 3
sy5q 2
cd2 8
cd2 6
c2e 8
c2e 6
s8oq 3
s29q 1
s1rt 8
s3rt 8
s00t 3
sosq 9
sz7 7
sz7 6
sdrt 8
syrt 8
ssrt 8
szrt 8
c59q 6
cdgq 3
srct 8
ss5q 2
sk2 7
sk2 6
cvi 7
cvi 6
stvx 1
spct 8
sn1 7
sn1 6
sblj 1
supq 5
sunq 6
skat 8
sqsq 9
sbnq 6
s5gt 1
ca9q 3
s2i 0
ss8t 9
csoq 1
ss8q 4
c7p 8
c7p 6
s6i 0
sli 0
scqt 7
scqt 6
scqt 0
sjvt 8
sxvt 8
sxg 7
sxg 6
soi 0
sknq 6
stvt 8
srnq 6
swvt 8
s1ut 8
sqi 0
casq 9
sbpq 5
sz5q 2
sji 0
sln 7
sln 6
sxxt 9
sz8q 4
sz8q 1
s3ut 8
sr0 5
sxi 0
sxi 8
sti 0
sdut 8
stxt 9
sl4x 5
swxt 9
sjm 7
sjm 6
syut 8
swi 0
sc2q 5
sv2j 4
s98q 3
s1f 0
sxtt 8
skk 9
cs7 7
cs7 6
s96j 5
sx4 8
srtx 4
sw0 3
ch9q 1
si0 9
sg2x 7
sg2x 5
svc 8
s7v 5
s7v 2
s7nq 6
snix 4
si7j 4
s5nx 5
sv0 8
s92x 7
s92x 5
s65 8
s07j 9
cg8q 3
senq 6
sky 7
sky 5
s0c 0
cwkt 8
sv7j 9
c9f 0
sjdt 7
sjdt 5
s1tx 8
c4o 0
syt 0
syt 1
su7j 9
cymj 4
sgbt 7
sgbt 5
szt 0
szt 1
cvnq 6
sg5q 2
sb7j 9
s8lx 7
s8lx 5
smut 8
sk7j 9
sq4q 6
srwt 7
srwt 6
cppq 5
su8 9
su8 2
srht 7
srht 6
soex 9
s2pq 3
snt 0
snt 1
sout 6
s94 8
svf 2
sfrj 6
sent 9
sp6q 2
smgt 2
smgt 1
spwt 7
spwt 6
sf7j 6
selt 7
selt 6
svax 1
cqvt 8
s3i 5
suax 1
sdg 6
sa7x 9
cd8q 4
smfj 2
sdi 5
s9d 7
s9d 6
sbax 1
skpj 2
skpj 8
cjxt 9
spt 0
spt 1
syi 5
ssi 5
ssi 8
co4q 6
s6c 7
s6c 6
scoj 2
skax 1
s52t 7
s52t 6
szi 5
ct2t 7
ct2t 6
srax 1
cmqt 7
cmqt 6
s6pq 3
sni 5
sni 1
sni 2
s8pq 6
s7ax 1
seax 1
shf 0
shf 8
sfp 5
s2f 0
s2f 7
s2f 6
s2f 8
siax 1
sap 5
smp 5
slf 0
s9nq 8
smgq 9
sv8t 1
scgq 9
scp 5
sof 0
stz 1
srpq 4
slpq 3
sszt 1
sb8 1
shp 5
s3t 1
s3t 2
shgq 9
s2p 5
sd9q 7
cubq 2
sg8 8
spq 0
s6p 5
c4pq 6
sdk 5
sdk 0
codj 2
sdf 5
su6 6
su6 8
su6 1
s2gq 9
s8jx 8
sb6 6
sb6 8
sb6 1
s5cj 8
s76 5
s76 6
s76 8
s76 1
sk6 6
sk6 8
sk6 1
s15t 8
sqq 0
cwxx 8
s3s 5
sds 5
sr6 6
sr6 8
sr6 1
sys 5
sjq 0
sjq 8
cgnq 8
sss 5
sopq 3
ctpq 2
se6 6
se6 8
se6 1
szs 5
szs 0
sb4q 8
s7pq 4
sgs 5
sgs 2
sk4q 8
sy9q 7
s7o 6
s7o 1
s7o 0
s7o 8
s9s 5
s1h 6
s1h 0
s1h 8
s1h 1
sns 5
sn4q 1
sr4q 8
s3h 6
s3h 1
s3h 8
s86 0
s4s 5
sdh 6
sdh 8
sdh 1
sdh 7
sqf 5
sqf 0
sqpq 3
ss5x 9
ckj 0
sk8 5
syh 6
syh 0
syh 1
syh 8
sgi 5
s74q 8
s74q 9
ssh 6
ssh 1
ssh 8
sge 0
sqwt 9
se4q 8
slzx 9
sdft 9
sdft 6
s44q 1
szh 6
szh 0
szh 1
szh 8
cwe 5
sgh 6
sgh 1
sgh 8
suh 0
suh 1
suh 8
suh 6
syht 5
ss9q 7
ss9q 9
ssht 5
cv6 6
cv6 8
cv6 1
c57j 9
sz9q 7
sv1 5
sga 6
sga 0
sga 1
sga 8
soqt 5
sgd 5
sepq 4
s9a 6
s9a 0
s9a 1
s9a 8
si4q 8
cip 5
s84q 1
sna 6
sna 1
sna 8
s83 5
sp3 5
sjpq 3
sg9q 7
sta 6
sta 1
sta 8
s53 5
sxpq 3
cagq 9
sxy 5
sipq 4
s3j 6
s3j 1
s3j 8
s3j 2
s3j 9
s99q 7
siy 5
sx5x 3
sf4q 8
sbnt 3
sa4q 8
sehx 8
cwc 6
cwc 1
cwc 8
c1s 5
s9v 6
s9v 8
s4ij 8
sp4q 1
snv 6
snv 8
chpq 3
sw9q 9
s4v 6
s4v 8
sqbj 1
snot 1
spv 6
spv 8
s10q 5
s1nq 9
s50q 3
sn9q 7
s5v 6
s5v 8
sn1t 1
s0h 6
s0h 8
s0h 1
sm6q 1
ssj 6
ssj 0
ssj 1
ssj 8
ssj 9
s30q 5
syk 0
s3yj 1
ssk 0
sfpq 4
szk 0
ss0j 5
cu4q 8
sgk 0
sq1x 5
sq1x 1
s9k 0
s0xj 1
s8h 6
s8h 8
s8h 1
snk 0
c0ax 1
soiq 5
c94q 1
somq 8
s49q 7
soat 5
soat 0
s4f 6
s4f 0
s4f 1
s4f 8
sh2x 8
sw4t 1
sw4t 7
sw4t 8
s4k 0
s4k 3
s4k 8
s1t 6
s1t 1
s1t 8
sg8j 5
sr7 1
sr7 7
sze 0
snjx 1
snjx 7
s1c 6
s1c 8
s1c 1
s1c 9
s3nq 9
s53j 5
stm 0
sapq 4
cdht 5
s00q 3
cza 6
cza 1
cza 8
slc 0
sybj 6
c93 5
sae 0
chi 0
s7j 2
s7j 0
s7j 8
cdt 0
cdt 1
ssbj 6
sdnq 9
ccf 0
c8q 0
scux 6
cw5q 5
se8q 1
s69 2
c8a 0
sl9 2
s2xj 6
sek 0
sv0q 3
so9 2
sot 5
sot 6
sot 1
sot 0
sot 8
sot 9
sve 0
sqt 5
sqt 6
sqt 1
sqt 0
sqt 8
sqt 9
sq9 2
sdp 6
sdp 8
smpq 4
s89q 7
sjt 5
sjt 6
sjt 1
sjt 0
sjt 8
sjt 9
sj9 2
sxt 5
sxt 6
sxt 1
sxt 0
sxt 8
sxt 2
sxt 9
synq 9
cgpq 8
sx9 2
so0 6
so0 8
sg 5
sg 6
sg 2
sg 1
sg 0
sg 8
sg 9
sp9q 7
st9 2
su8x 7
sujt 8
sw9 2
sw9 8
shr 6
shr 8
s8e 0
s1n 2
s5h 0
s5h 8
s5h 6
s56 0
s56 7
s56 6
sej 6
sej 1
sej 0
sej 8
sx5 2
s44 7
cse 0
cz2x 7
cz2x 5
sc5 6
sc5 8
si8q 1
smat 0
ssnq 9
s4b 6
s4b 1
s4b 8
scat 0
cbct 7
cbct 6
cgv 6
cgv 8
sfe 2
sl5q 8
syr 0
swa 8
swa 9
su9 0
su0q 3
shwx 8
scpq 4
cci 6
cci 1
cci 8
sznq 9
sf8q 1
s00 8
s34j 4
cvjt 8
sg7 0
sg7 4
sg7 7
sg7 6
s1kt 4
c65q 8
c3k 0
c39q 7
seit 0
sa8q 1
ckpq 4
sul 8
sul 1
sul 6
siit 0
s6hx 4
sm8q 1
sfit 0
sbl 8
sbl 1
sb0q 3
skl 8
skl 1
slhx 4
sait 0
srl 8
srl 1
srl 2
sc8q 1
sohx 4
sn7 4
sn7 1
sn7 2
smit 0
s7l 8
s7l 1
s7l 6
st5q 6
sk0q 3
s5x 5
s5x 4
s5x 8
s5x 6
s5x 9
sh8q 1
sy4 6
scit 0
svot 0
si7t 4
si7t 1
sel 8
sel 1
sel 6
s4xx 4
stwq 9
stwq 0
clt 5
clt 6
clt 1
clt 0
clt 8
clt 9
sil 8
sil 1
sil 6
sil 2
sclj 6
s20t 4
syj 8
syj 6
syj 1
syj 9
s5l 6
s5l 8
s4at 4
s0a 0
s0a 1
sr0q 3
cdbj 6
s1pt 2
s8at 4
c7k 0
s3pt 2
c3p 6
c3p 8
st3 4
s8ut 0
s8ut 5
cx5q 6
sdpt 2
skij 4
sypt 2
sypt 5
s28q 1
sput 0
s70q 3
sspt 2
s5ut 0
szpt 2
sfj 8
sfj 0
sfj 1
srij 4
s0ut 0
sd 6
sd 2
sd 0
sd 8
ct9q 9
sy 6
sy 2
sy 0
sy 8
sy 9
s7ij 4
sgpt 2
svut 0
sbo 8
sbo 0
sbo 1
s5j 8
s5j 1
seij 4
sbx 6
sbx 2
sbx 0
sbx 8
sv4q 9
snpt 2
s4pt 2
siij 4
skjt 0
skx 6
skx 8
skx 2
skx 0
skx 1
sfij 4
suz 2
srx 6
srx 2
srx 0
srx 8
sy5t 4
s7x 6
s7x 2
s7x 5
s7x 0
s7x 8
sex 6
sex 2
sex 0
sex 8
sw2t 4
sw2t 7
sw2t 6
sao 5
sao 8
sao 1
sao 6
sao 9
sbz 2
caat 0
s68q 1
c7it 0
set 5
set 1
set 0
set 7
set 6
set 9
skh 4
skh 8
skh 7
skh 6
six 6
six 2
six 0
six 8
skz 2
skz 6
se0q 3
srz 2
svwj 0
sit 5
sit 6
sit 0
sit 7
sit 8
sit 9
sxx 6
sxx 2
sxx 1
sxx 0
sxx 8
s7z 2
sft 5
sft 1
sft 0
sft 7
sft 6
sft 9
smt 5
smt 0
smt 7
smt 9
sddt 4
suwj 0
suwj 8
c2hx 4
sez 2
sbwj 0
sy0q 4
s8t 6
s8t 2
s8t 1
s8t 0
s8t 8
ctt 6
ctt 2
ctt 0
ctt 8
skwj 0
srwj 0
sur 2
sur 0
srbq 8
sig 2
s6t 5
s6t 7
s6t 9
s7wj 0
sd1t 7
sewj 0
s3 5
s3 6
s3 2
s3 1
s3 0
s3 7
s3 8
s3 9
si0q 3
sl8q 1
c04q 9
sw8q 9
sb0 2
sb0 5
sb0 8
siwj 0
sy1t 7
swb 3
sp8t 3
s1pq 9
caa 2
caa 8
so8 3
ss1t 7
cu0x 1
cu0x 7
sjh 5
sjh 9
sfwj 0
sk0x 0
sxh 5
sxh 2
sxh 9
c29 2
s7bq 8
sz1t 7
cp0q 3
c4ut 0
sa6 2
sa6 1
c78q 1
sth 5
sth 9
sm6 2
sm6 4
sm6 0
sm6 1
sbst 7
sj6 3
sj6 8
sj6 6
sj6 0
swh 5
swh 6
swh 1
swh 8
swh 9
s12 5
s12 1
s12 6
s12 9
sx6 3
sx6 1
sx6 8
sx6 6
sebq 8
st6 3
st6 8
st6 6
szx 5
szx 6
szx 0
szx 8
szx 9
sbpx 2
sw6 3
sw6 8
sw6 6
ss0q 4
s3l 3
s3l 8
s3l 6
skpx 2
srpx 2
sdl 3
sdl 5
sdl 8
sdl 6
sdl 9
ssl 5
ssl 2
ssl 6
ssl 8
ssl 9
syx 3
syx 6
syx 0
syx 8
syx 9
sox 5
sox 6
sox 2
sox 8
sox 1
sox 0
sox 9
sepx 2
s3pq 9
sut 3
sut 6
sut 0
sut 8
sut 1
smj 6
smj 2
smj 1
smj 0
smj 8
s4nq 7
sq8q 0
sipx 2
scj 6
scj 2
scj 0
scj 1
scj 8
suj 3
suj 6
suj 8
suj 0
suj 1
suj 7
s8nq 7
saq 3
saq 8
saq 1
saq 2
saq 6
shj 6
shj 2
shj 0
shj 8
s2j 6
s2j 2
s2j 0
s2j 8
slj 6
slj 2
slj 0
slj 8
sfpx 2
soj 6
soj 2
soj 0
soj 8
s1q 3
s1q 6
s1q 0
s1q 8
s1q 1
sqj 6
sqj 2
sqj 0
sqj 8
sj8q 0
s8o 5
s8o 0
s8o 8
s8o 6
s8o 9
sxj 6
sxj 2
sxj 0
sxj 8
s1 3
s1 6
s1 2
s1 1
s1 0
s1 8
sapx 2
cpx 5
cpx 9
sret 2
so2 3
so2 0
cux 6
cux 2
cux 0
cux 8
sq2 3
sibq 8
sdpq 9
sj2 3
s0t 6
s0t 0
s0t 8
szbx 8
sz0q 4
sqr 5
sqr 9
svt 6
svt 0
svt 8
sx2 3
sog 2
st2 3
su3j 8
s9i 2
s9i 5
s9i 4
s9i 1
sbt 6
sbt 0
sbt 8
sjr 5
sjr 0
sjr 9
shdj 8
s7px 8
s7px 2
s1l 3
s1l 8
s1l 6
s8d 2
skt 6
skt 0
skt 8
skt 9
cq6 3
cq6 8
cq6 6
sxr 5
sxr 9
str 5
str 9
s2mt 8
c0l 8
c0l 1
s56t 2
st 3
st 5
st 6
st 2
st 1
st 0
st 7
st 8
st 9
s4mt 2
s3nt 2
sv 3
sv 5
sv 6
sv 2
sv 1
sv 0
sv 8
sv 9
swr 5
swr 9
spnq 7
sx8q 0
s17 5
s17 9
sg0q 4
s37 5
s37 9
se 3
se 5
se 6
se 2
se 1
se 0
se 7
se 8
se 9
sd7 5
sd7 1
sd7 9
cw8t 2
s7 3
s7 5
s7 6
s7 2
s7 1
s7 0
s7 7
s7 8
s7 9
svkt 0
sypq 9
cx 3
cx 5
cx 6
cx 2
cx 1
cx 0
cx 7
cx 8
cx 9
srbx 0
slsx 0
s5nq 7
s7c 0
s7c 4
sspq 9
sz 5
sz 6
sz 2
sz 0
sz 8
sz 9
srkt 2
smh 3
soo 5
soo 6
soo 0
soo 8
soo 1
soo 9
cl2 3
c0wj 0
s7kt 2
s7kt 4
s7kt 6
sgl 5
sgl 6
sgl 1
sgl 0
sgl 8
sgl 9
sekt 2
sekt 0
snh 3
snh 8
sikt 2
s32 5
s32 9
swx 3
swx 0
syg 2
s0nq 7
snf 2
snf 0
sij 3
sij 0
cso 5
cso 8
cso 1
cso 6
cso 9
sk 3
sk 5
sk 6
sk 2
sk 1
sk 0
sk 8
sk 9
sin 2
szvq 8
s90q 4
crt 5
crt 7
crt 9
s4tx 7
sn0q 4
cqh 5
cqh 9
szpq 9
sfq 2
sfq 0
sfq 1
su4j 9
su4j 7
seb 5
sq 3
sq 5
sq 6
sq 2
sq 1
sq 0
sq 7
sq 8
sq 9
s4mx 7
sc4 2
so 3
so 5
so 6
so 2
so 1
so 0
so 7
so 8
so 9
sib 5
s49 2
s40q 4
smx 1
smx 0
smx 6
stl 6
stl 0
stl 1
stl 8
spi 5
spi 9
sh 3
sh 5
sh 6
sh 2
sh 1
sh 0
sh 7
sh 8
sh 9
s1i 2
s1i 5
sa 3
sa 5
sa 6
sa 2
sa 1
sa 0
sa 8
sa 9
swl 6
swl 0
swl 8
swl 9
sat 5
sat 1
sat 0
sat 7
sat 6
sat 9
cvz 2
c31t 7
s2x 1
s2x 7
s2x 0
s2x 8
s2x 6
cor 5
cor 9
cf6 2
cf6 1
s2 3
s2 5
s2 6
s2 2
s2 1
s2 0
s2 7
s2 8
s2 9
s1o 6
s1o 0
s1o 8
cr 3
cr 5
cr 6
cr 2
cr 1
cr 0
cr 7
cr 8
cr 9
s6x 1
s6x 0
s6x 6
sr2j 2
s19 5
s3o 6
s3o 2
s3o 0
s3o 1
s3o 8
cf 3
cf 5
cf 6
cf 2
cf 1
cf 0
cf 8
cf 9
sdo 6
sdo 0
sdo 8
sn 3
sn 5
sn 6
sn 2
sn 1
sn 0
sn 8
sn 9
s72j 2
co8q 0
syo 6
syo 8
syo 0
syo 1
s4 3
s4 5
s4 6
s4 2
s4 1
s4 0
s4 8
s4 9
c7b 5
s85q 0
se2j 2
sgvq 8
s8 3
s8 8
s8 5
s8 6
s8 2
s8 1
s8 0
s8 7
s8 9
ssq 5
ssq 6
ssq 1
ssq 8
svj 6
svj 0
svj 8
sjx 1
sjx 0
sjx 4
sjx 6
si2j 2
saux 2
szq 5
szq 6
szq 0
szq 8
s4z 2
sjj 6
sjj 2
sjj 0
sjj 1
sjj 8
sp 3
sp 5
sp 6
sp 2
sp 1
sp 0
sp 8
sp 9
sgq 5
sgt 1
sgt 0
sgt 6
s2tq 2
ct8q 9
s80q 4
shx 6
shx 2
shx 1
shx 0
shx 8
snq 5
sp5q 0
s5 3
s5 5
s5 6
s5 2
s5 1
s5 0
s5 8
s5 9
cnnq 7
sm 3
sm 5
sm 6
sm 2
sm 1
sm 0
sm 7
sm 8
sm 9
s4q 5
s4q 4
s4q 9
s6tq 2
sr4j 4
sl 3
sl 5
sl 6
sl 2
sl 1
sl 0
sl 7
sl 8
sl 9
sltq 2
scq 6
scq 1
scq 0
scq 8
sdx 5
sdx 6
sdx 0
sdx 8
sj 3
sj 5
sj 6
sj 2
sj 1
sj 0
sj 7
sj 8
sj 9
sb1 4
s5q 6
s5q 0
s5q 8
s9vq 8
se9 5
caj 6
caj 2
caj 0
caj 8
sotq 2
s6mx 4
c5t 6
c5t 0
c5t 8
si 3
si 5
si 6
si 2
si 1
si 0
si 7
si 8
si 9
si9 5
sqtq 2
sc 3
sc 5
sc 6
sc 2
sc 1
sc 0
sc 7
sc 8
sc 9
s55q 0
cnat 4
s6 3
s6 5
s6 6
s6 2
s6 1
s6 0
s6 8
s6 9
sf9 5
s2o 6
s2o 0
s2o 1
s2o 8
s2o 2
sjtq 2
cbij 4
c0 3
c0 5
c0 6
c0 2
c0 1
c0 0
c0 8
c0 9
s9l 1
s9l 6
s6o 6
s6o 0
s6o 1
s6o 8
sm9 5
sr5q 9
sxtq 2
snl 1
snl 6
sttq 2
s9jt 3
s9jt 9
slo 6
slo 0
slo 5
slo 1
slo 8
snjt 3
svm 2
svm 1
sc9 5
s4jt 3
s8jt 3
s8jt 6
s4l 1
s4l 6
sh9 5
sqo 6
sqo 1
sqo 0
sqo 8
sqzt 2
sc4q 7
sad 5
sad 2
smd 5
spjt 3
szj 1
szj 6
szj 9
smk 2
sjo 6
sjo 0
sjo 1
sjo 8
s5jt 3
s5jt 6
sxo 6
sxo 0
sxo 1
sxo 8
s9gt 2
scd 5
s0jt 3
s0jt 2
svo 1
svo 0
svo 6
shd 5
sto 6
sto 0
sto 1
sto 8
s3kt 2
s3kt 8
s2d 5
s05q 0
sde 3
sde 2
sh4q 7
s6d 5
snvq 8
sld 5
s21j 2
swo 6
swo 0
swo 1
swo 8
s1gx 2
sbe 3
cah 3
s75q 9
sod 5
cupx 2
shft 3
shft 8
s24q 7
s24q 9
sqd 5
s64q 7
cd0q 4
cbkt 2
skg 3
szft 4
szm 5
sqx 6
sqx 2
sqx 1
sqx 0
sqx 8
siu 3
siu 7
sa0q 2
sug 5
sug 8
shat 3
shat 0
sgkj 4
s0qt 3
s9kj 4
spj 6
spj 0
spj 1
spj 8
s2q 1
s2q 0
s2q 6
s2q 9
sv5q 0
s02 3
s02 5
srj 5
srj 0
skmt 3
snkj 4
s6j 6
s6j 2
s6j 1
s6j 0
s6j 8
s6j 9
sp7 5
sp7 8
sp7 1
sp7 2
srmt 3
srmt 0
s4kj 4
soc 5
siv 5
siv 2
sm0q 2
s7mt 3
sqgt 4
sl4q 7
s9q 5
s9q 0
s9q 4
semt 3
semt 9
se5q 9
ctg 5
s4t 6
s4t 1
s4t 0
s4t 8
s4vq 8
simt 3
svoj 7
s17j 4
cdq 5
c79 5
s7oj 7
sfmt 3
csft 4
sal 6
sal 0
sal 8
scl 6
scl 0
scl 8
sfx 5
sfx 6
sfx 2
sfx 0
sfx 8
sfx 9
swvj 4
s4rx 7
shl 6
shl 0
shl 8
samt 3
samt 5
si5q 9
s9t 5
s9t 6
s9t 2
s9t 1
s9t 0
s9t 8
s9t 9
s1uj 4
smmt 3
s8x 5
s8x 6
s8x 0
s8x 8
s8x 9
s2l 6
s2l 1
s2l 0
s2l 8
cax 1
cax 0
cax 6
sf5q 9
s31 1
s31 0
s3uj 4
sjqx 4
smlt 5
su3 3
su3 7
sjet 4
s8vq 8
su5q 0
cm4q 7
sclt 5
s6l 6
s6l 0
s6l 8
sll 6
sll 0
sll 8
sq7 3
sq7 1
sq7 0
sq7 2
shlt 5
sdbt 4
sih 3
sih 0
sih 4
syxj 7
sd1 1
sy1 1
sy6 5
sy6 6
sy6 0
sy6 8
sol 6
sol 0
sol 8
ssxj 7
c9h 3
szxj 7
czkj 4
swg 5
sb5q 0
sgxj 7
ss1 1
ss2 3
ss2 1
sql 6
sql 0
sql 8
sa5q 9
sc0q 2
sjl 6
sjl 0
sjl 8
saej 0
sko 5
sko 0
sa9 5
sz2 3
sz2 1
s9xj 7
svd 1
sg2 3
sg2 5
sg2 1
sg2 7
sg2 6
s43 5
s3x 5
s3x 6
s3x 0
s3x 8
cfd 5
seq 6
seq 0
seq 1
seq 2
seq 8
snxj 7
sud 1
c3q 5
c3q 8
c3q 9
s92 3
s92 6
s92 1
s92 8
sn2 3
sn2 1
s4xj 7
spvq 8
sbd 1
s5vq 8
skd 1
s8xj 7
s1g 8
s42 3
s42 1
s82 3
s82 2
s82 6
s82 4
s82 1
s82 8
srd 1
suxt 7
c45q 0
ssx 6
ssx 0
ssx 8
sp2 3
sp2 1
s7d 1
sthx 7
sklq 7
sst 3
sst 8
sst 0
sst 1
sed 1
sgx 6
sgx 0
sgx 8
srlq 7
sid 1
s9x 6
s9x 0
s9x 8
sb 3
sb 5
sb 6
sb 2
sb 1
sb 0
sb 8
sb 9
savq 4
sa2 3
sa2 6
sa2 0
sa2 1
sa2 8
sm5q 9
sh0q 2
s7t 3
s7t 5
s7t 7
s7t 1
s7t 9
snx 6
snx 0
snx 8
shnj 7
shs 1
s1j 3
s1j 1
s1j 8
s1j 6
s1j 2
s1j 9
sxkt 2
s4x 6
s4x 0
s4x 8
s4x 1
s54 7
ssnx 2
sekj 6
cu 3
cu 5
cu 6
cu 2
cu 1
cu 0
cu 8
cu 9
sevq 5
sikj 6
ckbq 8
smo 2
smo 8
smo 6
s2qt 7
s2qt 6
sfkj 6
s2lq 7
sljq 2
sljq 0
s8b 1
s8b 6
c9 3
c9 5
c9 6
c9 2
c9 1
c9 0
c9 8
c9 9
sakj 6
spb 1
spb 6
s1gj 7
s9dx 2
so0q 0
s5b 1
s5b 6
stqq 3
smkj 6
cdxj 7
sckj 6
swqq 3
ck2j 2
s0b 1
s0b 6
s0b 9
snpq 7
cblq 7
shkj 6
smvq 4
s2kj 6
sivq 5
chtq 2
svb 1
svb 6
s1jq 3
s3jq 3
c9pq 7
s6kj 6
slkj 6
sqhj 5
sqhj 2
sqhj 4
sc5q 9
sub 1
sub 6
sh5q 9
sdjq 3
csvq 8
swqj 8
swqj 4
s25q 9
sy3x 6
cf0q 2
sbb 1
sbb 6
spmj 5
spmj 4
syjq 3
spa 5
spa 0
sk0 9
sq0q 0
s1jj 8
satq 9
sxjj 6
ck5q 9
s3jj 8
skb 1
skb 6
sncj 5
smtq 3
s6f 3
s6f 0
srb 1
srb 6
sj0q 0
sdjj 8
sjgx 5
shfj 6
s0x 3
s0x 5
s0x 0
s0x 9
sckq 5
cgjt 3
syjj 8
ccft 3
s7pt 5
s7pt 4
s2r 1
s2r 6
sh6 6
sh6 0
sh6 1
sh6 8
ssjj 8
s26 6
s26 0
s26 7
s26 8
czl 1
czl 6
calt 5
s66 6
s66 0
s66 8
sd7j 3
cmq 1
cmq 0
cmq 6
siq 6
siq 0
siq 8
siq 1
siq 2
sx0q 0
stvq 2
szjj 8
sq5q 7
sbvt 8
scvq 4
syvq 9
sfo 6
sfo 0
sfo 8
c7vq 5
swsx 1
sy7j 3
ss7j 3
s8j 6
s8j 0
s8j 8
suyt 5
s29t 8
sz7j 3
sxrx 9
sxrx 4
s1zx 1
sbyt 5
shvq 4
sg7j 3
s3zx 1
cxl 6
cxl 0
cxl 8
s97j 3
st0q 0
sp3t 9
s1qt 8
skyt 5
sn7j 3
sdzx 1
syzx 1
cho 6
cho 0
cho 1
cho 8
sryt 5
cfl 6
cfl 0
cfl 8
snwj 9
c1x 6
c1x 0
c1x 8
sw0q 0
s47j 3
s7yt 5
s87j 3
sauq 8
sauq 2
sszx 1
slbt 9
seyt 5
sk1x 9
szzx 1
sp7j 3
smuq 8
sv9t 3
sbq 6
sbq 0
sbq 8
sbq 9
siyt 5
siyt 7
swvq 2
sgzx 1
s4r 9
s4r 8
skq 6
skq 0
skq 8
sl3 3
skzt 3
sn8 5
sijj 3
sj5q 7
s9zx 1
si7 3
si7 0
syc 7
syc 1
syc 6
sdet 5
cdvq 9
s9pt 5
s9pt 2
shy 3
s5xt 5
shq 6
shq 1
shq 0
shq 8
szu 5
szu 7
szu 6
swot 7
snzx 1
selx 3
s6q 6
s6q 0
s6q 1
s6q 8
spc 7
sgu 5
sgu 7
sgu 1
sgu 6
szvx 1
szvx 4
sc6t 3
s9u 5
s9u 7
s9u 6
snu 5
snu 7
snu 6
spax 7
s2vq 4
sdvt 1
s4u 5
s4u 7
s4u 6
cbmt 3
snn 7
scuq 8
s8u 5
s8u 7
s8u 6
c11 1
s2t 6
s2t 0
s2t 8
sldt 7
spu 5
spu 4
spu 7
spu 6
s1vq 0
svuq 9
c0d 1
s5u 5
s5u 8
s5u 7
s5u 6
sht 7
sht 0
sht 5
sht 1
c7kj 6
s4oq 7
se2 6
se2 5
se2 0
se2 8
si2 6
si2 0
si2 8
stf 5
stf 0
stf 4
stf 7
stf 6
s1uq 2
s0rt 7
sf7t 1
sf7t 0
shuq 8
sf2 6
sf2 0
sf2 8
co5q 7
sa7t 1
sp6 5
sp6 7
sp6 6
s3uq 2
svu 7
svu 2
suu 7
suu 0
sbu 7
sku 7
sku 2
sku 1
sx2t 1
s46 5
s46 7
s46 6
sm2 6
sm2 0
sm2 8
s1e 5
s1e 7
s1e 6
s30 1
s30 7
s30 6
sc2 6
sc2 0
sc2 8
sh2 6
sh2 0
sh2 8
sru 7
s3tt 5
snbq 3
snbq 2
sduq 2
s7u 7
s0xt 1
s22 6
s22 0
s22 8
seu 7
sdtt 5
sdtt 9
sytt 5
cnb 1
cnb 6
s3vq 0
sfu 7
sau 7
s62 6
s62 0
s62 7
s62 8
s6vq 4
sdaj 1
suuq 9
syaj 1
sstt 5
ssaj 1
szaj 1
svq 7
svq 5
svq 6
svq 2
svq 0
svq 1
svq 8
svq 9
sztt 5
smtt 7
s2uq 8
suq 6
suq 0
suq 8
sgaj 1
sctt 7
s9aj 1
sgtt 5
cl0q 0
snaj 1
stut 1
slx 6
slx 1
slx 0
slx 8
s1lj 1
s9tt 5
sbj 6
sbj 0
sbj 8
s2tt 7
syuq 2
s36 6
s36 0
s36 8
cc6 6
cc6 0
cc6 8
shtt 5
shtt 7
shtt 0
ctsx 1
syq 7
syq 5
syq 6
syq 1
syq 8
syq 9
svl 7
svl 8
svl 0
svl 1
s3b 5
slvq 4
s6uq 8
c0q 6
c0q 0
c0q 8
seg 7
ce7t 1
sbuq 9
s8v 7
s8v 6
s8v 8
s8v 9
sdb 5
sdb 4
sdb 6
sn5q 1
s2h 7
s2h 5
s2h 9
s4bq 3
c0u 7
sp1j 1
sp1j 2
syb 5
simq 1
ssb 5
c3aj 1
szb 5
skuq 9
sruq 9
sgb 5
sgb 6
sgb 8
s9b 5
s9b 6
sre 5
sgr 5
s8bq 3
srvq 6
sluq 8
srk 6
s9uq 0
sovq 4
sxuq 7
sdbq 5
swt 4
swt 5
swt 6
swt 2
swt 1
swt 0
swt 7
swt 8
swt 9
sp3x 6
ssuq 2
sqpj 4
sml 6
sml 0
sml 8
snjq 4
siqj 6
siqj 4
siot 4
seqq 6
c95q 1
s76x 6
s7uq 9
s9it 4
cewq 6
s5xx 4
spbq 3
c72 6
c72 0
c72 8
snuq 0
souq 8
s5qq 4
s5qq 1
s5bq 3
ctvj 4
ssjt 3
cfvq 4
stuq 7
szbq 4
sybq 5
sybq 9
ss4x 3
ss4x 4
s60q 1
s60q 5
swpx 5
swpx 1
cxvq 2
squq 8
sont 1
s4uq 0
sz5x 8
skkt 3
skkt 2
sfm 3
si6x 5
si6x 1
seat 5
seat 7
schx 1
swuq 7
sy7 8
sy7 5
sy7 9
sdwt 3
sdqx 5
sdqx 4
sdqx 1
ss 8
ss 6
ss 2
ss 0
ss 1
ss 9
sok 8
sok 2
skzx 7
seuq 9
sawq 7
cy2 3
cy2 1
catt 7
sco 5
sco 1
sco 8
sco 6
siuq 9
sgbq 4
ckvq 6
ssnt 9
suft 6
cxqq 3
cvyt 5
s27t 8
s8uq 0
c37j 3
csu 5
csu 7
csu 6
s04x 8
spuq 0
scx 9
scx 1
scx 0
scx 6
ctqj 8
c1tt 5
c1b 5
svbq 2
sxkq 2
s5uq 0
spnj 2
si6 2
si6 6
si6 0
si6 8
si6 1
sn3 0
sn3 5
s1wq 2
s1ux 2
s1bj 2
c20q 1
s14x 1
c0bq 2
c9bq 3
csbq 4
c3bq 5
c1bq 6
cjuq 7
cfuq 8
c0uq 9
cguq 0
czuq 1
