591
sb2 0
sz6 1
so 2
sro 2
stf 1
sp 0
s62 2
sea 1
sl7 0
smq 2
s5o 1
sbe 0
s0h 1
s0x 2
she 0
stx 2
syi 1
syt 0
s8a 2
sbl 1
sfo 0
sj 2
st 1
sx 0
szm 2
stj 1
sah 0
snc 2
so6 1
scc 0
si 2
sim 1
st7 0
sw7 1
soq 2
sdo 0
sqj 2
skx 1
s9j 0
sze 2
s3i 1
s4c 0
sra 2
se6 1
sqt 0
ssq 2
smo 1
s3e 0
syo 2
sul 1
s8j 0
sf2 1
sqf 2
sxx 0
s52 1
set 2
s6x 0
srf 2
sg 1
s6 0
sqa 1
sva 2
stt 0
skf 2
s86 1
s6f 0
six 1
sgi 2
s8o 0
ssj 2
suc 1
sli 0
s3f 2
s6q 1
sxa 0
syj 1
s0m 2
sd 0
szl 2
s7t 1
sic 0
sge 1
sif 2
sam 0
sai 2
swc 1
smt 0
slm 1
sjh 2
sqo 0
sih 2
swh 1
ska 0
sz 2
swe 1
sjx 0
ss 1
s3q 2
sl 0
shx 2
su6 1
sbj 0
s5q 2
s1i 1
sza 0
ssh 0
ski 1
shm 2
sma 2
src 1
szo 0
sde 0
svo 1
sy6 2
snq 0
sux 1
s96 2
sgm 2
s27 1
sto 0
svj 1
slx 0
slj 2
soo 0
s4j 1
sie 2
sgq 2
sl6 1
scq 0
saq 0
slh 1
shh 2
s8e 2
sef 1
sc 0
spa 2
sja 1
skh 0
sfc 2
sph 1
sem 0
s3h 2
sm2 1
sch 0
shj 0
sc2 1
s1e 2
shq 0
s5h 2
svx 1
sdf 2
srt 1
syf 0
sal 2
scx 0
szx 1
swt 2
slf 0
sw6 1
s4 1
sm6 0
si6 2
sxt 0
sac 2
sjj 1
sot 1
s6e 2
swq 0
suh 0
s6l 2
sdt 1
s1o 0
spt 1
s7a 2
sw2 1
sme 2
sll 0
sri 2
svc 1
suq 0
s4t 0
s1j 1
s9l 2
sdi 0
sko 1
smx 2
spi 2
sr6 1
s7l 0
s8h 1
sha 2
sfx 0
sv2 0
s2a 2
sof 1
s7o 0
snf 2
sej 1
sse 2
s82 0
sn2 1
sb 2
sgj 0
s3t 1
smi 2
sth 0
szc 1
sl2 1
sca 0
sd2 2
skt 1
spq 0
s9x 2
s4f 0
si2 2
ss2 1
s0t 0
s6h 2
s2t 1
s4h 1
s2f 2
sbf 0
soj 0
s7c 2
s2x 1
srx 0
ssm 2
s0j 1
sec 0
sr2 2
smc 1
s5f 0
sqq 2
sgt 1
svh 2
sui 0
s22 1
spl 1
smh 0
spo 2
syc 2
s0c 1
sjc 0
s9a 0
ske 1
srh 2
swi 1
sm7 2
se 0
sfi 1
s92 2
spj 0
sgh 0
sex 1
sxj 2
s7q 0
sf7 2
s8q 1
scf 1
snt 0
spm 2
s6c 2
s3o 0
s9m 1
sg2 1
s3c 0
stm 2
stq 2
sqc 0
sh7 1
svl 1
shi 2
sye 0
szi 1
ss6 2
s6t 0
s4o 1
ssc 0
s66 2
sdc 1
sax 2
skl 0
s2m 1
ssi 0
swx 2
sa7 2
s0q 1
sml 0
sm 0
sr 1
seq 2
sbh 2
s16 0
sue 1
sp6 0
spe 1
s1a 2
srq 1
sji 2
s5c 0
smm 2
s9t 1
sa 0
suo 2
sfl 1
sv6 0
s8i 1
s2o 2
svi 0
sfj 0
slq 1
sio 2
s8l 0
smj 1
sut 2
s0a 2
s7 0
soe 1
sdh 1
s1x 0
soi 2
s46 1
sce 0
s06 2
szj 2
smf 0
syh 1
sla 2
s2e 0
sxm 1
s2c 0
seo 1
sbt 2
sq7 2
sgf 1
s3m 0
sox 0
sb6 1
s4q 2
snm 0
sx6 1
sho 2
sa2 2
sit 0
sle 1
svt 1
s9c 2
sh6 0
s8m 0
s6a 2
s5l 1
sdm 0
s1l 2
s72 1
sy 2
ssx 1
seh 0
so2 1
swj 2
se2 0
sv 1
snh 0
sht 2
s1m 1
sq2 0
sxo 2
s76 1
s2j 0
see 2
soc 2
sk2 0
szt 1
s5t 2
s0o 1
ssa 0
s2q 0
sct 2
saf 1
srm 1
skq 2
sgx 0
ssl 2
sco 1
s56 0
s4a 1
sj2 2
sgl 0
shl 0
sso 2
sil 1
sta 1
sfa 0
sy2 2
sua 2
s4x 0
szf 1
sf6 0
s5 1
sd6 2
s6m 2
suj 0
sh 1
sst 2
s7h 1
sjo 0
sff 1
s4e 0
snl 2
shf 2
syx 0
svq 1
sje 2
s4l 0
soh 1
som 1
sf 0
sei 2
sjq 2
sre 1
sao 0
stl 0
sdx 1
sbc 2
sg6 0
s32 1
s12 2
s9e 1
sbq 0
siq 2
sna 1
s8 0
sxf 2
sfe 1
s6i 0
skm 2
s9 2
s1t 0
slc 1
sa6 0
sk6 1
sum 2
s02 2
sol 1
s3 0
sfm 2
s8f 0
sno 1
s2h 1
sij 0
skj 2
s8c 0
sq6 1
s2l 2
skc 2
s9q 1
s8t 0
s3l 1
saa 2
sve 0
s1f 1
sqh 2
sia 0
sn 0
scm 2
ste 1
s5m 1
sjl 0
sql 2
sbm 2
s2 0
s7f 1
snx 2
st2 0
s7x 1
sft 1
sxc 2
syl 0
su 2
sjt 1
sqi 0
sym 0
suf 1
s5x 2
sx7 2
s7m 1
soa 0
shc 2
sx2 1
sni 0
s1h 2
s5e 1
srj 0
sti 2
s2i 1
s3j 0
sh2 1
spx 2
s3x 0
sn6 0
sgo 2
swa 1
s5i 0
syq 1
sjf 2
s0e 2
svf 1
s9h 0
s8x 2
sj7 1
s7e 0
sxq 2
snj 1
s42 0
si7 0
s9o 2
sz2 1
s36 2
sc6 1
srl 0
s4i 0
sbx 1
sdj 2
sbi 1
sya 2
swf 0
s1q 2
st6 1
su2 0
swl 1
sxe 2
stc 0
s26 1
spc 2
s6o 0
s67 0
s0 1
s1 2
sdl 2
sj6 1
sci 0
sdq 2
swo 0
szh 1
s6j 0
s9i 1
scj 2
s5j 1
s9f 0
scl 2
sxi 0
ssf 1
sfq 2
sba 2
sxl 1
sc7 0
sfh 2
sne 1
s1c 0
s3a 2
svm 1
sii 0
sjm 1
sga 2
sat 0
sae 0
s5a 2
sgc 1
so7 0
sqm 2
s7j 1
sxh 0
s7i 1
s4m 2
sda 2
s0i 1
sqe 0
slo 1
spf 0
sbo 2
sel 0
c0f 2
caj 0
c0l 1
ce7 2
ck 0
clt 1
cp2 2
cq 0
cqx 1
cwm 2
czq 0
