3924
s317196 0
s971056 1
s55859 2
s1035822 3
s527809 4
s982021 5
s1540433 6
s1216015 7
s1807031 8
s1597149 9
s571596 10
s871902 11
s631367 12
s131016 13
s1394724 14
s1748309 15
s1447017 16
s777888 17
s148703 18
s1887378 19
s1231688 20
s64176 21
s94980 22
s325098 23
s207649 24
s1741987 25
s187206 26
s984216 27
s1129020 28
s731642 29
s1491021 30
s1477166 31
s861138 32
s580641 33
s1921867 34
s902679 35
s1314855 36
s1129454 37
s1839809 38
s55999 39
s688937 40
s1707545 41
s1383091 42
s1221410 43
s1756717 44
s941215 45
s170891 46
s1388119 47
s1139856 48
s961352 49
s1832063 50
s1506412 51
s834266 52
s1226098 53
s1847633 54
s544374 55
s1516540 56
s618676 57
s1664664 58
s363291 59
s1847803 60
s1597299 61
s475350 62
s87494 63
s549804 64
s441066 65
s52451 66
s44121 67
s1038770 68
s1283229 69
s358252 70
s1843713 71
s1637947 72
s502554 73
s603837 74
s210439 75
s1414503 76
s743355 77
s658559 78
s1134830 79
s397249 80
s230484 81
s1638759 82
s1225962 83
s388402 84
s645415 85
s1558791 86
s1949597 87
s1350603 88
s1145330 89
s84451 90
s1715322 91
s1255508 92
s1024778 93
s717830 94
s1736596 95
s1360423 96
s216233 97
s687016 98
s957730 99
s1333065 0
s68914 1
s79082 2
s980521 3
s842586 4
s1243342 5
s5598 6
s28189 7
s1431356 8
s1166296 9
s1444923 10
s275750 11
s608133 12
s1717879 13
s1491478 14
s544838 15
s515930 16
s1320537 17
s1773440 18
s452423 19
s585332 20
s809921 21
s723266 22
s299694 23
s1422789 24
s940812 25
s490580 26
s502761 27
s217370 28
s1556076 29
s679889 30
s1105977 31
s795291 32
s863605 33
s1675237 34
s628061 35
s1177035 36
s607956 37
s1891971 38
s942091 39
s473536 40
s1328918 41
s823900 42
s415643 43
s1816040 44
s1854068 45
s1832611 46
s876160 47
s1021775 48
s1733998 49
s1487453 50
s1804479 51
s766536 52
s94343 53
s375148 54
s1812404 55
s1395378 56
s1768612 57
s806506 58
s31264 59
s812780 60
s1543328 61
s1212940 62
s517610 63
s1175777 64
s250887 65
s103526 66
s508021 67
s19209 68
s738896 69
s131628 70
s1749593 71
s1456768 72
s558949 73
s1928809 74
s950594 75
s1914181 76
s814776 77
s1987883 78
s449500 79
s387308 80
s269585 81
s938966 82
s114053 83
s372634 84
s438519 85
s726535 86
s245821 87
s1130330 88
s897814 89
s1434524 90
s855717 91
s655259 92
s693950 93
s178406 94
s33389 95
s696304 96
s142037 97
s1585870 98
s1340315 99
s1140046 0
s1598901 1
s1911418 2
s261526 3
s1009787 4
s1920162 5
s697 6
s371249 7
s788776 8
s694741 9
s1571774 10
s1083409 11
s1013989 12
s375777 13
s584672 14
s911857 15
s1133763 16
s551623 17
s1730963 18
s773146 19
s1012148 20
s1784150 21
s1315405 22
s1350448 23
s1238906 24
s464527 25
s1735583 26
s1621246 27
s872984 28
s1493256 29
s142419 30
s997132 31
s1773091 32
s1177695 33
s826115 34
s1585620 35
s180345 36
s1201877 37
s1299633 38
s306107 39
s674843 40
s1939510 41
s995946 42
s789700 43
s116572 44
s836416 45
s1223864 46
s1027758 47
s964121 48
s1908301 49
s1421406 50
s46504 51
s117986 52
s1039585 53
s921485 54
s920147 55
s486012 56
s1603916 57
s1420236 58
s1854660 59
s1127074 60
s70913 61
s350818 62
s80332 63
s7688 64
s1612739 65
s1455023 66
s1515860 67
s1314836 68
s938493 69
s1571957 70
s1980057 71
s1038481 72
s1368268 73
s1747317 74
s1171405 75
s1974287 76
s112201 77
s1481630 78
s174211 79
s646617 80
s148435 81
s1878302 82
s1086845 83
s703246 84
s814097 85
s92368 86
s1225892 87
s1885249 88
s2336 89
s27569 90
s983017 91
s237653 92
s939513 93
s1350852 94
s1283341 95
s1779379 96
s834643 97
s483515 98
s249088 99
s1613710 0
s809206 1
s723931 2
s1652568 3
s374882 4
s141368 5
s1825385 6
s1943155 7
s1109068 8
s310301 9
s1203630 10
s820399 11
s373463 12
s1100523 13
s1904028 14
s663336 15
s1134229 16
s1214880 17
s1423062 18
s644692 19
s1819013 20
s936385 21
s1874616 22
s1600266 23
s1357929 24
s1157255 25
s1203824 26
s1900765 27
s1474310 28
s362314 29
s756723 30
s87335 31
s1021187 32
s986135 33
s888164 34
s1004435 35
s971695 36
s1075332 37
s767207 38
s735008 39
s1812015 40
s1517860 41
s1137393 42
s134774 43
s668610 44
s1264191 45
s85100 46
s1185805 47
s833248 48
s1571939 49
s1070155 50
s1497653 51
s1514025 52
s659669 53
s184617 54
s14429 55
s204163 56
s115151 57
s800824 58
s497423 59
s597456 60
s652114 61
s944958 62
s416956 63
s29686 64
s444478 65
s664633 66
s234216 67
s1198307 68
s1238845 69
s719519 70
s1003843 71
s382023 72
s633100 73
s1461980 74
s299897 75
s41210 76
s249366 77
s764057 78
s804949 79
s72089 80
s1238755 81
s241702 82
s92740 83
s1280927 84
s491528 85
s1654405 86
s1870026 87
s1445674 88
s132317 89
s978473 90
s1537431 91
s16558 92
s1907148 93
s177473 94
s1930202 95
s747150 96
s1641793 97
s1246616 98
s1614830 99
s63385 0
s22975 1
s1764783 2
s977980 3
s1158320 4
s452746 5
s422993 6
s1049474 7
s1651253 8
s1046132 9
s347392 10
s502354 11
s330182 12
s760959 13
s887128 14
s99871 15
s1775099 16
s255619 17
s1801971 18
s1778948 19
s1854243 20
s948247 21
s1171632 22
s1080393 23
s352099 24
s1369747 25
s969171 26
s1161723 27
s338011 28
s428247 29
s671970 30
s62204 31
s1971047 32
s904087 33
s1963300 34
s1929602 35
s1952924 36
s376724 37
s19883 38
s1852353 39
s25342 40
s1693075 41
s465383 42
s259156 43
s55540 44
s1502635 45
s1939354 46
s169743 47
s598635 48
s1951391 49
s847074 50
s437311 51
s1113022 52
s213297 53
s1008262 54
s392338 55
s1229673 56
s1124271 57
s1527434 58
s1558111 59
s327277 60
s1856504 61
s572741 62
s1200778 63
s31209 64
s968385 65
s703052 66
s176963 67
s648888 68
s427441 69
s1861648 70
s1060695 71
s955731 72
s473502 73
s663665 74
s292004 75
s810200 76
s1425779 77
s122472 78
s386292 79
s975556 80
s223169 81
s399184 82
s949345 83
s198215 84
s1824785 85
s1058958 86
s877656 87
s1536280 88
s327402 89
s1224016 90
s188377 91
s15702 92
s1607663 93
s374503 94
s1428292 95
s1635604 96
s1151917 97
s985873 98
s1112996 99
s341133 0
s1137638 1
s74707 2
s1459046 3
s340360 4
s1024056 5
s1699378 6
s911726 7
s1148069 8
s34073 9
s1419463 10
s527249 11
s1414646 12
s602431 13
s1208206 14
s814786 15
s141569 16
s800602 17
s1689056 18
s1064969 19
s1899127 20
s1583059 21
s648382 22
s1533217 23
s1465246 24
s768161 25
s1037390 26
s1830130 27
s944948 28
s997895 29
s1473317 30
s1857030 31
s1647404 32
s145031 33
s1011347 34
s1496630 35
s1735081 36
s150404 37
s1836761 38
s1693461 39
s1459492 40
s40078 41
s744202 42
s1773487 43
s225951 44
s926738 45
s309917 46
s1144285 47
s324959 48
s648611 49
s698607 50
s1549532 51
s1689442 52
s992614 53
s14943 54
s1319019 55
s1689141 56
s998463 57
s148815 58
s256955 59
s634422 60
s240783 61
s1274093 62
s1475322 63
s431939 64
s1606056 65
s115103 66
s1898190 67
s635800 68
s1664456 69
s1187526 70
s1252119 71
s1712563 72
s1361638 73
s1953687 74
s1445840 75
s466489 76
s47023 77
s1397381 78
s1722113 79
s444504 80
s1258478 81
s704492 82
s157222 83
s531570 84
s743820 85
s1508586 86
s1359427 87
s1681559 88
s110501 89
s45844 90
s111158 91
s815602 92
s1790749 93
s917693 94
s330106 95
s50532 96
s159619 97
s1767306 98
s670598 99
s604383 0
s1813260 1
s964227 2
s1861497 3
s339238 4
s229956 5
s824949 6
s258260 7
s1730996 8
s1089525 9
s783147 10
s1026025 11
s1369696 12
s341697 13
s1205539 14
s1774380 15
s1491624 16
s1706961 17
s561511 18
s1600634 19
s1251648 20
s1928314 21
s1025117 22
s119633 23
s806981 24
s588265 25
s1336023 26
s653948 27
s1331542 28
s854281 29
s1241680 30
s851135 31
s259814 32
s1898329 33
s491844 34
s1149653 35
s1172360 36
s1169081 37
s1623138 38
s1382787 39
s842561 40
s835533 41
s490115 42
s1756336 43
s686413 44
s59103 45
s335388 46
s635860 47
s1669830 48
s1445218 49
s657992 50
s74951 51
s1144130 52
s1951239 53
s247997 54
s1258163 55
s92786 56
s1877358 57
s1031053 58
s36046 59
s1926118 60
s1253109 61
s112608 62
s1160680 63
s1432164 64
s565257 65
s1466631 66
s297021 67
s1387597 68
s817829 69
s1120994 70
s1237777 71
s1635629 72
s1549412 73
s1366849 74
s1355636 75
s615991 76
s1738066 77
s1556212 78
s1124166 79
s723276 80
s1643635 81
s830762 82
s937360 83
s780392 84
s402274 85
s718879 86
s1842520 87
s1562289 88
s1759817 89
s1257007 90
s492104 91
s647508 92
s252102 93
s1917728 94
s441957 95
s16517 96
s1524935 97
s1553201 98
s344471 99
s70711 0
s1592950 1
s837787 2
s1612159 3
s511343 4
s1697132 5
s1653891 6
s1068956 7
s149866 8
s1405414 9
s1058582 10
s938676 11
s931964 12
s1309988 13
s485252 14
s908897 15
s1421711 16
s1177797 17
s311867 18
s1120103 19
s624473 20
s45014 21
s203637 22
s1999706 23
s1970137 24
s736921 25
s1509430 26
s780954 27
s767183 28
s627476 29
s632502 30
s1052878 31
s852141 32
s913791 33
s1262939 34
s781745 35
s1853770 36
s112423 37
s1696930 38
s1745742 39
s843632 40
s1016951 41
s1118531 42
s900921 43
s548421 44
s746196 45
s886229 46
s1762157 47
s1301397 48
s1610468 49
s1256873 50
s1211875 51
s1784871 52
s1768503 53
s644439 54
s1278334 55
s1902409 56
s168353 57
s262980 58
s500440 59
s115350 60
s1750984 61
s290104 62
s1914953 63
s29973 64
s76222 65
s159461 66
s680759 67
s1348597 68
s1559942 69
s723849 70
s1632035 71
s1266365 72
s739078 73
s268558 74
s589590 75
s1370027 76
s1552130 77
s1209524 78
s1836062 79
s1756409 80
s1579966 81
s44413 82
s1117837 83
s156643 84
s748259 85
s1214038 86
s1859212 87
s1920103 88
s1152008 89
s1925505 90
s1449190 91
s183981 92
s886044 93
s1616860 94
s923136 95
s1269759 96
s918572 97
s1690554 98
s1047220 99
s1729358 0
s164538 1
s1302056 2
s991381 3
s759640 4
s84862 5
s567294 6
s455212 7
s308453 8
s910396 9
s1796149 10
s1996397 11
s797910 12
s725335 13
s1479264 14
s1214348 15
s1356005 16
s1530160 17
s1943044 18
s725678 19
s1375609 20
s1166148 21
s1282727 22
s1877084 23
s842203 24
s1396850 25
s831259 26
s1092168 27
s1401844 28
s1118374 29
s1172261 30
s831503 31
s1730765 32
s1533174 33
s1098904 34
s73529 35
s408088 36
s43785 37
s1213712 38
s648870 39
s507514 40
s1571960 41
s968243 42
s1560163 43
s1887686 44
s700323 45
s583985 46
s342879 47
s1383370 48
s607102 49
s987546 50
s1585299 51
s1194677 52
s1530914 53
s1109379 54
s198915 55
s962112 56
s1410962 57
s986157 58
s1548550 59
s47705 60
s393970 61
s1622068 62
s53211 63
s888884 64
s1354634 65
s683687 66
s1449052 67
s1275173 68
s1409269 69
s1177890 70
s588225 71
s221253 72
s374209 73
s448963 74
s1903713 75
s1046112 76
s17701 77
s1586075 78
s1370075 79
s608819 80
s1027062 81
s1658945 82
s372152 83
s336381 84
s394390 85
s139380 86
s1671334 87
s1786439 88
s1575623 89
s1439244 90
s1706318 91
s1645913 92
s117106 93
s1747554 94
s1731794 95
s977596 96
s905017 97
s505382 98
s108846 99
s912898 0
s681427 1
s53737 2
s836305 3
s1425006 4
s659224 5
s1072275 6
s531622 7
s369329 8
s1483062 9
s284601 10
s224986 11
s1005337 12
s112052 13
s785154 14
s1723224 15
s1646402 16
s1957438 17
s330515 18
s1335767 19
s672356 20
s456088 21
s1258374 22
s1365799 23
s517015 24
s1614167 25
s1763314 26
s1060357 27
s650320 28
s1400295 29
s1009071 30
s1874997 31
s1136301 32
s811246 33
s763946 34
s393597 35
s77119 36
s1573751 37
s1172255 38
s1259972 39
s1029432 40
s1611367 41
s732792 42
s1509750 43
s1045637 44
s1217368 45
s114756 46
s1967169 47
s1077590 48
s1721555 49
s140270 50
s93572 51
s1052013 52
s660104 53
s215777 54
s1385677 55
s933237 56
s1017659 57
s772944 58
s63466 59
s555881 60
s1673507 61
s1439636 62
s1065729 63
s390829 64
s1930008 65
s754554 66
s1664303 67
s824491 68
s1990747 69
s257732 70
s788079 71
s499264 72
s1863739 73
s117504 74
s1887216 75
s1631764 76
s53180 77
s1556100 78
s1055346 79
s1343852 80
s893826 81
s832699 82
s183541 83
s1542738 84
s44073 85
s1101132 86
s1458509 87
s1417024 88
s1287164 89
s1823228 90
s991509 91
s598911 92
s1032909 93
s363417 94
s1678039 95
s1145085 96
s1057475 97
s1125266 98
s1822712 99
s1755262 0
s939688 1
s1370082 2
s622062 3
s216168 4
s1638311 5
s40144 6
s1877887 7
s1455265 8
s1454064 9
s1415810 10
s765846 11
s1017208 12
s385000 13
s1430825 14
s1892363 15
s615413 16
s1348646 17
s501450 18
s1768098 19
s575706 20
s813578 21
s776235 22
s921903 23
s616192 24
s1465467 25
s1921302 26
s1022807 27
s1356679 28
s222446 29
s1054451 30
s787195 31
s1313555 32
s1486090 33
s405620 34
s254270 35
s882938 36
s1421487 37
s149204 38
s71448 39
s48002 40
s477990 41
s1195900 42
s1601045 43
s1966223 44
s1714129 45
s75153 46
s817206 47
s1444582 48
s57990 49
s78309 50
s243330 51
s629636 52
s503608 53
s1604735 54
s1696 55
s324277 56
s759356 57
s801126 58
s279629 59
s409585 60
s468583 61
s734435 62
s1624542 63
s1679418 64
s1142682 65
s563045 66
s1636332 67
s1200341 68
s1746713 69
s1274383 70
s158192 71
s140665 72
s54751 73
s1809989 74
s92245 75
s952143 76
s1014798 77
s897881 78
s1496358 79
s794776 80
s900038 81
s133101 82
s919828 83
s1899412 84
s1078358 85
s242186 86
s1809330 87
s412873 88
s353958 89
s1511314 90
s5622 91
s1889715 92
s274441 93
s827894 94
s1164181 95
s602695 96
s448051 97
s492420 98
s51386 99
s634217 0
s816307 1
s1000711 2
s197110 3
s512242 4
s1842112 5
s822188 6
s474497 7
s1123590 8
s1011262 9
s1995174 10
s1604907 11
s278856 12
s237029 13
s212748 14
s1287890 15
s1924694 16
s201142 17
s1068910 18
s346092 19
s1481259 20
s389490 21
s1892574 22
s516957 23
s504782 24
s1523690 25
s109481 26
s928442 27
s169054 28
s1639276 29
s1646503 30
s697186 31
s1327825 32
s415158 33
s375934 34
s431863 35
s3740 36
s1453722 37
s1130435 38
s1335283 39
s883937 40
s1380538 41
s1923494 42
s148315 43
s1621336 44
s1964312 45
s923013 46
s1172421 47
s1368 48
s125914 49
s1761571 50
s1467356 51
s1092244 52
s714733 53
s1241917 54
s1783215 55
s1327284 56
s1572627 57
s1371492 58
s1177215 59
s382825 60
s1735673 61
s1944048 62
s782263 63
s1045708 64
s99573 65
s1430626 66
s1002519 67
s146274 68
s1630063 69
s551722 70
s1541932 71
s1281620 72
s1165106 73
s1660260 74
s1691112 75
s996257 76
s403012 77
s474517 78
s1246098 79
s284011 80
s1434059 81
s107491 82
s1202755 83
s1284801 84
s888465 85
s979424 86
s1574418 87
s1048910 88
s1732 89
s49752 90
s138355 91
s1777099 92
s928288 93
s1213342 94
s1029726 95
s464046 96
s1038461 97
s1788539 98
s931763 99
s1113497 0
s540443 1
s14512 2
s1551264 3
s1832576 4
s314767 5
s1897217 6
s1917211 7
s1078598 8
s606101 9
s1368583 10
s404343 11
s1250530 12
s803469 13
s30227 14
s1583153 15
s600961 16
s1092165 17
s130646 18
s159455 19
s1318190 20
s1397412 21
s1971502 22
s595123 23
s696458 24
s1151699 25
s1691641 26
s675796 27
s527420 28
s1866344 29
s946810 30
s978419 31
s1928404 32
s343632 33
s1501411 34
s675042 35
s447763 36
s322253 37
s1496651 38
s1618430 39
s1057053 40
s955281 41
s1407627 42
s1688024 43
s1128958 44
s569302 45
s446734 46
s932428 47
s908688 48
s1356852 49
s991915 50
s1507953 51
s337631 52
s1022745 53
s289682 54
s1069696 55
s753975 56
s1052123 57
s1536044 58
s1556022 59
s798116 60
s1299109 61
s1942493 62
s1682591 63
s449018 64
s1119918 65
s363980 66
s1293355 67
s828094 68
s1635780 69
s372604 70
s1370567 71
s457826 72
s79124 73
s1698763 74
s1549191 75
s1212027 76
s1529698 77
s403828 78
s1592445 79
s1905853 80
s361437 81
s1038938 82
s1999619 83
s1166159 84
s768483 85
s352342 86
s1583595 87
s528755 88
s431390 89
s620710 90
s1086305 91
s614622 92
s783395 93
s1337804 94
s5699 95
s1780789 96
s1290965 97
s826723 98
s1093012 99
s1573469 0
s657555 1
s632051 2
s319562 3
s120842 4
s949428 5
s285382 6
s569164 7
s1662781 8
s1655979 9
s40307 10
s396679 11
s1291713 12
s1266356 13
s1360696 14
s1597563 15
s154208 16
s4858 17
s1733887 18
s368514 19
s25521 20
s1401843 21
s1504508 22
s927179 23
s1397912 24
s1559152 25
s732943 26
s1921823 27
s1266886 28
s582874 29
s1465952 30
s837010 31
s1850968 32
s285657 33
s1598463 34
s1534511 35
s612968 36
s740538 37
s1673784 38
s1146313 39
s1520634 40
s1130289 41
s1966957 42
s1469273 43
s1885196 44
s1743624 45
s1409336 46
s1142264 47
s253155 48
s1587138 49
s1656534 50
s954187 51
s1719948 52
s1992885 53
s1923017 54
s1556552 55
s104370 56
s991502 57
s1340803 58
s295687 59
s1753960 60
s65290 61
s292857 62
s307342 63
s575358 64
s567362 65
s1769637 66
s843832 67
s1203742 68
s599326 69
s398864 70
s843742 71
s547543 72
s1879992 73
s448400 74
s997272 75
s1635381 76
s1992847 77
s1337045 78
s1629592 79
s836756 80
s1802776 81
s1216779 82
s741500 83
s304486 84
s652369 85
s1281166 86
s1600672 87
s295240 88
s1598403 89
s1996512 90
s953448 91
s1031218 92
s5490 93
s1322004 94
s1127917 95
s1278852 96
s1929002 97
s1517989 98
s238637 99
s532804 0
s819703 1
s1951456 2
s953950 3
s154227 4
s1792004 5
s669470 6
s1065478 7
s1868287 8
s93900 9
s235026 10
s1076263 11
s992224 12
s611211 13
s342421 14
s1703373 15
s724853 16
s1434458 17
s241198 18
s1658548 19
s252706 20
s1033746 21
s8510 22
s822140 23
s1893783 24
s1598234 25
s1118139 26
s906676 27
s1094143 28
s1373219 29
s1934334 30
s283524 31
s1844427 32
s206025 33
s367875 34
s91484 35
s64631 36
s418005 37
s1439655 38
s499044 39
s388278 40
s1312516 41
s1271003 42
s1622075 43
s1482224 44
s532601 45
s759497 46
s1292281 47
s827229 48
s843589 49
s1249014 50
s405208 51
s364032 52
s162981 53
s895790 54
s1812682 55
s516177 56
s1302684 57
s463344 58
s44380 59
s235079 60
s1236749 61
s1049786 62
s1041541 63
s471041 64
s1458545 65
s1385458 66
s681992 67
s157950 68
s1216226 69
s1300469 70
s1420598 71
s364373 72
s65267 73
s1906389 74
s127527 75
s1644688 76
s88786 77
s899089 78
s355066 79
s1047782 80
s845497 81
s636793 82
s107635 83
s409458 84
s304942 85
s731308 86
s1198549 87
s1406506 88
s1444709 89
s133459 90
s1159113 91
s1677378 92
s1251073 93
s555784 94
s1399152 95
s164375 96
s678150 97
s1584380 98
s430187 99
s1351936 0
s1143844 1
s981647 2
s759153 3
s1530773 4
s1645080 5
s702320 6
s1789941 7
s488047 8
s576296 9
s175051 10
s1216480 11
s1072515 12
s374666 13
s1953757 14
s121480 15
s722794 16
s1404164 17
s297770 18
s1582355 19
s1198382 20
s650974 21
s1417468 22
s298883 23
s983379 24
s1799610 25
s1676765 26
s431548 27
s1296139 28
s350287 29
s220187 30
s848912 31
s3544 32
s1757807 33
s1757665 34
s1938182 35
s273625 36
s26791 37
s1994772 38
s781936 39
s1899221 40
s284557 41
s1979574 42
s772932 43
s393367 44
s129255 45
s985532 46
s873470 47
s1787586 48
s477237 49
s1579001 50
s175495 51
s1901826 52
s577289 53
s395490 54
s665658 55
s595278 56
s590890 57
s608419 58
s823842 59
s110274 60
s1709281 61
s325954 62
s798526 63
s334290 64
s1875978 65
s585021 66
s1852474 67
s1305882 68
s1751740 69
s1288847 70
s1679975 71
s325913 72
s1628784 73
s166027 74
s2528 75
s398590 76
s1764946 77
s1712731 78
s1631934 79
s1565444 80
s307234 81
s1780337 82
s1911913 83
s1372934 84
s1965484 85
s986318 86
s357967 87
s1754978 88
s1498279 89
s120752 90
s1364710 91
s1192120 92
s1723267 93
s944931 94
s26547 95
s1597508 96
s1315630 97
s108327 98
s1658809 99
s1566238 0
s1257048 1
s60335 2
s1678111 3
s1370992 4
s1734274 5
s120717 6
s1423547 7
s1227981 8
s1955024 9
s377851 10
s1234139 11
s872839 12
s1718447 13
s1435987 14
s309492 15
s343951 16
s568298 17
s588214 18
s940163 19
s926067 20
s1514663 21
s147765 22
s1923157 23
s1047353 24
s836063 25
s366350 26
s1610329 27
s441796 28
s1342684 29
s1219682 30
s866106 31
s816725 32
s1568092 33
s397153 34
s89847 35
s1467954 36
s1078389 37
s592769 38
s1309332 39
s505255 40
s1497131 41
s1614104 42
s809926 43
s1061275 44
s1399523 45
s557218 46
s1084890 47
s611812 48
s1507839 49
s1922705 50
s28391 51
s908214 52
s1979376 53
s1067159 54
s1041289 55
s64447 56
s1226295 57
s1789543 58
s475060 59
s471783 60
s778889 61
s168168 62
s1601118 63
s1990324 64
s1262615 65
s1204716 66
s164089 67
s1840475 68
s213702 69
s1730527 70
s1111643 71
s612205 72
s291118 73
s654743 74
s1087048 75
s146260 76
s375002 77
s1418545 78
s257996 79
s130358 80
s1364373 81
s519969 82
s312184 83
s1555571 84
s997218 85
s1133754 86
s1516294 87
s522565 88
s277314 89
s1607215 90
s1391916 91
s558074 92
s1431915 93
s1625985 94
s255119 95
s1094887 96
s196982 97
s921230 98
s913134 99
s1277355 0
s995711 1
s606726 2
s1744867 3
s718132 4
s1048327 5
s828081 6
s1794655 7
s987532 8
s176529 9
s511073 10
s1329739 11
s866055 12
s689328 13
s1794327 14
s240948 15
s976523 16
s1130143 17
s289655 18
s1491441 19
s1397201 20
s1468431 21
s1975764 22
s1617610 23
s435445 24
s598326 25
s1521981 26
s1840575 27
s1800393 28
s1270211 29
s1732172 30
s631198 31
s73832 32
s65766 33
s1434405 34
s1718325 35
s1577344 36
s900688 37
s721702 38
s1248700 39
s1873024 40
s559420 41
s1701827 42
s1888101 43
s1253781 44
s1288081 45
s68533 46
s1606723 47
s1130569 48
s593862 49
s931112 50
s826108 51
s1307269 52
s528963 53
s1677421 54
s32254 55
s1879219 56
s1982239 57
s886025 58
s1379830 59
s1392731 60
s1632901 61
s493028 62
s440916 63
s717907 64
s908872 65
s1968504 66
s1145860 67
s1015791 68
s613318 69
s187014 70
s170581 71
s710192 72
s967331 73
s1468822 74
s1988049 75
s1353952 76
s1280818 77
s641204 78
s1139916 79
s1035418 80
s61855 81
s1394691 82
s24675 83
s768969 84
s1691516 85
s1911338 86
s51118 87
s906514 88
s1576777 89
s1283177 90
s1149109 91
s87878 92
s1413754 93
s1738927 94
s769832 95
s1641404 96
s1534895 97
s1469876 98
s1552995 99
s1173401 0
s1180973 1
s704284 2
s984358 3
s822003 4
s1024256 5
s536168 6
s1529814 7
s684380 8
s476800 9
s339735 10
s765433 11
s187643 12
s1061758 13
s1018224 14
s1775575 15
s536760 16
s1506286 17
s344432 18
s1206354 19
s715202 20
s493054 21
s1932455 22
s1825502 23
s1581584 24
s1148444 25
s1908465 26
s446201 27
s1422452 28
s926847 29
s66588 30
s1178756 31
s1402901 32
s781018 33
s1255399 34
s1571029 35
s673210 36
s688896 37
s622622 38
s509666 39
s943259 40
s1623278 41
s307978 42
s209845 43
s657463 44
s845057 45
s1365441 46
s1755427 47
s1136800 48
s426100 49
s839359 50
s1697264 51
s1287964 52
s311097 53
s1569708 54
s276039 55
s19191 56
s1914258 57
s1905268 58
s881117 59
s1855287 60
s1380439 61
s506592 62
s1418791 63
s233067 64
s628130 65
s1642811 66
s1844855 67
s432095 68
s916379 69
s844960 70
s1631188 71
s1809783 72
s22197 73
s1082979 74
s529507 75
s867139 76
s600578 77
s47522 78
s1009656 79
s1623006 80
s1399444 81
s845961 82
s1602260 83
s490666 84
s1153209 85
s1685472 86
s867822 87
s752350 88
s594220 89
s696068 90
s1665698 91
s1533061 92
s39124 93
s450746 94
s1098360 95
s1872947 96
s1232515 97
s736995 98
s1501811 99
s1015588 0
s1006997 1
s433503 2
s1943139 3
s409838 4
s755092 5
s182433 6
s1576821 7
s327585 8
s55011 9
s1371516 10
s1689610 11
s1635322 12
s172697 13
s180102 14
s1423879 15
s148890 16
s1426119 17
s1717696 18
s36871 19
s1174460 20
s746150 21
s237124 22
s1209579 23
s717063 24
s567545 25
s1263896 26
s64356 27
s847001 28
s16421 29
s1440069 30
s774629 31
s102381 32
s805335 33
s215576 34
s939190 35
s331488 36
s1535921 37
s1758665 38
s1488299 39
s220958 40
s1871998 41
s1574520 42
s1389388 43
s1769149 44
s1574382 45
s658828 46
s1117504 47
s334846 48
s314976 49
s1047741 50
s1515137 51
s1312972 52
s680988 53
s670706 54
s1400950 55
s997704 56
s568384 57
s1350062 58
s865037 59
s1388906 60
s1260748 61
s1624141 62
s1717403 63
s817916 64
s201496 65
s1951761 66
s1886920 67
s1575241 68
s848270 69
s996114 70
s969055 71
s889229 72
s1662091 73
s1207503 74
s353197 75
s69740 76
s133529 77
s378890 78
s1987531 79
s319545 80
s649971 81
s765770 82
s1179701 83
s1342201 84
s1266601 85
s648074 86
s1882728 87
s463714 88
s601005 89
s908615 90
s53282 91
s769356 92
s929231 93
s1740347 94
s307391 95
s523682 96
s300727 97
s1202687 98
s142199 99
s1148882 0
s270166 1
s1009163 2
s312659 3
s1163163 4
s277206 5
s1324385 6
s1598435 7
s1795299 8
s342318 9
s1431975 10
s1092278 11
s735966 12
s905512 13
s331436 14
s221122 15
s1188758 16
s1746089 17
s618258 18
s1534310 19
s237207 20
s992305 21
s625188 22
s162787 23
s1629280 24
s1184239 25
s1658513 26
s1754381 27
s88818 28
s134814 29
s1814567 30
s351637 31
s1759784 32
s305002 33
s495673 34
s1721542 35
s1947915 36
s247855 37
s707047 38
s590694 39
s1784209 40
s1695936 41
s1504445 42
s1180485 43
s1451984 44
s871268 45
s1656853 46
s308664 47
s103070 48
s1426377 49
s511683 50
s1128366 51
s1289546 52
s1026534 53
s453559 54
s1739024 55
s1494331 56
s1013814 57
s459420 58
s1211287 59
s1934386 60
s1848957 61
s1435325 62
s1096314 63
s100988 64
s1348842 65
s743105 66
s1363486 67
s1649124 68
s443208 69
s1833864 70
s557341 71
s1824654 72
s1771073 73
s491272 74
s516653 75
s902511 76
s1608903 77
s826288 78
s494664 79
s1395436 80
s1012644 81
s94597 82
s1339758 83
s642224 84
s1136483 85
s1118763 86
s1211545 87
s550222 88
s239200 89
s1382364 90
s1035041 91
s755334 92
s370952 93
s1751901 94
s1776524 95
s757727 96
s1152196 97
s1140810 98
s259960 99
s702206 0
s1947806 1
s1199334 2
s1070372 3
s1703433 4
s1828307 5
s337187 6
s1575693 7
s1785288 8
s977705 9
s863870 10
s741379 11
s280370 12
s1153581 13
s802463 14
s554679 15
s1790955 16
s780135 17
s978144 18
s100018 19
s853318 20
s1889903 21
s1923190 22
s1182073 23
s1024093 24
s1417227 25
s578311 26
s566045 27
s981114 28
s1297706 29
s1028222 30
s669269 31
s194724 32
s211693 33
s612345 34
s107944 35
s895414 36
s738465 37
s1071302 38
s502689 39
s894153 40
s413041 41
s683689 42
s1666996 43
s554827 44
s583186 45
s698682 46
s1808415 47
s381772 48
s1938210 49
s768348 50
s1779900 51
s859042 52
s1603265 53
s1741458 54
s1752757 55
s556308 56
s742856 57
s660169 58
s231771 59
s1809252 60
s1382573 61
s1233405 62
s1669657 63
s353018 64
s1330124 65
s1069613 66
s1059873 67
s979957 68
s431708 69
s1743902 70
s1445339 71
s912266 72
s1881157 73
s264456 74
s999340 75
s1038353 76
s1428588 77
s537896 78
s884896 79
s1072555 80
s1414220 81
s1568378 82
s1745833 83
s672997 84
s481714 85
s1485217 86
s1522288 87
s1353073 88
s825562 89
s1782601 90
s177333 91
s125247 92
s95424 93
s386357 94
s152285 95
s665978 96
s149259 97
s954806 98
s1853044 99
s1902006 0
s209231 1
s1896728 2
s324945 3
s1237170 4
s13569 5
s183852 6
s824810 7
s1147580 8
s414291 9
s1305283 10
s990565 11
s647453 12
s116379 13
s1123523 14
s1637001 15
s1257821 16
s1713388 17
s1174589 18
s92576 19
s1255538 20
s1409907 21
s118993 22
s814053 23
s707133 24
s102355 25
s820284 26
s1766105 27
s1368952 28
s978204 29
s1413376 30
s1741597 31
s390680 32
s1244120 33
s272745 34
s959718 35
s1467059 36
s29816 37
s836868 38
s1537620 39
s1916064 40
s480809 41
s1382090 42
s1836353 43
s806930 44
s503104 45
s921039 46
s451284 47
s1080107 48
s753502 49
s1788080 50
s1304086 51
s222920 52
s1842073 53
s1998215 54
s769685 55
s1580807 56
s1600462 57
s1306777 58
s8960 59
s817388 60
s1460804 61
s127416 62
s1959886 63
s1793369 64
s1445600 65
s1322610 66
s1273696 67
s435773 68
s1739864 69
s1255763 70
s593158 71
s362437 72
s331338 73
s1219232 74
s940807 75
s165951 76
s208876 77
s339253 78
s1635409 79
s1551589 80
s63146 81
s485384 82
s1335265 83
s822544 84
s77783 85
s541760 86
s1006672 87
s1085601 88
s139497 89
s1756599 90
s1237605 91
s1496559 92
s593641 93
s1486666 94
s1217325 95
s274234 96
s257275 97
s117913 98
s281044 99
s1531634 0
s1031772 1
s1943382 2
s287343 3
s1199211 4
s600550 5
s1245913 6
s1019338 7
s291142 8
s901671 9
s99492 10
s1456931 11
s776478 12
s3723 13
s1592924 14
s1874450 15
s450449 16
s66225 17
s852142 18
s200699 19
s386688 20
s304585 21
s981494 22
s1296595 23
s157000 24
s1807925 25
s974008 26
s1105212 27
s72654 28
s1644592 29
s1611085 30
s807632 31
s1657830 32
s1693911 33
s879370 34
s558058 35
s1524104 36
s62323 37
s1706949 38
s480212 39
s1556035 40
s938551 41
s515021 42
s358824 43
s666975 44
s1531958 45
s815523 46
s1463035 47
s1197364 48
s805827 49
s870839 50
s766448 51
s552874 52
s1644313 53
s1396213 54
s1944777 55
s1121374 56
s654978 57
s1212230 58
s1574666 59
s207103 60
s1533554 61
s996493 62
s1296954 63
s975931 64
s1840765 65
s119847 66
s1963544 67
s1429291 68
s121184 69
s617776 70
s142021 71
s725364 72
s147726 73
s1142199 74
s51268 75
s1185091 76
s1415724 77
s125426 78
s1731482 79
s1525331 80
s1287032 81
s1416418 82
s777621 83
s1732487 84
s490033 85
s1644156 86
s260826 87
s809239 88
s1400367 89
s1448849 90
s1207447 91
s1160895 92
s1509872 93
s123287 94
s1832513 95
s963678 96
s513614 97
s855523 98
s1911421 99
s1897575 0
s1853966 1
s626845 2
s178087 3
s114091 4
s1886803 5
s467404 6
s1154356 7
s619354 8
s919713 9
s442119 10
s1967101 11
s1907545 12
s1282031 13
s840888 14
s1983291 15
s746309 16
s23064 17
s1965417 18
s849682 19
s271304 20
s606584 21
s1291126 22
s380915 23
s1114309 24
s461761 25
s749297 26
s904062 27
s1191518 28
s693362 29
s168506 30
s918789 31
s653077 32
s1468951 33
s1256177 34
s1686682 35
s631162 36
s1700221 37
s890158 38
s278463 39
s232683 40
s24509 41
s988877 42
s100324 43
s1810988 44
s869816 45
s1514715 46
s290815 47
s550176 48
s370736 49
s948447 50
s721025 51
s1444820 52
s1445272 53
s407974 54
s1005825 55
s895462 56
s800571 57
s1091696 58
s1767406 59
s875432 60
s332775 61
s875871 62
s856425 63
s1068439 64
s252865 65
s110144 66
s1282924 67
s897502 68
s838962 69
s1654128 70
s218253 71
s1396750 72
s1908533 73
s45793 74
s1906557 75
s753241 76
s736097 77
s1247895 78
s1470081 79
s1405026 80
s680262 81
s871472 82
s558629 83
s629941 84
s702749 85
s247528 86
s1046219 87
s1724022 88
s310161 89
s450966 90
s1322254 91
s833325 92
s157715 93
s1038515 94
s1026284 95
s1499146 96
s806903 97
s530407 98
s96866 99
s1956111 0
s934185 1
s358940 2
s712325 3
s1543145 4
s748315 5
s1605952 6
s268756 7
s1190569 8
s497845 9
s1827139 10
s1522875 11
s1460763 12
s15719 13
s1688269 14
s1005761 15
s1317240 16
s1419637 17
s232232 18
s417783 19
s1009156 20
s201552 21
s1259650 22
s459916 23
s729401 24
s1359581 25
s1768386 26
s1121941 27
s1033322 28
s1571806 29
s1234405 30
s701511 31
s371851 32
s532413 33
s147317 34
s116751 35
s1417240 36
s894550 37
s687618 38
s1391644 39
s630305 40
s362204 41
s946987 42
s841141 43
s1530601 44
s453215 45
s1270259 46
s783895 47
s1517562 48
s1484626 49
s1771219 50
s113071 51
s1753472 52
s625931 53
s1053137 54
s1514962 55
s1277492 56
s794945 57
s85004 58
s522106 59
s480488 60
s1220610 61
s46319 62
s1287165 63
s436143 64
s735036 65
s386223 66
s874415 67
s384112 68
s1380264 69
s1110460 70
s479542 71
s719946 72
s510010 73
s846204 74
s1105252 75
s502571 76
s1061776 77
s418588 78
s292389 79
s1230471 80
s118537 81
s1634015 82
s1911211 83
s838359 84
s1825957 85
s173787 86
s1210717 87
s850618 88
s269156 89
s871492 90
s845661 91
s869045 92
s1875728 93
s1431728 94
s38613 95
s746663 96
s1061214 97
s4144 98
s1125923 99
s991695 0
s1078249 1
s1516273 2
s1700461 3
s1924546 4
s1971010 5
s771828 6
s1468051 7
s176701 8
s101832 9
s763777 10
s1443402 11
s252889 12
s1366588 13
s1935205 14
s1376238 15
s1111328 16
s914899 17
s1568347 18
s722900 19
s1290339 20
s580920 21
s1105290 22
s1492474 23
s907870 24
s1403899 25
s407637 26
s82968 27
s1199397 28
s953160 29
s544231 30
s1244214 31
s1065165 32
s462036 33
s1620374 34
s537732 35
s473040 36
s900923 37
s460146 38
s748120 39
s1202049 40
s407452 41
s1861886 42
s1207650 43
s1106065 44
s1371678 45
s1678096 46
s141592 47
s1031153 48
s540001 49
s359386 50
s691164 51
s340636 52
s1492812 53
s1538715 54
s716246 55
s1677795 56
s309629 57
s1122099 58
s947323 59
s1457785 60
s1479361 61
s318572 62
s269173 63
s602287 64
s1934463 65
s975464 66
s1331987 67
s1387704 68
s1247940 69
s7705 70
s559222 71
s1807634 72
s1330631 73
s1079505 74
s1118487 75
s320105 76
s690168 77
s932555 78
s497181 79
s1468124 80
s572515 81
s489838 82
s627265 83
s822947 84
s470812 85
s867608 86
s1089980 87
s284217 88
s1697426 89
s1269572 90
s182382 91
s739570 92
s995162 93
s313486 94
s1862294 95
s1936297 96
s1332199 97
s993802 98
s859926 99
s970028 0
s1921146 1
s710469 2
s1839409 3
s1879965 4
s1358011 5
s1838665 6
s1061413 7
s1318791 8
s1857944 9
s337345 10
s661426 11
s1211086 12
s108227 13
s1638040 14
s1867692 15
s1857850 16
s244964 17
s1031857 18
s1189841 19
s426186 20
s147710 21
s1382900 22
s1386364 23
s1166468 24
s1768768 25
s1526948 26
s251585 27
s838613 28
s413150 29
s864485 30
s1281575 31
s1116238 32
s1820510 33
s1071897 34
s192326 35
s1583499 36
s1610659 37
s1684969 38
s305143 39
s1163984 40
s1857953 41
s947946 42
s1654108 43
s1177850 44
s1801946 45
s1821940 46
s726977 47
s1856108 48
s854973 49
s750326 50
s1729542 51
s911903 52
s1144277 53
s605633 54
s1169450 55
s1588328 56
s108993 57
s1940386 58
s631114 59
s374212 60
s1989354 61
s1062075 62
s195241 63
s633893 64
s528022 65
s915528 66
s438590 67
s1840101 68
s296320 69
s509873 70
s1744888 71
s1766707 72
s1409324 73
s1538302 74
s943097 75
s575735 76
s210942 77
s1440120 78
s1469996 79
s184328 80
s1883624 81
s1104931 82
s1710640 83
s1334680 84
s1300305 85
s874549 86
s758392 87
s818303 88
s115403 89
s389325 90
s474632 91
s5848 92
s569233 93
s1599489 94
s950105 95
s1002921 96
s1709762 97
s1485531 98
s38102 99
s788422 0
s1957655 1
s765796 2
s1084357 3
s1602534 4
s1432451 5
s983798 6
s1275358 7
s1045027 8
s232310 9
s479643 10
s294694 11
s1422194 12
s1355759 13
s1077245 14
s416320 15
s1699527 16
s1833519 17
s1250668 18
s1665802 19
s1105949 20
s1158984 21
s474333 22
s1111009 23
s1292509 24
s734802 25
s1645380 26
s1146296 27
s1846419 28
s266204 29
s1963808 30
s1108232 31
s109663 32
s1994796 33
s1116197 34
s1244279 35
s65094 36
s1804682 37
s573622 38
s509726 39
s693401 40
s1392901 41
s262779 42
s1731214 43
s1501187 44
s1575671 45
s1007565 46
s932619 47
s1037831 48
s1047933 49
s1030025 50
s206345 51
s1753485 52
s259421 53
s13638 54
s6867 55
s1442334 56
s736736 57
s726232 58
s338745 59
s450718 60
s1663474 61
s291537 62
s1384512 63
s1554145 64
s1721914 65
s940586 66
s618620 67
s1455475 68
s355952 69
s465674 70
s728270 71
s1433184 72
s1625658 73
s77593 74
s1145075 75
s928748 76
s1527930 77
s1746665 78
s474475 79
s1223160 80
s441486 81
s279031 82
s1871135 83
s28269 84
s967533 85
s666270 86
s1207857 87
s821263 88
s1819437 89
s733556 90
s166541 91
s1648600 92
s1538175 93
s18889 94
s493947 95
s999303 96
s27938 97
s821405 98
s1078666 99
s455838 0
s232637 1
s1540456 2
s1789599 3
s1807774 4
s1128379 5
s1049303 6
s1207961 7
s458353 8
s554207 9
s40743 10
s179702 11
s194320 12
s669874 13
s1475969 14
s1659021 15
s967425 16
s1525788 17
s1965012 18
s1925314 19
s560638 20
s1968521 21
s1229670 22
s1916065 23
s1795899 24
s1295044 25
s1936470 26
s1897463 27
s852147 28
s723147 29
s1054275 30
s1842299 31
s414645 32
s1158329 33
s59245 34
s1614177 35
s1977082 36
s104240 37
s1758418 38
s1237454 39
s1048225 40
s135654 41
s723003 42
s1340586 43
s1368024 44
s630390 45
s494488 46
s710366 47
s1578569 48
s1499059 49
s1897533 50
s1963004 51
s437603 52
s1811360 53
s177900 54
s601884 55
s208776 56
s1129411 57
s1062868 58
s940189 59
s236611 60
s1265648 61
s129017 62
s231436 63
s1362586 64
s1595348 65
s1660902 66
s864093 67
s966207 68
s793382 69
s184063 70
s280477 71
s1350786 72
s1691212 73
s882235 74
s1191734 75
s299034 76
s1833567 77
s450893 78
s1858696 79
s1485429 80
s409365 81
s1514483 82
s1125749 83
s480523 84
s1745573 85
s230052 86
s362706 87
s1803153 88
s1675512 89
s134853 90
s210729 91
s624782 92
s18178 93
s112068 94
s465432 95
s1043340 96
s10981 97
s956568 98
s574903 99
s1270476 0
s569655 1
s125756 2
s1339 3
s1729131 4
s1657127 5
s1916716 6
s1618314 7
s852365 8
s1134048 9
s1154466 10
s400971 11
s269204 12
s615568 13
s1105656 14
s1341848 15
s382177 16
s1497238 17
s225048 18
s274876 19
s300608 20
s833458 21
s1968483 22
s1505940 23
s405909 24
s1198485 25
s1403801 26
s1403443 27
s1326618 28
s763227 29
s1522924 30
s1539028 31
s141066 32
s1368965 33
s1126996 34
s1907990 35
s754339 36
s863814 37
s658120 38
s347914 39
s780264 40
s1890435 41
s568090 42
s186296 43
s505569 44
s761495 45
s1890632 46
s1758379 47
s1922903 48
s1013952 49
s1409533 50
s762915 51
s323742 52
s1770088 53
s852266 54
s1284837 55
s1152968 56
s1713245 57
s1582458 58
s1246394 59
s1854381 60
s706642 61
s1534388 62
s1257505 63
s1122506 64
s1889168 65
s607450 66
s1532493 67
s1818370 68
s1522192 69
s1379473 70
s1928456 71
s657110 72
s912866 73
s1517761 74
s273508 75
s197701 76
s1815097 77
s856831 78
s1393764 79
s1710838 80
s632111 81
s922498 82
s1890543 83
s594369 84
s1794474 85
s1856298 86
s1308076 87
s859932 88
s1647032 89
s553283 90
s423934 91
s605492 92
s1486082 93
s1449833 94
s1380371 95
s1341676 96
s903905 97
s1302861 98
s1023748 99
s688091 0
s183717 1
s240634 2
s1238582 3
s1938125 4
s860941 5
s1595479 6
s629846 7
s234393 8
s1126252 9
s1283381 10
s1939167 11
s1642794 12
s835636 13
s1011497 14
s1667818 15
s1233796 16
s1723222 17
s1592737 18
s517423 19
s1169556 20
s257023 21
s243548 22
s1807627 23
s1165647 24
s1906938 25
s1802294 26
s1666810 27
s911628 28
s968946 29
s473932 30
s840367 31
s517439 32
s1689840 33
s1693393 34
s698721 35
s1368119 36
s1000225 37
s661778 38
s985106 39
s1512648 40
s681607 41
s1616163 42
s1418169 43
s404322 44
s181797 45
s489151 46
s326936 47
s835127 48
s1526313 49
s1939045 50
s168727 51
s780999 52
s1574449 53
s1187214 54
s818975 55
s918131 56
s872896 57
s1508172 58
s1198876 59
s1204798 60
s266987 61
s87325 62
s153297 63
s1365411 64
s256871 65
s1121641 66
s989667 67
s1454299 68
s1981028 69
s180896 70
s1503271 71
s1606586 72
s149701 73
s1426962 74
s1085131 75
s1099910 76
s1556892 77
s1656674 78
s126470 79
s1649897 80
s1850312 81
s393296 82
s110478 83
s1574227 84
s1921960 85
s1492548 86
s554062 87
s845165 88
s1216153 89
s797132 90
s1875586 91
s908279 92
s1108574 93
s996529 94
s1549633 95
s1689748 96
s132272 97
s1464373 98
s636458 99
s900782 0
s769164 1
s1161145 2
s1322041 3
s81197 4
s1498096 5
s1558613 6
s426963 7
s383788 8
s1527666 9
s174276 10
s1792199 11
s301528 12
s1465609 13
s1848216 14
s58905 15
s730503 16
s1477158 17
s917562 18
s659910 19
s1531852 20
s491926 21
s1543783 22
s1541532 23
s827103 24
s677703 25
s1634016 26
s859662 27
s1105715 28
s387331 29
s168360 30
s285084 31
s347924 32
s385772 33
s1658713 34
s1932817 35
s368582 36
s1291372 37
s527660 38
s1257787 39
s1412172 40
s598468 41
s187933 42
s1203866 43
s1688139 44
s1082846 45
s1118216 46
s1673798 47
s311301 48
s1916852 49
s757421 50
s383113 51
s1911535 52
s1831437 53
s138121 54
s1530882 55
s1006215 56
s1930046 57
s1487752 58
s676001 59
s1406345 60
s1666083 61
s1953420 62
s1540352 63
s1648238 64
s626695 65
s1516955 66
s1290234 67
s1216777 68
s697196 69
s417966 70
s142915 71
s1748925 72
s318930 73
s1545739 74
s453081 75
s898110 76
s1525631 77
s1500960 78
s473006 79
s321040 80
s511392 81
s1402807 82
s745424 83
s981024 84
s987523 85
s307395 86
s1770217 87
s1367700 88
s336345 89
s719961 90
s742661 91
s1927400 92
s854465 93
s770310 94
s1545297 95
s1057062 96
s1391072 97
s381613 98
s6144 99
s1246368 0
s727208 1
s1098187 2
s1419108 3
s50651 4
s68264 5
s1519510 6
s59730 7
s930769 8
s1450483 9
s991860 10
s900901 11
s87289 12
s475770 13
s448840 14
s1108309 15
s13709 16
s1803011 17
s749552 18
s1864336 19
s1853378 20
s413220 21
s1388629 22
s1547841 23
s1299208 24
s1898670 25
s665099 26
s1041830 27
s600075 28
s714222 29
s1947647 30
s1409519 31
s938103 32
s1317693 33
s890236 34
s164515 35
s1243445 36
s451182 37
s1600606 38
s648968 39
s218673 40
s1942262 41
s181361 42
s851449 43
s1304092 44
s147603 45
s285729 46
s1039656 47
s695036 48
s1311432 49
s601092 50
s1971555 51
s331127 52
s1297286 53
s1516912 54
s1742853 55
s1626087 56
s1037540 57
s515975 58
s1414324 59
s1290155 60
s599411 61
s456598 62
s439212 63
s1145624 64
s1234465 65
s1371243 66
s1350712 67
s164236 68
s760053 69
s287838 70
s1853391 71
s333745 72
s1466353 73
s439816 74
s320722 75
s336517 76
s645345 77
s761299 78
s1297213 79
s291522 80
s1251856 81
s1665209 82
s1930834 83
s1204565 84
s636529 85
s161977 86
s12516 87
s48584 88
s1227987 89
s711558 90
s955295 91
s1239012 92
s1279749 93
s1800969 94
s1160921 95
s1269825 96
s27258 97
s1128150 98
s1899562 99
s1745279 0
s1491356 1
s1996815 2
s463326 3
s491603 4
s1077919 5
s144772 6
s507521 7
s1464655 8
s493872 9
s1881068 10
s1543 11
s1811935 12
s894966 13
s164239 14
s479502 15
s1284312 16
s594961 17
s1112492 18
s1548709 19
s1522303 20
s581852 21
s1742168 22
s1439030 23
s1272682 24
s625307 25
s972009 26
s156728 27
s645082 28
s1236726 29
s174630 30
s1194052 31
s435851 32
s690968 33
s1812461 34
s1988328 35
s746114 36
s1391337 37
s516065 38
s288848 39
s820655 40
s535751 41
s193429 42
s1251428 43
s1862104 44
s356668 45
s1837963 46
s610564 47
s1259481 48
s173527 49
s63786 50
s497956 51
s729966 52
s328601 53
s863860 54
s286612 55
s1166034 56
s1936686 57
s963087 58
s1231501 59
s1803283 60
s739005 61
s1878654 62
s679547 63
s1206235 64
s787721 65
s531161 66
s1883648 67
s1502092 68
s158923 69
s1149550 70
s907264 71
s197498 72
s831144 73
s1821166 74
s428870 75
s252945 76
s1337236 77
s1714142 78
s1258424 79
s141660 80
s1456709 81
s751852 82
s304440 83
s1620656 84
s1177273 85
s919475 86
s128423 87
s547149 88
s960961 89
s934536 90
s781323 91
s1921218 92
s538321 93
s355199 94
s634704 95
s1779827 96
s1142733 97
s112652 98
s1651823 99
s1555805 0
s1705135 1
s1154184 2
s340698 3
s1349300 4
s856317 5
s1670424 6
s1591897 7
s1095295 8
s1255702 9
s669201 10
s1424836 11
s1170446 12
s1847379 13
s2214 14
s711201 15
s1239521 16
s1284208 17
s1483102 18
s527053 19
s971150 20
s103114 21
s500299 22
s1984995 23
s1370687 24
s1411016 25
s592276 26
s508500 27
s1364581 28
s1977930 29
s1176128 30
s450103 31
s281901 32
s1692769 33
s1755743 34
s240180 35
s506447 36
s333712 37
s160570 38
s640921 39
s901769 40
s601340 41
s339306 42
s1758237 43
s1169156 44
s1731471 45
s793195 46
s1437044 47
s1517166 48
s1707899 49
s1196162 50
s1292221 51
s313492 52
s642149 53
s1735001 54
s1402378 55
s327867 56
s1167258 57
s1703006 58
s1028401 59
s43226 60
s123573 61
s169423 62
s576218 63
s646281 64
s614123 65
s1747393 66
s915922 67
s1835294 68
s1751210 69
s900037 70
s962810 71
s1112441 72
s1589760 73
s1652199 74
s1138687 75
s761064 76
s405476 77
s1392340 78
s911000 79
s494361 80
s1612967 81
s1778611 82
s1150670 83
s739063 84
s433210 85
s274592 86
s596999 87
s232780 88
s1278155 89
s868545 90
s209395 91
s369263 92
s1491903 93
s1389616 94
s452782 95
s1101525 96
s231906 97
s764965 98
s226423 99
s1174943 0
s1969291 1
s1279290 2
s863288 3
s1834797 4
s1937111 5
s447283 6
s1281209 7
s1881738 8
s1641589 9
s1337793 10
s865354 11
s547932 12
s1524847 13
s35072 14
s1785836 15
s1675209 16
s1994133 17
s262650 18
s1349929 19
s1632369 20
s209982 21
s1955382 22
s354831 23
s1676626 24
s147139 25
s1862593 26
s1301460 27
s798676 28
s368708 29
s598988 30
s1103889 31
s1181282 32
s1733984 33
s823691 34
s1764043 35
s1140240 36
s171863 37
s1606140 38
s18553 39
s1909008 40
s462290 41
s102974 42
s1122958 43
s956526 44
s283917 45
s7098 46
s967135 47
s51873 48
s1286745 49
s572113 50
s24136 51
s1929761 52
s886439 53
s773560 54
s558126 55
s1981868 56
s1690425 57
s1243400 58
s1649320 59
s1304028 60
s91654 61
s971869 62
s536100 63
s1637172 64
s120737 65
s562350 66
s1497173 67
s1831985 68
s706213 69
s150072 70
s404729 71
s1139304 72
s1285828 73
s776481 74
s1872037 75
s1648766 76
s1462511 77
s1136378 78
s1918075 79
s340909 80
s1036409 81
s1578402 82
s567609 83
s182569 84
s958968 85
s584487 86
s187760 87
s262464 88
s1667364 89
s1015769 90
s1233250 91
s777832 92
s1392392 93
s607502 94
s102468 95
s1427705 96
s268066 97
s1209474 98
s780921 99
s1774643 0
s1773714 1
s1667768 2
s986464 3
s578220 4
s1550451 5
s1164381 6
s92546 7
s1646614 8
s1763235 9
s1110138 10
s120776 11
s575357 12
s1378965 13
s1946589 14
s48128 15
s1343624 16
s94608 17
s554804 18
s1877109 19
s1766251 20
s1101198 21
s1992015 22
s948590 23
s473044 24
s798568 25
s1269013 26
s399772 27
s844944 28
s1710484 29
s881412 30
s684280 31
s1949205 32
s1729203 33
s1477595 34
s971937 35
s1961930 36
s777156 37
s1612366 38
s537301 39
s1018535 40
s1415363 41
s1223872 42
s1775565 43
s1759461 44
s1900404 45
s734331 46
s17535 47
s643070 48
s895583 49
s1983978 50
s692120 51
s1683150 52
s1831678 53
s463948 54
s1834355 55
s147346 56
s136357 57
s1645264 58
s1945443 59
s1885381 60
s753380 61
s1461927 62
s79521 63
s340531 64
s1551910 65
s1447194 66
s1802310 67
s545879 68
s1023100 69
s1618453 70
s1510114 71
s545056 72
s923448 73
s1753833 74
s914977 75
s1345289 76
s1191477 77
s726888 78
s1406214 79
s1844949 80
s1523516 81
s1354535 82
s847573 83
s1191265 84
s782248 85
s1375142 86
s1989201 87
s1873537 88
s1161627 89
s1314469 90
s1179499 91
s914567 92
s263096 93
s124438 94
s1591761 95
s1504423 96
s43125 97
s1364034 98
s94596 99
s1606405 2
s1617278 4
s238843 5
s551629 6
s1944335 7
s1965082 8
s1660947 9
s992303 10
s1926152 11
s1830918 12
s1521690 13
s1648753 15
s644966 16
s1786915 17
s1874895 18
s1061723 19
s838836 20
s1025817 21
s205352 22
s1152203 23
s461876 24
s11444 25
s1053231 27
s1136975 28
s1529478 29
s1435808 30
s1131343 31
s1291798 32
s1076603 33
s771176 34
s698942 36
s112441 37
s828702 38
s533686 39
s1163579 40
s583035 41
s1648352 42
s287727 45
s93726 46
s1690705 47
s1765706 48
s406500 49
s426098 50
s1367395 51
s785834 53
s1974477 54
s737983 55
s662221 57
s1021574 58
c595596 67
c966820 67
c389082 8
c838653 65
c709776 42
c1085756 74
c931208 15
c843644 68
c433380 69
c1528811 19
c404025 78
c1640467 35
c766663 71
c1821615 10
c113568 64
c643079 43
c1506650 34
c286013 27
c919983 18
c120532 4
c11955 14
c959012 99
c982052 39
c1804637 37
c476175 49
c17629 40
c181224 56
c819355 32
c1813679 26
c812176 36
c147484 52
c1563829 9
c608092 23
c949720 72
c486778 44
c1700834 24
c1826580 1
c1192644 11
c844266 0
c1734484 70
c1885857 21
c1522174 69
c718957 3
c826264 5
c11629 50
c1574904 18
c1229557 2
c771503 20
c916750 25
c183958 38
c211249 12
c979884 33
c183546 47
c723269 28
c1285365 13
c419296 31
c226360 39
c876261 15
c1311722 29
c1359258 79
c1852346 6
c1807831 7
c410470 10
c1122868 37
c299246 8
c1881245 16
c1023799 30
c680430 32
c796354 22
c1565199 36
c883001 19
c1463631 17
c1992546 31
c1983435 11
c252548 35
