7503
s1558791 22
s1409519 22
s1111009 22
s144772 22
s144772 51
s1468822 22
s991502 22
s742856 22
s742856 46
s372634 22
s732943 22
s732943 38
s613318 22
s613318 24
s1333065 22
s1269013 22
s1269013 56
s687016 22
s687016 36
s687016 52
s1556035 22
s1731482 22
s971056 22
s971056 52
s971056 63
s1808415 22
s1808415 60
s823691 22
s823691 28
s823691 33
s5699 22
s5699 26
s5699 52
s5699 64
s373463 22
s1309988 22
s894550 22
s26547 22
s26547 26
s1488299 22
s1488299 23
s1488299 58
s1488299 67
s363980 22
s1610329 22
s1610329 53
s1463035 22
s1506286 22
s1371492 22
s280370 22
s280370 46
s280370 50
s917562 22
s917562 64
s917562 66
s870839 22
s870839 24
s870839 34
s1233405 22
s1233405 36
s1337236 22
s1337236 30
s982021 22
s982021 28
s919713 22
s919713 44
s1748925 22
s1748925 68
s112068 22
s112068 68
s971937 22
s971937 65
s761299 22
s761299 43
s1868287 22
s1868287 35
s1868287 50
s1587138 22
s1587138 49
s1587138 65
s62204 22
s62204 61
s1339 22
s1339 62
s1339 71
s1409324 22
s7098 22
s1994796 22
s1994796 40
s1999706 22
s1999706 59
s1999706 60
s409458 22
s409458 72
s1128379 22
s661778 22
s607102 22
s607102 33
s607102 35
s847001 22
s847001 60
s1487752 22
s1487752 46
s1179701 22
s1179701 33
s1179701 58
s1179701 66
s780392 22
s780392 41
s780392 49
s1280927 22
s1280927 46
s1768386 22
s1768386 32
s1768386 70
s684280 22
s684280 28
s684280 38
s684280 45
s684280 53
s1259650 22
s1259650 61
s327585 22
s327585 25
s327585 42
s327585 60
s1180485 22
s1180485 37
s1180485 63
s605492 22
s605492 24
s605492 25
s605492 26
s605492 56
s605492 60
s1024093 22
s1253109 22
s1253109 34
s1965484 22
s1965484 50
s69740 41
s69740 42
s797132 41
s797132 70
s764057 41
s764057 47
s1071302 41
s1071302 45
s1071302 74
s474497 41
s474497 52
s474497 56
s1098187 41
s435445 41
s295687 41
s295687 42
s295687 74
s168360 41
s168360 51
s168360 55
s168360 68
s985873 41
s816307 41
s816307 62
s1092244 41
s1092244 44
s1092244 58
s1092244 66
s1514663 41
s1514663 51
s1514663 69
s237653 41
s183541 41
s183541 45
s1532493 41
s1532493 56
s928288 41
s928288 47
s648870 41
s648870 47
s1447017 41
s1447017 46
s1447017 61
s527249 41
s527249 58
s527249 65
s320105 41
s1512648 41
s172697 41
s172697 46
s172697 59
s1729358 41
s1729358 45
s1216015 41
s658828 41
s1995174 41
s1995174 55
s847074 41
s875871 41
s875871 44
s875871 64
s875871 69
s1109068 41
s1109068 56
s1994772 41
s1994772 61
s1994772 62
s1994772 72
s1709762 41
s1709762 57
s971869 41
s971869 71
s140665 41
s140665 52
s1075332 41
s1075332 68
s822544 41
s822544 74
s1714142 41
s1714142 58
s197498 41
s1250668 41
s1548550 41
s1916852 41
s1523690 41
s1629280 41
s1545297 36
s1423879 36
s780954 36
s407974 36
s407974 45
s229956 36
s229956 37
s625188 36
s625188 42
s625188 53
s659224 36
s659224 60
s886439 36
s1296139 36
s1296139 67
s336345 36
s336345 70
s1804479 36
s663665 36
s663665 41
s331488 36
s1875586 36
s1875586 50
s1536280 36
s644439 36
s748315 36
s748315 38
s1783215 36
s953160 36
s953160 51
s911000 36
s911000 56
s93900 36
s446734 36
s446734 65
s1085131 36
s1085131 53
s1780337 36
s1900765 36
s1833519 36
s1833519 67
s317196 36
s51386 36
s123573 36
s284557 36
s284557 63
s1076263 36
s1076263 44
s1598901 36
s1598901 39
s1598901 55
s184617 36
s31209 36
s31209 69
s631114 36
s824810 36
s824810 51
s396679 36
s396679 63
s209982 36
s764965 36
s1857944 36
s1857944 51
s1857944 56
s817388 36
s1061758 36
s1061758 53
s481714 36
s481714 58
s571596 36
s1574449 36
s1574449 58
s971150 36
s1345289 36
s1345289 65
s304486 36
s1529698 36
s1529698 41
s1529698 54
s1529698 60
s622062 36
s622062 68
s1361638 36
s1361638 40
s594220 36
s601884 36
s601884 52
s601884 67
s1908301 66
s382177 66
s1213712 66
s398864 66
s501450 66
s1692769 66
s1504445 66
s1032909 66
s489151 66
s489151 67
s1753833 66
s761495 66
s1403801 66
s588225 66
s588225 74
s1632901 66
s1666996 66
s1777099 66
s1784871 66
s1128958 66
s1743624 66
s1559152 66
s731642 66
s731642 71
s1291713 66
s1877887 66
s1877887 72
s1304086 66
s1774380 66
s166541 66
s527809 66
s1673507 66
s213297 66
s114756 66
s114756 73
s1086305 66
s1870026 21
s1461927 21
s1461927 29
s1461927 65
s1461927 74
s1196162 21
s1196162 48
s463948 21
s463948 48
s463948 69
s1039656 21
s1039656 25
s1039656 36
s1389388 21
s1389388 42
s1068439 21
s1068439 36
s1068439 60
s1432451 21
s1432451 65
s1432451 68
s1847633 21
s1370082 21
s1370082 34
s1370082 56
s1370082 64
s1854660 21
s1854660 55
s277206 21
s1642811 21
s1255538 25
s1255538 63
s453559 25
s453559 42
s1108309 21
s1108309 41
s1108309 43
s146260 25
s146260 35
s1292281 21
s1292281 47
s110478 21
s1322610 25
s1322610 58
s1571957 25
s1571957 47
s1571957 51
s913134 21
s913134 49
s614622 25
s1611367 21
s1611367 66
s1872947 21
s1872947 58
s1047741 21
s269173 25
s882235 21
s882235 36
s882235 46
s882235 65
s375002 25
s44380 25
s44380 58
s44380 60
s1575693 21
s1575693 44
s1831985 25
s1831985 30
s1279290 21
s1953757 25
s352342 25
s1269825 21
s1269825 49
s1269825 55
s1122099 25
s1122099 46
s1122099 64
s1054275 25
s1054275 70
s1054275 71
s1662781 21
s1662781 30
s48002 21
s532804 25
s532804 65
s40307 25
s1368024 21
s1368024 36
s1368024 68
s702749 25
s1776524 25
s311097 21
s311097 49
s769356 21
s769356 50
s600075 25
s600075 45
s1502635 21
s1502635 29
s385000 25
s385000 29
s385000 40
s385000 58
s385000 68
s1195900 25
s1203824 21
s1203824 48
s1203824 53
s1203824 54
s1779827 21
s1779827 59
s1779827 69
s522106 25
s522106 56
s1177273 21
s1177273 36
s1411016 25
s1900404 21
s675796 25
s675796 62
s305143 21
s305143 49
s1468951 25
s1468951 46
s1917211 21
s1917211 22
s22197 25
s22197 53
s22197 55
s566045 21
s4858 25
s4858 72
s1203630 21
s1203630 52
s1413376 25
s1413376 37
s1413376 60
s1047782 21
s1047782 24
s1047782 48
s1522924 21
s1522924 69
s395490 21
s395490 30
s395490 65
s954806 25
s954806 74
s1825957 25
s1825957 61
s1431915 21
s1431915 26
s1431915 50
s822947 25
s822947 52
s149701 25
s149701 62
s5848 21
s5848 40
s5848 55
s5848 60
s1491441 21
s1491441 23
s1433184 21
s1433184 64
s516957 21
s516957 38
s1339758 25
s1339758 69
s225048 21
s225048 58
s1227987 21
s1227987 63
s563045 25
s563045 63
s563045 72
s1467059 25
s1467059 38
s1467059 61
s1467059 65
s550176 25
s505255 21
s505255 68
s1673784 21
s1654405 25
s428870 25
s428870 36
s428870 71
s977596 21
s977596 35
s977596 65
s209231 21
s209231 74
s683687 25
s683687 65
s122472 25
s122472 34
s123287 21
s123287 65
s822188 21
s1207961 25
s102381 21
s102381 27
s843589 25
s400971 21
s400971 29
s400971 30
s400971 39
s400971 44
s13638 25
s13638 45
s176701 21
s176701 72
s1645380 25
s1645380 59
s208876 21
s208876 24
s208876 65
s502554 25
s502554 30
s51118 21
s51118 29
s51118 39
s115103 25
s115103 60
s55859 21
s55859 29
s938493 25
s1547841 21
s1547841 26
s622622 25
s622622 41
s622622 67
s927179 25
s927179 41
s838962 21
s1348646 21
s1348646 27
s1348646 56
s1530914 25
s1530914 44
s181361 21
s181361 60
s1555805 25
s995946 25
s995946 70
s879370 25
s879370 27
s879370 69
s1531634 25
s852266 25
s1330124 25
s1330124 42
s1330124 70
s476800 25
s476800 48
s1608903 25
s1413754 25
s187933 25
s1971047 25
s1971047 34
s1971047 48
s783895 25
s783895 34
s1421487 25
s1421487 65
s1515137 25
s1515137 67
s1515137 70
s551623 25
s551623 48
s551623 55
s551623 59
s551623 72
s999340 25
s999340 61
s999340 74
s268558 25
s268558 36
s515930 34
s515930 58
s1151917 34
s1151917 69
s1223864 34
s1054451 34
s1943139 34
s1943139 46
s1943139 55
s1368268 34
s1368268 42
s1368268 66
s237124 34
s237124 44
s237124 58
s726888 34
s726888 51
s1319019 34
s1319019 35
s1319019 55
s1319019 60
s874415 34
s763777 34
s404343 34
s404343 70
s346092 34
s346092 59
s608819 34
s608819 52
s888884 34
s888884 53
s1362586 34
s773146 34
s987523 34
s769832 34
s1689748 34
s1689748 61
s1689748 62
s856831 34
s856831 44
s170891 34
s1684969 34
s1684969 64
s992224 34
s992224 72
s1853966 34
s1853966 48
s838613 34
s838613 62
s758392 34
s1568347 34
s921230 34
s921230 63
s672997 34
s272745 34
s308453 34
s1356679 34
s85004 34
s85004 46
s532413 34
s147603 34
s804949 34
s1393764 34
s1393764 35
s1597149 34
s1597149 62
s206025 34
s666270 34
s666270 45
s978144 34
s676001 34
s313486 34
s313486 49
s313486 65
s1965417 34
s631162 34
s631162 47
s631162 59
s679889 34
s679889 43
s963087 34
s963087 64
s115350 34
s115350 49
s115350 64
s115350 74
s305002 34
s1753960 34
s1753960 55
s1152008 32
s1152008 51
s1152008 53
s1152008 56
s1152008 69
s946810 32
s946810 33
s946810 42
s645345 32
s645345 44
s645345 53
s645345 59
s1359581 32
s1359581 55
s362706 32
s536760 32
s536760 72
s1314469 32
s1697132 32
s1697132 62
s263096 32
s263096 68
s754339 32
s1111328 32
s1111328 58
s29973 32
s29973 61
s1525331 32
s1525331 33
s940812 32
s940812 37
s940812 63
s765433 32
s765433 71
s1705135 32
s1705135 64
s1125266 32
s1125266 53
s1312972 32
s1312972 49
s1211875 32
s1689141 32
s1689141 64
s1625985 32
s1625985 37
s1625985 63
s1625985 64
s1625985 68
s1647032 32
s1675237 32
s672356 32
s1496559 32
s1425006 32
s1449190 32
s926067 32
s926067 71
s344471 32
s1717403 32
s1717403 39
s1717403 67
s408088 32
s408088 43
s408088 66
s907870 32
s1275173 32
s1275173 62
s615413 32
s615413 68
s65267 17
s448400 17
s729966 32
s1552130 17
s1552130 35
s142037 17
s630390 17
s630390 30
s581852 32
s581852 72
s1108574 32
s1108574 61
s223169 17
s223169 19
s223169 40
s1217325 32
s1217325 44
s1584380 32
s1887378 17
s1887378 18
s1887378 48
s1277355 32
s1466353 17
s1466353 21
s262779 17
s309917 32
s309917 54
s222920 32
s222920 50
s222920 73
s1556100 17
s1556100 67
s826115 32
s583985 17
s583985 24
s583985 41
s655259 17
s655259 47
s727208 32
s727208 33
s727208 50
s727208 54
s1024056 32
s1070372 17
s1070372 48
s1239012 17
s1239012 27
s1239012 31
s954187 17
s954187 22
s954187 25
s1395436 17
s1395436 47
s1395436 50
s1031053 32
s362204 17
s362204 28
s362204 50
s888465 17
s1992885 32
s1992885 51
s1057053 17
s45014 32
s45014 51
s1013989 17
s1295044 32
s1295044 39
s1295044 52
s1295044 55
s1295044 73
s652114 32
s1425779 17
s1425779 44
s1425779 71
s697 17
s697 26
s697 32
s725678 17
s112201 17
s112201 24
s112201 50
s963678 17
s463714 32
s463714 58
s347914 17
s347914 46
s347914 59
s1957655 32
s1255763 17
s1255763 19
s94597 32
s1017659 17
s1017659 39
s1283381 17
s1283381 31
s1283381 38
s1283381 60
s1949597 17
s1949597 45
s902679 32
s1965082 17
s1578569 32
s606726 17
s606726 69
s1123590 17
s1123590 35
s1371243 32
s1371243 46
s1089525 17
s1089525 25
s382825 17
s382825 21
s382825 45
s382825 69
s906514 17
s906514 30
s462036 17
s462036 20
s462036 30
s462036 31
s462036 52
s462036 60
s335388 17
s335388 58
s82968 17
s82968 40
s82968 56
s1585620 17
s1585620 58
s1585620 64
s148435 17
s166027 17
s1577344 17
s1577344 26
s1577344 39
s1789543 17
s94596 17
s94596 23
s415643 17
s415643 49
s79124 17
s79124 37
s669201 17
s983379 17
s983379 18
s1426962 17
s1005761 17
s1005761 49
s1005761 63
s307234 17
s307234 34
s307234 48
s990565 17
s990565 39
s1173401 17
s1558613 17
s1558613 25
s1558613 26
s1558613 72
s1105949 17
s1105949 61
s48128 17
s48128 18
s48128 29
s1312516 17
s1312516 73
s598911 17
s598911 35
s1094887 17
s1094887 58
s608133 17
s608133 37
s608133 45
s1481259 17
s1481259 26
s1481259 36
s1481259 43
s559420 17
s1721555 17
s950105 17
s950105 26
s950105 60
s1052878 17
s1052878 40
s1052878 64
s39124 17
s39124 22
s53180 17
s53180 21
s53180 36
s53180 43
s1531958 17
s1531958 32
s1531958 38
s1531958 69
s744202 17
s744202 27
s457826 17
s457826 60
s386357 17
s386357 47
s386357 59
s759497 17
s759497 43
s759497 50
s1582458 17
s325913 17
s1600634 17
s210439 17
s210439 48
s210439 52
s1889168 17
s1889168 27
s558126 73
s665099 73
s491603 73
s1104931 73
s602695 73
s1695936 73
s917693 73
s232780 73
s659910 73
s1809252 73
s547932 73
s1861886 73
s958968 73
s372604 73
s101832 73
s1877084 61
s1241680 73
s1029432 61
s1414503 73
s780264 61
s556308 73
s658120 73
s1509430 61
s1509430 73
s351637 61
s1664303 61
s430187 61
s1047220 64
s1061214 64
s1061214 68
s413041 64
s500299 61
s500299 66
s1015791 61
s1015791 67
s871902 64
s753975 61
s1211545 61
s1211545 66
s946987 64
s506447 61
s506447 65
s1952924 61
s1990747 61
s1121641 64
s936385 61
s646617 64
s1511314 64
s1511314 69
s1172261 64
s318572 64
s777832 61
s777832 70
s1139916 61
s232683 61
s1635381 64
s284601 61
s1899562 64
s768161 61
s827229 64
s187206 61
s1741597 61
s1741597 72
s1006672 64
s1006672 69
s1006672 73
s1604735 61
s204163 61
s1009156 64
s40144 61
s1084357 61
s371249 61
s197701 61
s1775575 64
s1258374 64
s545056 64
s718132 64
s732792 64
s1770088 64
s1770088 67
s1575241 64
s1575241 74
s991915 64
s836305 51
s836305 69
s836305 74
s338745 51
s298883 51
s298883 67
s1597508 51
s1315630 51
s94608 51
s1543328 51
s1543328 59
s1145085 51
s259421 51
s259421 55
s1922903 51
s1992847 51
s1553201 51
s547149 51
s547149 57
s547149 70
s908279 51
s908279 55
s607956 51
s607956 68
s607956 71
s1568092 51
s749297 51
s749297 52
s355952 51
s1248700 51
s1248700 59
s453215 51
s1263896 51
s1739864 51
s1697426 51
s232637 51
s120737 51
s1373219 51
s1618314 51
s431390 51
s937360 51
s937360 58
s937360 66
s590694 51
s201552 51
s201552 66
s630305 51
s630305 54
s630305 66
s968243 51
s710469 51
s710469 61
s352099 51
s352099 62
s1756599 51
s336381 51
s1487453 51
s1487453 57
s257275 18
s257275 40
s257275 45
s257275 51
s480212 18
s480212 63
s64176 18
s64176 62
s1572627 18
s1572627 29
s884896 18
s884896 47
s598468 18
s800602 18
s800602 49
s269585 18
s269585 62
s636793 18
s636793 46
s158923 18
s158923 19
s158923 69
s183852 18
s183852 53
s735036 18
s1635629 18
s1635629 62
s1635629 68
s1118139 18
s1118139 30
s1118139 35
s1118139 39
s1118139 48
s1118139 68
s1683150 18
s1118763 18
s413220 18
s413220 27
s1968483 18
s1968483 35
s1968483 60
s1741458 18
s1516273 18
s1516273 30
s1516273 57
s299034 18
s299034 24
s1843713 18
s1843713 47
s1052013 18
s1052013 22
s1052013 24
s1052013 29
s451284 18
s1793369 18
s1685472 18
s1685472 65
s1685472 70
s1037540 18
s1037540 38
s304440 18
s304440 27
s1534310 18
s237029 18
s237029 69
s1428588 18
s1428588 38
s1428588 59
s1147580 18
s1147580 23
s1147580 48
s1996397 18
s1996397 30
s1996397 36
s1996397 64
s1517989 18
s1517989 48
s1644156 18
s1525631 18
s1525631 36
s1525631 62
s1525631 71
s147346 18
s147346 57
s147346 64
s1856504 18
s1856504 24
s1501811 18
s87878 18
s87878 54
s87878 56
s87878 71
s1600266 18
s1600266 19
s1600266 70
s93572 18
s93572 48
s1065165 18
s1065165 58
s1065165 73
s983017 18
s1011497 18
s1011497 20
s911857 18
s200699 18
s991695 18
s991695 54
s1759817 18
s1759817 29
s1759817 44
s1246098 18
s1246098 21
s1246098 36
s64631 18
s64631 47
s681607 18
s681607 50
s681607 65
s783395 18
s399184 18
s168727 18
s1382573 18
s1382573 20
s1382573 69
s502354 18
s918789 18
s918789 24
s918789 64
s918789 73
s997218 18
s997218 21
s997218 38
s767207 18
s767207 22
s767207 56
s669874 10
s669874 19
s1519510 10
s1879992 10
s1879992 36
s255619 10
s1638040 10
s113071 10
s1715322 10
s1715322 20
s1715322 60
s1715322 68
s1638311 10
s215576 10
s1911211 10
s1911211 73
s772932 10
s1835294 10
s1442334 10
s856425 10
s856425 46
s856425 51
s1691641 10
s1691641 62
s824949 10
s824949 19
s921903 10
s820284 10
s820284 23
s104240 10
s104240 15
s1583059 10
s1583059 21
s1583059 51
s426963 10
s426963 13
s897814 10
s897814 24
s1938125 10
s1432164 10
s1432164 50
s1432164 56
s1305283 10
s1742853 10
s757421 10
s757421 21
s757421 35
s868545 10
s868545 27
s320722 10
s127527 10
s1161723 10
s964227 10
s964227 37
s715202 10
s715202 41
s715202 47
s479502 10
s1971010 10
s1971010 60
s976523 10
s976523 40
s976523 51
s1340315 10
s1340315 56
s1840101 10
s1773714 10
s1773714 46
s1773714 64
s141368 10
s922498 10
s922498 24
s852147 10
s852147 18
s852147 35
s852147 68
s1110460 10
s1820510 10
s1543145 10
s1543145 23
s1543145 38
s1543145 52
s1730527 10
s1730527 47
s1730527 58
s1825502 10
s1399444 10
s1399444 61
s1739024 10
s1739024 29
s1739024 62
s654978 10
s654978 34
s654978 51
s24675 10
s77593 10
s70711 10
s70711 40
s70711 50
s70711 67
s947946 10
s947946 12
s313492 10
s313492 18
s313492 23
s313492 24
s1874997 10
s1874997 17
s1874997 38
s94343 10
s94343 17
s94343 38
s1757665 10
s1757665 66
s677703 10
s677703 65
s677703 71
s1598403 10
s1598403 13
s1879219 10
s1122506 10
s1122506 45
s1689056 10
s431548 10
s848270 10
s848270 69
s1769637 10
s1769637 20
s216168 10
s216168 25
s1080393 10
s1080393 70
s908688 10
s908688 57
s908688 68
s1693393 10
s1733984 10
s4144 10
s4144 38
s1012644 10
s1012644 12
s1012644 21
s1012644 36
s743105 10
s743105 18
s743105 28
s743105 48
s327277 10
s327277 53
s327277 64
s1166159 10
s1166159 44
s842561 10
s842561 31
s842561 61
s511073 10
s1854243 10
s1854243 14
s1174589 10
s1154356 10
s1929002 10
s1929002 40
s393970 10
s393970 41
s1459046 7
s1459046 64
s1459046 65
s903905 7
s903905 32
s1916064 7
s1916064 45
s1916064 71
s1665698 7
s1665698 19
s1665698 31
s1665698 34
s1665698 35
s1665698 71
s1850968 7
s1850968 9
s1850968 25
s847573 7
s847573 13
s847573 21
s177473 7
s1853378 7
s1853378 27
s1853378 39
s1754381 7
s1754381 58
s1431356 7
s6867 7
s1646503 7
s1646503 44
s1646503 53
s88818 7
s88818 32
s625931 7
s625931 31
s625931 74
s140270 7
s1503271 7
s1503271 11
s1503271 55
s1503271 73
s780999 7
s780999 59
s287343 7
s403828 7
s403828 40
s1365411 7
s179702 7
s991860 7
s991860 37
s1755743 7
s1755743 34
s1755743 42
s1755743 54
s717907 7
s1832576 7
s1832576 40
s818975 7
s818975 55
s818975 67
s178406 7
s178406 65
s911903 7
s1165647 7
s1165647 24
s1052123 7
s1052123 8
s324277 7
s324277 19
s324277 21
s324277 54
s1944048 7
s1763235 7
s1763235 43
s1763235 63
s1794655 7
s1794655 50
s1794655 59
s986318 7
s986318 11
s986318 15
s1491021 7
s1921960 7
s1921960 15
s357967 7
s357967 44
s648888 7
s648888 35
s648888 64
s670598 7
s670598 24
s670598 50
s670598 62
s261526 7
s261526 68
s551629 7
s551629 54
s1439244 7
s1439244 26
s657555 7
s657555 13
s657555 31
s974008 7
s974008 8
s1350062 7
s1232515 7
s1232515 14
s1406214 7
s1492812 7
s821405 7
s1468431 7
s1468431 13
s291142 7
s291142 71
s451182 7
s451182 55
s980521 7
s980521 20
s980521 47
s980521 64
s337345 7
s337345 45
s337345 49
s1862294 7
s1095295 7
s557341 7
s1641589 7
s1641589 64
s1667364 7
s1667364 12
s960961 7
s960961 70
s1369747 7
s1369747 73
s1369747 74
s722794 7
s1632035 7
s431939 7
s431939 62
s1664664 7
s1664664 11
s1664664 29
s492104 7
s492104 13
s492104 32
s392338 7
s392338 23
s392338 44
s87494 7
s1127917 7
s207649 7
s207649 44
s1125923 7
s1125923 64
s503104 7
s1130569 7
s1130569 47
s331127 7
s331127 11
s1709281 7
s1709281 30
s1179499 7
s1179499 67
s1078389 7
s843832 7
s843832 41
s843832 51
s843832 58
s843832 65
s1391072 7
s1086845 7
s1086845 74
s1811935 7
s1811935 8
s1811935 72
s1301460 7
s944948 7
s944948 37
s1287890 7
s1961930 59
s1961930 68
s157950 59
s259960 59
s1857030 59
s47705 59
s1603916 59
s1897463 59
s1897463 68
s1921867 59
s877656 59
s1635604 59
s1935205 59
s1794327 59
s1756409 59
s1756409 71
s1226098 59
s1226098 73
s1405026 59
s1334680 59
s187014 59
s1113497 59
s809239 59
s809239 62
s1027062 59
s115403 59
s1049786 59
s1833864 59
s817916 59
s1297213 59
s1444582 59
s1444582 63
s1444582 74
s872984 59
s1856108 59
s859932 59
s1504423 59
s374209 59
s374209 72
s557218 47
s1660947 47
s816725 47
s911628 47
s1964312 47
s1964312 60
s1964312 67
s1964312 74
s1434059 47
s1434059 73
s660104 47
s1296954 47
s1296954 58
s68264 47
s1951456 47
s1951456 66
s187760 47
s187760 61
s187760 63
s1379473 47
s897502 47
s831144 47
s831144 62
s1047933 47
s502761 47
s1349300 47
s1349300 58
s977705 47
s977705 48
s1825385 47
s1825385 71
s1623006 47
s1886803 47
s1983291 47
s1983291 50
s1983291 53
s1983291 63
s1743902 47
s1743902 57
s1743902 67
s1743902 70
s112423 47
s1251648 47
s1118374 47
s800571 47
s152285 47
s1350448 47
s1140240 47
s116751 47
s289682 47
s558074 47
s558074 71
s164239 47
s747150 47
s747150 74
s452782 47
s452782 58
s1383370 47
s1383370 52
s1356852 47
s1356852 68
s986464 47
s986464 65
s681427 47
s681427 63
s681427 72
s1331987 33
s1331987 48
s1375142 33
s1375142 66
s1315405 33
s1315405 35
s1315405 52
s572741 33
s856317 33
s856317 44
s856317 50
s771828 33
s634422 33
s634422 68
s66225 33
s66225 73
s1583499 33
s1583499 40
s1583499 73
s5622 33
s5622 68
s5622 69
s92546 33
s92546 39
s92546 45
s92546 52
s1971555 33
s1713245 33
s129017 33
s734331 33
s734331 39
s1357929 33
s1761571 33
s1761571 34
s1761571 61
s1096314 33
s52451 33
s52451 61
s558949 33
s153297 33
s153297 55
s1392901 33
s38613 33
s1533174 33
s1533174 61
s1533174 70
s978204 33
s836756 33
s600578 33
s600578 57
s600578 62
s600578 65
s1700221 33
s1700221 67
s1317240 33
s1317240 40
s1317240 71
s173787 33
s173787 57
s711201 33
s1926152 33
s441066 33
s441066 39
s1421406 33
s1421406 44
s1080107 33
s1080107 72
s444504 33
s444504 40
s444504 55
s1045637 33
s1638759 33
s1638759 56
s125914 33
s125914 60
s125914 70
s721702 33
s893826 33
s893826 73
s390680 33
s390680 37
s1648753 33
s490115 33
s490115 73
s554062 11
s554062 30
s554062 63
s554062 71
s1875978 11
s1875978 14
s1414646 11
s1414646 46
s22975 11
s22975 12
s22975 50
s22975 59
s1041830 11
s1530773 11
s1530773 14
s1530773 19
s1530773 65
s1535921 11
s1535921 21
s1535921 34
s1535921 60
s1542738 11
s1542738 15
s1336023 11
s441957 11
s441957 64
s1025817 11
s1025817 38
s1025817 64
s575358 11
s1634016 11
s1634016 39
s1288847 11
s567609 11
s567609 38
s239200 11
s239200 33
s239200 67
s1278155 11
s1257007 11
s1257007 30
s1257007 35
s1257007 36
s1257007 60
s743355 11
s743355 56
s253155 11
s253155 15
s253155 32
s253155 48
s632502 11
s632502 19
s632502 42
s27938 11
s27938 57
s991381 11
s1194677 11
s1194677 14
s1194677 31
s1395378 11
s243548 11
s243548 71
s473040 11
s473040 23
s299694 11
s872839 11
s872839 58
s1893783 11
s168506 11
s168506 43
s492420 11
s492420 44
s1966957 11
s1966957 53
s1966957 71
s241702 11
s241702 18
s241702 28
s109663 11
s109663 25
s109663 67
s1282924 11
s1282924 33
s1282924 37
s1282924 72
s900921 11
s268066 11
s268066 46
s339253 11
s339253 63
s339253 74
s1785836 11
s607502 11
s607502 31
s607502 68
s1449052 11
s1449052 23
s1731471 11
s624782 11
s624782 15
s624782 65
s895790 11
s895790 46
s895790 53
s984216 11
s984216 29
s984216 33
s285084 11
s285084 28
s285084 38
s285084 40
s285084 62
s285084 72
s1479361 11
s1479361 23
s1479361 38
s278856 11
s278856 39
s680988 11
s680988 41
s1399523 11
s450449 11
s634704 11
s634704 55
s634704 64
s634704 66
s981494 11
s981494 49
s1394724 11
s1394724 25
s1394724 36
s1394724 42
s1238755 11
s1238755 66
s1710838 11
s1710838 38
s1759784 11
s1759784 31
s1691212 11
s1691212 46
s1497173 11
s1497173 13
s1497173 29
s683689 11
s683689 16
s683689 59
s1177890 11
s1177890 12
s1177890 46
s197110 11
s1435325 11
s1435325 40
s1435325 42
s384112 11
s1380439 11
s1380439 18
s92786 11
s92786 57
s355199 11
s800824 11
s800824 34
s441796 11
s110274 11
s110274 18
s991509 11
s1847803 11
s1847803 62
s1414220 11
s1414220 63
s1414220 73
s393367 11
s393367 47
s188377 11
s188377 14
s188377 26
s188377 42
s961352 11
s961352 26
s961352 43
s961352 60
s1085601 11
s1085601 37
s642224 11
s642224 35
s1712731 11
s1712731 59
s1712731 61
s1158329 16
s1158329 21
s626845 16
s626845 44
s1119918 16
s1119918 52
s1718447 16
s1718447 29
s1718447 71
s1718447 72
s815602 16
s1657127 16
s803469 16
s803469 52
s803469 65
s803469 70
s803469 71
s746150 16
s746150 60
s1691516 16
s593158 16
s593158 19
s593158 72
s717063 16
s717063 43
s916379 16
s916379 23
s916379 44
s916379 60
s916379 68
s66588 16
s66588 49
s66588 73
s1177850 16
s1177850 34
s1177850 39
s618676 16
s1787586 16
s1787586 60
s165951 16
s165951 29
s1046112 16
s806930 16
s806930 18
s955295 16
s389490 16
s133459 16
s136357 16
s136357 61
s1247895 16
s1247895 64
s529507 16
s529507 30
s529507 65
s383788 16
s383788 58
s1514715 16
s1514715 60
s1514715 66
s1836761 16
s1836761 19
s1836761 33
s1836761 42
s1836761 63
s1172255 16
s1172255 27
s1172255 44
s1172255 51
s1172255 56
s1801971 16
s1801971 52
s1801971 73
s904087 16
s904087 36
s456598 16
s456598 28
s456598 32
s456598 54
s497845 16
s497845 28
s497845 47
s1420598 16
s1420598 23
s1420598 39
s748259 16
s748259 20
s748259 26
s748259 58
s748259 70
s1549191 16
s1549191 57
s1549191 71
s1212940 16
s1431728 16
s468583 16
s1057475 16
s1057475 32
s746309 16
s746309 66
s596999 16
s596999 62
s175051 16
s175051 26
s1836062 16
s1836062 73
s1117504 16
s723276 16
s723276 31
s723276 46
s1523516 16
s1523516 33
s1523516 73
s107944 16
s107944 25
s1068910 16
s1068910 62
s886229 16
s1145330 16
s1145330 46
s414645 16
s414645 29
s414645 30
s414645 53
s1516540 16
s1516540 29
s1516540 57
s1291798 16
s1529814 16
s1529814 49
s1529814 58
s162787 16
s1871998 16
s1871998 28
s1871998 38
s235026 16
s150404 16
s131016 16
s131016 22
s1763314 16
s1501187 16
s381772 16
s381772 61
s381772 67
s296320 16
s296320 30
s254270 16
s254270 28
s1185091 16
s1185091 18
s1185091 37
s1185091 54
s177333 16
s177333 26
s177333 54
s177333 56
s772944 16
s772944 33
s1626087 16
s1626087 39
s1281209 4
s1281209 20
s1281209 54
s1270476 4
s1270476 32
s47023 4
s47023 15
s47023 35
s47023 70
s477990 4
s477990 22
s477990 71
s1758237 4
s1796149 4
s1796149 58
s834643 4
s834643 63
s1616163 4
s1616163 46
s1616163 72
s1616163 73
s1077919 4
s1048910 4
s1048910 36
s1048910 61
s1048910 66
s1368952 4
s1405414 4
s1405414 38
s1405414 41
s1405414 59
s1038770 4
s1038770 9
s1209524 4
s1209524 24
s55540 4
s55540 27
s330515 4
s28189 4
s28189 28
s28189 47
s294694 4
s294694 26
s294694 51
s696304 4
s696304 56
s1898329 4
s1898329 21
s1898329 41
s1898329 49
s1898329 69
s902511 4
s902511 38
s902511 50
s350287 4
s1583153 4
s1583153 23
s16517 4
s1371678 4
s1371678 14
s1371678 17
s116379 4
s1145075 4
s569233 4
s569233 25
s569233 47
s347392 4
s347392 67
s1397201 4
s1397201 11
s1397201 71
s1397201 73
s1053231 4
s1053231 11
s576218 4
s576218 29
s576218 37
s576218 68
s368708 4
s1477158 4
s1477158 28
s494488 4
s629846 4
s629846 9
s1755427 4
s1755427 13
s1755427 30
s1755427 54
s1724022 4
s1724022 5
s1874616 4
s1506412 4
s1506412 20
s125247 4
s125247 53
s1648766 4
s1648766 22
s1198549 4
s1198549 8
s1198549 11
s1651823 4
s1651823 30
s1651823 35
s1651823 72
s1598234 4
s1598234 72
s1266365 4
s1266365 12
s1139856 4
s1139856 41
s1205539 4
s1205539 16
s1756717 4
s1756717 68
s1350852 4
s1350852 5
s1350852 33
s1350852 46
s805827 4
s805827 6
s114091 4
s235079 4
s431863 4
s431863 6
s997895 4
s997895 49
s997895 51
s997895 56
s1730765 4
s1730765 20
s871492 4
s871492 54
s1697264 4
s1697264 49
s1697264 57
s240783 4
s240783 6
s240783 21
s1842073 4
s1842073 15
s1842073 66
s1549633 4
s1549633 39
s1549633 72
s363291 4
s363291 28
s1852353 4
s1852353 57
s1397912 4
s1537620 4
s1537620 45
s1967101 4
s1967101 64
s1967101 67
s1297706 4
s1297706 13
s612968 4
s612968 21
s604383 4
s1401843 4
s1401843 26
s1401843 62
s344432 4
s344432 54
s503608 4
s1368119 4
s1368119 8
s1368119 61
s1368119 69
s1370567 4
s1370567 38
s1370567 62
s1148444 4
s1148444 72
s767183 4
s767183 25
s767183 57
s1211287 4
s1211287 36
s25342 4
s25342 51
s187643 4
s187643 36
s89847 4
s89847 63
s1598435 4
s1598435 11
s1598435 69
s1891971 4
s1891971 55
s1891971 68
s1885381 4
s1885381 42
s1885381 54
s1035418 4
s1035418 66
s1486666 4
s1597299 4
s1597299 21
s1191477 4
s1191477 43
s1191477 45
s1191477 51
s640921 4
s640921 55
s1524104 4
s1524104 64
s1524104 65
s1524104 68
s787721 0
s787721 6
s787721 22
s984358 0
s984358 74
s1302861 0
s1302861 3
s1302861 9
s1302861 15
s577289 0
s577289 16
s577289 23
s577289 61
s1677378 0
s1677378 35
s1677378 72
s725364 0
s725364 27
s1091696 0
s1091696 16
s1091696 43
s473006 0
s473006 26
s473006 33
s794776 0
s794776 59
s794776 70
s794776 71
s1417227 0
s1417227 31
s132272 0
s132272 6
s132272 32
s132272 33
s1899221 0
s1899221 10
s1644688 0
s1644688 60
s1937111 0
s1937111 32
s1027758 0
s1027758 34
s1641404 0
s1641404 5
s1641404 21
s1641404 35
s1641404 39
s1641404 65
s1070155 0
s1070155 16
s901671 0
s901671 8
s845961 0
s845961 40
s845961 41
s475350 0
s475350 39
s1863739 0
s1863739 48
s1863739 52
s1863739 58
s1246394 0
s1246394 74
s1898670 0
s1898670 18
s1898670 23
s1898670 55
s262464 0
s262464 7
s766536 0
s766536 63
s19209 0
s19209 57
s148315 0
s148315 69
s1828307 0
s1828307 52
s1065478 0
s1274383 0
s1274383 36
s1733887 0
s1733887 17
s1733887 63
s575357 0
s575357 35
s575357 69
s414291 0
s414291 4
s414291 8
s649971 0
s649971 2
s649971 17
s649971 37
s561511 0
s561511 6
s561511 30
s561511 36
s135654 0
s135654 32
s135654 36
s574903 0
s574903 18
s574903 28
s574903 30
s15702 0
s15702 74
s1189841 0
s1189841 21
s1189841 45
s1207857 0
s1207857 68
s1831678 0
s1831678 30
s112441 0
s112441 9
s1574520 0
s404729 0
s404729 16
s1224016 0
s1224016 6
s1224016 16
s1224016 49
s1792199 0
s1792199 1
s73832 0
s73832 3
s73832 4
s1216777 0
s1216777 2
s1216777 23
s325098 0
s325098 26
s325098 30
s19883 0
s19883 20
s19883 24
s19883 62
s1237777 0
s1237777 44
s693401 0
s693401 23
s1554145 0
s1998215 0
s1998215 10
s1998215 11
s1998215 25
s1998215 60
s1923017 0
s1923017 39
s819703 0
s819703 24
s918572 0
s918572 12
s918572 38
s1500960 0
s1500960 41
s369263 0
s369263 5
s369263 57
s1437044 0
s1437044 11
s1437044 41
s1437044 51
s1046132 0
s1046132 74
s554827 0
s554827 36
s554827 56
s554827 67
s94980 0
s94980 34
s13709 0
s13709 38
s1928314 0
s1928314 17
s845497 0
s845497 6
s659669 0
s17535 0
s17535 17
s17535 18
s17535 43
s1464373 0
s1464373 67
s1039585 0
s1389616 0
s1389616 59
s1269572 0
s1269572 12
s1269572 13
s1269572 61
s1269572 68
s1746089 0
s218253 0
s218253 23
s218253 61
s1610468 0
s1610468 14
s1610468 37
s1610468 61
s260826 0
s260826 16
s260826 21
s131628 0
s131628 36
s131628 37
s1207447 0
s1207447 47
s438590 0
s438590 60
s1324385 0
s1324385 42
s1017208 0
s1017208 6
s1017208 24
s1017208 56
s1982239 0
s1982239 1
s1982239 53
s1456768 0
s1456768 33
s533686 0
s533686 47
s1216226 0
s1216226 27
s121480 0
s121480 1
s441486 0
s441486 53
s441486 66
s1409533 0
s1409533 4
s1226295 0
s1226295 14
s1226295 23
s1226295 57
s1996512 0
s1152968 0
s1152968 3
s1152968 4
s87289 0
s87289 7
s87289 73
s1083409 0
s1083409 2
s1083409 6
s1083409 37
s1083409 50
s1444820 0
s1444820 22
s1444820 41
s1951391 0
s1951391 58
s1468051 0
s1468051 26
s1468051 56
s1606056 0
s1606056 6
s340636 0
s340636 61
s340636 64
s112608 70
s1729203 70
s1741987 70
s426100 70
s1477166 70
s150072 70
s217370 70
s820655 70
s1897575 70
s461876 70
s456088 70
s1824654 70
s843742 70
s1634015 70
s1907545 70
s1041541 70
s59730 70
s665978 70
s1853770 70
s1853770 73
s312184 70
s1947806 6
s1947806 56
s1947806 74
s853318 6
s853318 20
s1922705 6
s1922705 35
s497956 6
s497956 72
s1483062 6
s795291 6
s617776 6
s617776 7
s617776 34
s1575623 6
s1575623 24
s1575623 60
s1575623 67
s1575623 73
s972009 6
s972009 14
s1529478 6
s1529478 15
s1529478 35
s1529478 57
s1200778 6
s1200778 38
s728270 6
s728270 50
s728270 73
s611812 6
s611812 46
s1541932 6
s1015588 6
s1015588 55
s1015588 66
s1902409 6
s1902409 56
s1419463 6
s1130143 6
s1130143 38
s1130143 62
s1130143 65
s1130143 70
s1130143 74
s1385677 6
s1721914 6
s70913 6
s70913 18
s70913 33
s70913 53
s1690705 6
s1690705 35
s1690705 57
s1392392 6
s1392392 31
s174211 6
s1706318 6
s1706318 10
s1706318 26
s981024 6
s981024 47
s981024 61
s562350 6
s562350 18
s1257821 6
s1121941 6
s1121941 8
s1121941 69
s854973 6
s854973 35
s1033322 6
s1033322 42
s835127 6
s835127 9
s835127 47
s516177 6
s516177 10
s516177 31
s568384 6
s844944 6
s844944 10
s844944 12
s377851 6
s377851 65
s1538302 6
s1538302 13
s490580 6
s1920103 6
s1788539 6
s1788539 15
s1788539 29
s1788539 67
s1788539 70
s1200341 6
s1200341 30
s606584 6
s606584 30
s1807774 6
s233067 6
s233067 53
s233067 73
s675042 6
s675042 10
s675042 13
s675042 66
s1136483 6
s1136483 33
s1016951 6
s1016951 43
s866055 6
s866055 63
s1881157 6
s1881157 36
s1881157 52
s1881157 69
s1329739 6
s1421711 6
s1421711 40
s1421711 51
s1916716 6
s1916716 15
s1140810 6
s1140810 50
s1507839 6
s1507839 39
s1507839 61
s1507839 72
s276039 6
s1766105 6
s1766105 25
s304585 6
s304585 34
s304585 49
s304585 51
s597456 6
s597456 48
s597456 49
s928442 6
s928442 10
s928442 60
s599411 6
s599411 71
s599411 72
s908872 6
s822140 6
s540443 6
s540443 11
s540443 39
s540443 41
s540443 44
s540443 73
s264456 6
s264456 32
s264456 48
s1496630 6
s1496630 22
s1496630 27
s598635 6
s598635 15
s1301397 6
s1301397 42
s1301397 53
s117913 6
s117913 18
s117913 65
s576296 6
s576296 29
s576296 50
s1231688 6
s616192 6
s616192 23
s616192 65
s1887686 6
s1887686 60
s479643 6
s479643 20
s479643 41
s1536044 6
s431708 6
s431708 28
s416956 6
s43785 6
s43785 49
s43785 62
s645082 6
s645082 18
s645082 34
s645082 50
s65290 6
s65290 46
s5490 6
s5490 12
s5490 44
s287838 6
s287838 34
s1396750 6
s1396750 8
s631367 6
s631367 21
s631367 26
s1353952 6
s1832513 9
s1832513 16
s1832513 30
s1282031 9
s1282031 48
s1282031 66
s1745833 9
s1745833 15
s601092 9
s601092 24
s601092 35
s1701827 9
s1701827 32
s1701827 38
s1701827 49
s1153209 9
s1153209 30
s833458 9
s833458 14
s833458 16
s833458 53
s435851 9
s435851 70
s435851 73
s1644313 9
s1644313 60
s1732487 9
s1517166 9
s1517166 17
s695036 9
s695036 12
s695036 18
s1605952 9
s1605952 68
s1284208 9
s1284208 27
s1530160 9
s1944335 9
s1944335 46
s1944335 63
s1944335 71
s1944335 74
s1807634 9
s1807634 13
s1807634 57
s1807634 74
s1896728 9
s859926 9
s859926 23
s517439 9
s1611085 9
s18553 9
s18553 24
s789700 9
s789700 35
s1144285 9
s1144285 18
s1144285 27
s1382787 9
s1382787 22
s1382787 26
s1382787 47
s1382787 49
s1624542 9
s1624542 50
s142021 9
s1212230 9
s1212230 22
s1212230 37
s247528 9
s247528 22
s213702 9
s180896 9
s180896 71
s569164 9
s569164 16
s569164 55
s652369 9
s652369 42
s1105715 9
s710366 9
s710366 53
s1906557 9
s1906557 59
s1444709 9
s1444709 30
s1031153 9
s1031153 44
s1031153 54
s1241917 9
s1241917 13
s1241917 24
s1241917 48
s926847 9
s926847 17
s1270211 9
s1270211 41
s1270211 60
s1693075 9
s295240 9
s295240 64
s1136975 9
s1136975 50
s343951 9
s343951 15
s914899 9
s914899 28
s914899 55
s311301 9
s173527 9
s1007565 9
s1007565 25
s1007565 65
s1676765 9
s1676765 34
s1676765 66
s158192 9
s158192 66
s448051 9
s448051 46
s448051 54
s1077245 9
s1077245 14
s1077245 22
s1077245 28
s1077245 29
s1077245 71
s1220610 9
s1220610 40
s1220610 57
s1380264 9
s1380264 29
s1380264 46
s109481 9
s109481 14
s109481 16
s109481 74
s1468124 9
s787195 9
s117106 9
s117106 11
s117106 61
s3723 9
s1475969 9
s1475969 33
s1475969 66
s409838 9
s409838 19
s409838 25
s409838 27
s409838 44
s275750 9
s57990 9
s57990 62
s57990 67
s1764783 9
s962810 9
s1397381 9
s1397381 15
s1622075 9
s1622075 18
s1533554 9
s1533554 23
s1533554 55
s1533554 58
s1533554 60
s1552995 9
s1552995 42
s489838 9
s489838 45
s1169556 9
s1169556 64
s969055 9
s969055 26
s969055 73
s1579966 9
s1426119 9
s1426119 14
s908897 9
s908897 13
s908897 41
s74707 9
s74707 12
s1888101 9
s809921 9
s809921 30
s240180 9
s1899127 9
s1899127 19
s691164 63
s582874 63
s134853 63
s134853 67
s47522 63
s493054 63
s412873 63
s1165106 63
s238843 63
s238843 70
s567362 63
s340909 63
s778889 63
s1795899 63
s1008262 63
s1486090 63
s1486090 69
s1409269 63
s981114 63
s981114 69
s1606405 63
s985532 63
s292389 63
s28269 63
s28269 72
s28269 73
s1059873 63
s16558 63
s1925314 63
s417966 63
s1130435 63
s831503 63
s1507953 24
s1507953 31
s1101132 2
s1101132 29
s1101132 45
s511392 2
s390829 24
s967331 2
s967331 11
s240634 2
s1309332 24
s1124271 2
s1751210 24
s1550451 2
s1049303 24
s1394691 2
s1394691 48
s1543 2
s1543 8
s1543 38
s746114 2
s1272682 24
s835533 2
s835533 8
s835533 13
s423934 2
s423934 18
s423934 22
s423934 43
s632051 24
s386223 2
s386223 10
s722900 24
s722900 27
s722900 62
s1283177 2
s1283177 29
s517015 24
s517015 59
s1429291 2
s1429291 14
s1429291 71
s1391644 2
s1391644 48
s1514962 2
s212748 2
s212748 45
s212748 53
s212748 73
s719961 2
s1174943 24
s330106 2
s330106 45
s1400950 24
s1400950 66
s1850312 2
s1850312 20
s1902006 2
s763946 24
s763946 44
s537301 24
s161977 2
s161977 10
s1908533 24
s1908533 62
s1419108 24
s1048225 2
s1048225 15
s1048225 19
s1731794 2
s1731794 20
s1731794 45
s1731794 71
s232232 24
s232232 29
s232232 56
s364373 2
s364373 7
s364373 45
s184328 24
s184328 38
s654743 2
s1916065 2
s1916065 4
s1916065 26
s1812015 2
s1812015 14
s1812015 48
s340360 24
s340360 43
s340360 47
s340360 50
s340360 51
s340360 61
s340360 68
s777888 2
s777888 48
s777888 58
s544838 24
s544838 38
s1158320 2
s491528 24
s1099910 24
s1885196 2
s1885196 31
s1885196 42
s159455 24
s1214038 2
s1214038 9
s1214038 25
s1214038 51
s1255508 24
s1255508 25
s1255508 58
s1979376 2
s1979376 9
s1979376 72
s145031 2
s145031 36
s145031 56
s145031 69
s1693911 2
s1693911 54
s1693911 61
s440916 2
s440916 63
s440916 70
s399772 24
s399772 30
s399772 49
s399772 70
s1883624 2
s1883624 3
s1497653 2
s1497238 24
s1497238 29
s1809989 24
s1809989 32
s1809989 54
s374503 2
s374503 6
s374503 49
s374503 68
s1496651 24
s1496651 49
s505382 2
s505382 67
s1445600 2
s794945 24
s794945 35
s794945 69
s1439636 24
s141592 2
s141592 25
s966207 2
s966207 74
s507521 2
s507521 31
s241198 2
s241198 46
s1259481 24
s1703006 2
s1703006 15
s1703006 28
s68914 24
s1206354 2
s1206354 28
s614123 2
s614123 24
s527420 24
s890236 2
s890236 28
s1538175 2
s1538175 11
s1538175 16
s1538175 17
s1105212 2
s1105212 44
s1105212 45
s291537 54
s139380 2
s139380 14
s139380 54
s971695 2
s971695 24
s650320 24
s650320 30
s650320 34
s13569 24
s474632 2
s474632 42
s474632 44
s1897217 2
s1897217 64
s836416 2
s836416 51
s836416 59
s462290 2
s768348 54
s768348 64
s1631188 54
s979957 2
s979957 51
s979957 73
s863870 24
s863870 29
s1610659 24
s1924546 24
s1924546 50
s1890543 2
s1890543 38
s1746713 24
s1522288 2
s1522288 25
s1229673 24
s1622068 54
s975464 2
s975464 16
s1974287 24
s1974287 26
s1403899 2
s1403899 74
s1892574 54
s1440069 2
s1440069 42
s1440069 57
s1177797 54
s1177797 63
s8960 2
s8960 19
s8960 60
s1243400 2
s1041289 54
s1789941 24
s1789941 52
s1789941 60
s314767 2
s595278 54
s595278 57
s1450483 2
s1341676 2
s993802 24
s993802 47
s748120 2
s748120 18
s748120 28
s748120 58
s1788080 54
s1788080 59
s1573469 24
s1573469 29
s660169 54
s607450 2
s607450 70
s802463 54
s723266 2
s723266 9
s723266 49
s1951761 2
s1951761 33
s1951761 73
s1990324 2
s353958 24
s814786 24
s852141 2
s852141 34
s852141 60
s852141 65
s1644592 24
s1644592 27
s967135 2
s967135 12
s740538 2
s740538 43
s740538 59
s1120103 2
s992614 54
s409585 24
s615991 54
s1719948 2
s1719948 32
s824491 54
s1023748 24
s1023748 63
s1992015 2
s1992015 24
s1818370 54
s1574382 24
s1574382 25
s1574382 66
s259156 2
s259156 15
s259156 37
s259156 53
s1335265 24
s934536 2
s934536 9
s934536 10
s934536 19
s934536 49
s952143 2
s18178 24
s387308 2
s387308 42
s618620 2
s618620 26
s618620 32
s311867 2
s311867 16
s1623278 24
s1623278 44
s324959 24
s324959 56
s324959 58
s584487 2
s1576777 54
s1576777 60
s1192120 24
s1192120 25
s1785288 2
s1785288 11
s813578 2
s813578 9
s813578 25
s813578 46
s1959886 24
s1959886 60
s234216 54
s495673 2
s495673 49
s1589760 2
s1589760 57
s1899412 2
s673210 54
s673210 61
s673210 70
s314976 54
s1768768 2
s1768768 23
s1002519 2
s1002519 70
s1930834 54
s1930834 71
s168353 24
s1676626 2
s1676626 37
s1281166 54
s1281166 66
s907264 54
s1030025 54
s1369696 54
s825562 54
s825562 71
s1089980 54
s1581584 54
s849682 54
s849682 58
s1142682 54
s1142682 64
s24136 54
s783147 54
s1123523 54
s633100 54
s465383 54
s1144277 54
s1144277 74
s1735001 54
s81197 54
s1274093 54
s1522303 19
s1522303 33
s1522303 66
s35072 19
s35072 37
s1251856 19
s1251856 20
s1251856 25
s1382090 19
s1939354 19
s362314 19
s362314 27
s362314 34
s362314 41
s362314 56
s362314 64
s1065729 19
s1065729 33
s1065729 68
s1037390 19
s1037390 44
s1037390 73
s1444923 19
s1444923 40
s1749593 19
s1749593 46
s1749593 65
s761064 19
s761064 68
s1827139 19
s1827139 27
s1854381 19
s1854381 32
s225951 19
s225951 72
s50651 19
s50651 33
s50651 46
s1475322 19
s1475322 72
s1678039 19
s1595479 19
s1595479 31
s1595479 53
s1595479 63
s85100 19
s85100 38
s938966 19
s938966 55
s232310 19
s881412 19
s169054 19
s169054 50
s475060 19
s475060 68
s1981868 19
s1981868 22
s1981868 29
s1981868 58
s343632 19
s1735081 19
s1517761 19
s1214348 19
s1214348 20
s1350712 19
s757727 19
s757727 23
s757727 27
s633893 19
s633893 30
s1038481 19
s1038481 65
s74951 19
s921485 19
s921485 72
s1154466 19
s1154466 31
s1154466 34
s1875728 19
s252102 19
s100988 19
s100988 60
s1418791 19
s1418791 52
s1322041 19
s1322041 61
s1388629 19
s1388629 29
s768969 19
s1018224 19
s1667768 19
s1667768 27
s1667768 68
s912866 19
s912866 21
s912866 34
s753380 19
s753380 24
s986135 19
s1129020 19
s1129020 30
s1129020 39
s1129020 49
s33389 19
s33389 24
s1524847 19
s1921302 19
s1543783 19
s515975 19
s515975 20
s515975 50
s1759461 19
s1759461 28
s1759461 43
s142915 19
s1866344 19
s1866344 50
s1866344 56
s769164 19
s769164 51
s1402807 19
s1402807 28
s218673 19
s447283 19
s447283 23
s447283 67
s108846 19
s108846 73
s717830 19
s743820 19
s743820 30
s1734274 19
s1734274 47
s1734274 69
s1574227 60
s1574227 63
s1951239 19
s1951239 67
s1418545 19
s1418545 33
s1418545 67
s1223872 19
s1223872 25
s1223872 32
s1508172 60
s497423 19
s497423 65
s1766707 19
s1766707 31
s1246368 19
s1732172 60
s1061413 60
s1942493 60
s491844 60
s285657 60
s460146 60
s1018535 60
s1128366 60
s1462511 60
s270166 60
s270166 62
s207103 60
s1350603 60
s956526 60
s900038 60
s92245 60
s1402901 60
s157000 60
s1864336 60
s690168 60
s274592 60
s1163579 60
s1163579 67
s545879 60
s545879 68
s1509750 60
s1509750 67
s1509750 70
s319545 60
s978419 31
s1002921 31
s527660 31
s1591897 31
s319562 31
s319562 33
s319562 44
s1649124 31
s1649124 66
s1142199 31
s1142199 37
s1142199 40
s1142199 59
s226423 31
s226423 34
s226423 56
s729401 31
s729401 41
s729401 48
s1677421 31
s1221410 31
s1221410 73
s1221410 74
s1987883 31
s1987883 39
s575706 31
s1989201 30
s1989201 35
s1989201 65
s926738 31
s863814 31
s863814 41
s648074 30
s648074 35
s806981 31
s806981 50
s806981 52
s806981 65
s186296 31
s450746 31
s1198382 30
s1198382 37
s1198382 50
s1498279 30
s386688 31
s386688 32
s386688 73
s1029726 30
s1029726 52
s776481 30
s1858696 31
s1858696 41
s53737 31
s1517860 30
s292004 30
s292004 48
s1422194 31
s1591761 30
s741379 31
s837787 31
s628061 31
s1688139 30
s1623138 31
s1890435 31
s1890435 37
s1890435 50
s1890435 58
s756723 30
s1466631 31
s1287032 31
s1540352 31
s1283341 30
s1283341 65
s701511 31
s1802310 30
s1802310 56
s1802310 61
s1455265 30
s1455265 48
s1455265 70
s1387597 31
s1152203 31
s1152203 54
s1152203 56
s1158984 31
s1574666 30
s1574666 47
s1209474 31
s1209474 33
s1799610 30
s1005825 31
s1005825 62
s63146 31
s40743 31
s40743 61
s448963 31
s448963 59
s1136301 30
s1136301 41
s1136301 65
s1382364 31
s1256177 30
s1256177 55
s114053 30
s814097 30
s814097 55
s1423062 30
s221253 31
s221253 33
s1834355 31
s580641 31
s580641 40
s1882728 30
s1882728 67
s268756 31
s268756 49
s268756 57
s1738066 31
s668610 30
s668610 42
s668610 53
s64356 30
s1928456 31
s1928456 52
s618258 31
s930769 30
s930769 61
s930769 63
s119633 31
s119633 45
s598326 30
s1152196 30
s1368965 30
s1368965 50
s1625658 31
s1625658 38
s1625658 39
s1625658 42
s1625658 46
s1360423 31
s1521690 30
s1521690 55
s1782601 31
s1782601 33
s1782601 40
s43226 30
s1862104 31
s1862104 73
s843632 31
s1648352 30
s1648352 69
s1293355 30
s1293355 41
s1293355 47
s1293355 57
s1108232 30
s1108232 56
s49752 30
s49752 43
s49752 52
s1126252 30
s1159113 30
s1159113 31
s1159113 60
s1159113 69
s1378965 30
s1378965 31
s1378965 44
s1351936 30
s953448 30
s1839809 62
s1477595 30
s1477595 62
s1204565 30
s1204565 35
s1204565 53
s1551589 30
s1551589 67
s711558 30
s711558 63
s27569 62
s1264191 62
s1445339 62
s632111 62
s632111 73
s435773 62
s252706 62
s307978 62
s1364710 62
s480488 62
s1648238 62
s1689840 62
s1689840 63
s1230471 62
s45844 62
s1773091 62
s470812 62
s1830130 62
s1830130 66
s548421 62
s1637001 62
s71448 62
s1648600 62
s362437 62
s362437 66
s1465609 62
s3740 62
s1923157 28
s567294 28
s567294 52
s1146296 28
s1146296 30
s1146296 41
s1934386 28
s1934386 30
s1934386 73
s1415724 28
s1732 28
s1732 40
s736995 28
s736995 46
s736995 68
s473536 28
s1614177 28
s1614177 40
s1878302 28
s1878302 70
s998463 28
s998463 31
s669269 28
s1257787 28
s1257787 74
s249366 28
s249366 37
s142199 28
s142199 52
s1061776 28
s1061776 50
s1061776 66
s330182 28
s330182 56
s1470081 28
s1470081 55
s1710484 28
s1689610 28
s480809 28
s480809 53
s480809 54
s480809 56
s1862593 28
s947323 28
s947323 37
s947323 64
s1842112 52
s192326 28
s1314836 52
s1314836 70
s1946589 28
s1946589 68
s1112492 52
s1576821 28
s1576821 37
s1723222 28
s1723222 47
s1530882 28
s532601 28
s532601 71
s120776 28
s1569708 28
s1569708 33
s433210 28
s480523 52
s1124166 28
s1124166 52
s55999 52
s1255399 28
s1255399 32
s1255399 37
s1654128 28
s805335 52
s805335 53
s812780 28
s1707545 52
s1707545 70
s1707545 72
s433503 28
s433503 66
s1149550 52
s1149550 60
s714733 28
s714733 29
s714733 31
s714733 56
s782263 28
s648968 52
s211693 28
s211693 57
s211693 73
s252865 28
s723849 52
s723849 56
s1225962 28
s1225962 39
s1225962 47
s1673798 28
s1673798 54
s1673798 55
s1673798 59
s1735583 52
s900782 28
s900782 57
s397249 28
s397249 63
s1600672 28
s370952 52
s1614104 28
s1571029 52
s437311 28
s1178756 28
s1178756 68
s288848 52
s288848 69
s312659 52
s312659 61
s1534895 52
s1534895 70
s1573751 28
s1573751 38
s1918075 28
s1918075 59
s900923 52
s900923 74
s1342684 28
s110144 28
s110144 59
s781936 52
s103526 28
s2528 52
s2528 71
s950594 42
s670706 28
s670706 72
s1207503 42
s1207503 48
s1723224 52
s1440120 42
s1771073 42
s1771073 59
s1771073 62
s1873537 52
s865354 42
s1024778 52
s1779900 42
s1779900 63
s473502 52
s1636332 42
s1549412 52
s236611 52
s236611 54
s236611 65
s1914181 42
s1914181 56
s1914181 68
s88786 42
s88786 52
s88786 59
s1645080 52
s1645080 61
s1601045 52
s1445840 42
s1445840 70
s833248 42
s833248 43
s833248 50
s833248 52
s1137393 42
s1409907 42
s864485 52
s1848216 42
s1848216 43
s1848216 73
s535751 42
s286612 52
s286612 74
s1244214 52
s1244214 59
s1664456 42
s1664456 59
s347924 52
s347924 59
s347924 74
s776478 42
s491272 52
s544231 42
s544231 51
s931112 42
s931112 65
s1645264 42
s1621336 42
s103070 42
s992303 42
s992303 72
s176963 42
s1804682 42
s1804682 73
s1138687 42
s257023 42
s257023 58
s1925505 42
s1928809 42
s939513 42
s605633 42
s527053 42
s527053 48
s354831 42
s996257 42
s996257 45
s92368 42
s198915 42
s198915 65
s1417240 42
s1637947 42
s754554 42
s1582355 42
s382023 42
s382023 46
s382023 68
s1821940 42
s499264 42
s1754978 42
s459420 42
s459420 52
s459420 67
s509666 42
s949428 72
s1207650 72
s1130289 72
s832699 72
s247855 72
s1516912 72
s374666 72
s1768612 72
s538321 72
s1678111 72
s107635 72
s206345 72
s206345 74
s1367395 72
s1568378 72
s718879 72
s1011262 72
s1161627 72
s1388906 72
s209395 72
s508021 72
s1655979 72
s1844949 72
s464527 72
s1957438 45
s1957438 63
s1467954 45
s1930008 45
s1038515 45
s948447 45
s763227 45
s763227 69
s1758418 45
s1454299 45
s1454299 63
s1382900 45
s1391337 45
s986157 45
s986157 74
s77783 45
s1643635 45
s983798 45
s1469876 45
s1469876 50
s1469876 73
s72089 45
s72089 51
s1451984 45
s367875 45
s367875 69
s671970 45
s149204 45
s863288 45
s1840575 45
s486012 45
s486012 65
s680759 45
s680759 48
s1501411 45
s1501411 57
s528022 45
s528022 51
s528022 73
s134774 45
s130646 45
s130646 52
s1204716 45
s1204716 68
s1977082 45
s1977082 56
s1175777 45
s1969291 45
s1969291 48
s908214 45
s1874450 45
s1874450 64
s1592950 45
s1491903 45
s1491903 72
s1539028 45
s1539028 47
s1539028 71
s723003 45
s723003 56
s723003 59
s1435808 45
s738465 45
s1877109 45
s1877109 72
s508500 45
s508500 57
s285729 45
s453081 45
s409365 45
s666975 45
s666975 55
s768483 45
s768483 55
s895414 45
s895414 55
s895414 59
s895414 66
s1836353 45
s63786 27
s859662 27
s859662 43
s14943 27
s995711 27
s995711 29
s995711 34
s995711 43
s995711 51
s995711 74
s620710 27
s620710 33
s620710 58
s620710 59
s620710 61
s620710 62
s684380 27
s326936 27
s326936 62
s326936 68
s1327825 27
s1292221 27
s1150670 27
s1150670 56
s1150670 63
s1984995 27
s1984995 45
s1984995 48
s159461 27
s159461 73
s1255702 27
s1255702 40
s342318 27
s1174460 27
s1225892 27
s1009071 27
s1009071 59
s1238582 27
s1238582 63
s697186 27
s697186 53
s1012148 27
s836868 27
s836868 42
s836868 55
s479542 27
s1397412 27
s1009787 27
s1009787 50
s1009787 60
s859042 27
s859042 70
s1914953 27
s1279749 27
s645415 27
s645415 44
s1939510 27
s1939510 32
s1939510 43
s1465246 27
s1465246 54
s1465246 68
s1465246 69
s1878654 27
s1199211 27
s1358011 27
s1358011 45
s84451 27
s84451 33
s437603 27
s437603 30
s583035 27
s861138 27
s861138 35
s876160 27
s876160 34
s876160 35
s876160 37
s876160 68
s634217 27
s634217 40
s634217 44
s634217 47
s734802 27
s1169450 27
s1169450 38
s1266601 27
s1266601 73
s1142264 27
s1142264 37
s1142264 56
s1142264 64
s427441 27
s427441 62
s427441 66
s871472 27
s871472 32
s871472 33
s871472 42
s681992 27
s1278334 27
s1873024 27
s1873024 34
s402274 27
s402274 33
s402274 38
s402274 71
s1654108 27
s1654108 64
s798116 27
s798116 51
s416320 27
s416320 43
s72654 27
s1499059 27
s1499059 40
s889229 27
s889229 62
s698942 27
s759153 27
s759153 35
s759153 73
s1932455 27
s595123 35
s595123 42
s210729 35
s1112996 35
s1112996 56
s1968504 35
s1968504 49
s1968504 62
s1721542 35
s1721542 73
s1746665 35
s911726 35
s291118 35
s291118 67
s291118 71
s1129454 35
s159619 35
s159619 41
s572515 35
s473044 35
s985106 26
s985106 55
s985106 66
s1131343 26
s1131343 47
s932619 35
s932619 70
s149259 26
s149259 35
s585332 35
s585332 73
s1237454 26
s1237454 31
s1237454 35
s46504 26
s942091 35
s509726 26
s169423 35
s393597 26
s393597 43
s1148069 26
s148890 35
s1710640 35
s370736 26
s370736 34
s370736 71
s900037 35
s1290155 26
s1290155 31
s1290155 38
s274876 35
s1592445 26
s1592445 52
s997132 35
s997132 48
s997132 63
s746196 35
s746196 38
s746196 44
s164515 26
s358252 26
s358252 50
s1790955 26
s1368583 35
s169743 35
s169743 43
s169743 44
s169743 45
s1049474 35
s1049474 41
s1049474 52
s1299633 35
s84862 26
s644966 35
s95424 26
s1257048 35
s1257048 56
s1257048 70
s1370687 35
s1370687 59
s904062 26
s842203 35
s842203 52
s76222 26
s76222 46
s1652199 35
s1652199 63
s550222 35
s550222 37
s550222 50
s1822712 26
s1822712 67
s1483102 26
s1483102 29
s1483102 54
s388402 26
s388402 39
s1508586 26
s164236 35
s164236 44
s164236 71
s1574418 26
s1574418 60
s1574418 67
s1098904 35
s1098904 49
s1234405 26
s1234405 38
s1234405 52
s1082846 26
s1082846 62
s1082846 72
s210942 26
s1013952 35
s1013952 39
s1690425 26
s1690425 55
s1908465 26
s1908465 68
s898110 26
s898110 35
s898110 40
s1406506 35
s1406506 58
s1406506 59
s1406506 61
s1666810 35
s1666810 42
s1666810 53
s1302056 26
s1302056 32
s1966223 35
s10981 26
s10981 31
s1927400 26
s1751901 26
s1751901 35
s1649897 35
s1649897 65
s372152 26
s1412172 26
s1412172 41
s826108 35
s1921823 26
s1921823 30
s1921823 68
s180102 26
s180102 73
s1120994 26
s1431975 26
s471041 35
s283917 35
s283917 62
s283917 71
s1831437 26
s1831437 28
s1831437 29
s1831437 42
s1831437 67
s1831437 73
s51268 26
s1955024 26
s1955024 56
s1092278 26
s1092278 48
s1092278 62
s1128150 26
s1128150 32
s1128150 48
s809926 26
s1227981 26
s1227981 29
s1227981 57
s194724 26
s773560 26
s773560 51
s1773487 26
s1773487 65
s997704 26
s997704 46
s1520634 26
s806506 5
s806506 58
s611211 5
s611211 21
s611211 41
s386292 26
s386292 43
s386292 64
s1058958 5
s1058958 7
s1058958 15
s1058958 69
s1058958 70
s1857850 26
s1857850 46
s723147 5
s723147 8
s723147 65
s723147 68
s723147 70
s1234465 5
s1234465 69
s860941 5
s860941 11
s860941 30
s284217 5
s1496358 5
s1496358 9
s1460763 5
s1585299 5
s1632369 5
s1177035 5
s1177035 42
s1886920 5
s1886920 57
s252945 5
s252945 11
s1988049 5
s1988049 52
s1266356 5
s1266356 56
s753502 5
s753502 51
s119847 5
s119847 13
s119847 19
s750326 5
s910396 5
s910396 33
s1217368 5
s1217368 52
s793382 5
s793382 8
s793382 35
s703052 5
s703052 18
s703052 31
s1786915 5
s1786915 38
s1786915 57
s439212 5
s439212 39
s193429 5
s193429 53
s193429 73
s146274 5
s256871 5
s256871 9
s256871 24
s1057062 5
s1057062 56
s147139 5
s147139 31
s905017 5
s996114 5
s996114 11
s996114 70
s1652568 5
s1652568 26
s1652568 31
s1652568 57
s541760 5
s541760 15
s541760 21
s513614 5
s513614 72
s1834797 5
s1602260 5
s1602260 31
s1602260 38
s1602260 49
s777156 5
s777156 21
s1494331 5
s1494331 35
s962112 5
s962112 7
s164375 5
s793195 5
s793195 27
s1127074 5
s1127074 22
s1127074 47
s1419637 5
s1419637 36
s1419637 71
s1718325 5
s1718325 32
s1250530 5
s1612967 5
s1612967 9
s1612967 53
s1370075 5
s1370075 19
s1792004 5
s619354 5
s619354 48
s1148882 5
s1148882 36
s182569 5
s182569 14
s182569 26
s182569 60
s1840765 5
s1840765 22
s1840765 67
s739005 5
s646281 5
s646281 6
s646281 13
s646281 60
s327402 5
s327402 29
s327402 40
s781323 5
s781323 72
s894966 5
s156643 5
s688896 5
s688896 28
s688896 56
s1768503 5
s1768503 22
s1198307 5
s831259 5
s831259 36
s831259 44
s1420236 5
s1420236 24
s782248 5
s782248 18
s116572 5
s116572 8
s116572 24
s1928404 5
s1928404 7
s1928404 13
s1928404 24
s1928404 61
s603837 5
s148815 5
s148815 29
s29686 5
s29686 68
s653077 5
s653077 26
s653077 34
s1911421 5
s1349929 5
s1809783 5
s1809783 33
s1968521 5
s1502092 5
s1502092 7
s1502092 22
s1502092 53
s1970137 5
s1970137 19
s1970137 38
s36046 5
s36046 69
s418588 5
s418588 15
s1367700 5
s1367700 62
s1367700 63
s1216153 5
s1216153 16
s1216153 52
s1216153 61
s1479264 5
s1479264 52
s1117837 5
s1117837 44
s16421 5
s16421 15
s73529 5
s73529 63
s1967169 5
s1967169 69
s14429 5
s14429 56
s14429 59
s14429 70
s14429 72
s45793 5
s1093012 5
s1093012 46
s1093012 62
s147765 5
s1061275 5
s1061275 64
s1072275 5
s1072275 34
s719519 5
s719519 9
s719519 27
s719519 47
s1302684 5
s1302684 20
s1448849 14
s1448849 38
s1460804 14
s1190569 14
s1190569 61
s450966 14
s450966 24
s194320 14
s1758665 14
s1758665 49
s938676 14
s938676 45
s730503 14
s730503 26
s450103 14
s450103 25
s368582 14
s1756336 14
s1756336 28
s1838665 14
s1838665 47
s1571939 14
s1213342 14
s1213342 32
s1213342 42
s1213342 45
s1213342 56
s1244120 14
s1366588 14
s1366588 55
s1366588 60
s1142733 14
s1142733 41
s1112441 14
s1112441 31
s1112441 33
s1112441 70
s374212 14
s381613 14
s785154 14
s785154 37
s785154 46
s785154 67
s1909008 14
s251585 14
s251585 36
s251585 40
s996529 14
s996529 58
s1934334 14
s1934334 46
s1934334 67
s1934334 68
s680262 14
s680262 22
s680262 33
s680262 68
s18889 14
s18889 63
s510010 14
s510010 20
s510010 48
s585021 14
s585021 49
s585021 50
s300608 14
s300608 38
s300608 40
s753241 14
s753241 15
s624473 14
s624473 34
s624473 40
s55011 14
s55011 51
s55011 52
s664633 14
s664633 61
s183981 14
s183981 33
s183981 55
s318930 14
s318930 40
s318930 43
s322253 14
s322253 43
s1689442 14
s987532 14
s987532 39
s987532 51
s987532 56
s1191734 14
s1191734 61
s1191734 69
s555881 14
s555881 38
s115151 14
s1072515 14
s1072515 43
s1283229 14
s1283229 44
s1283229 53
s1283229 67
s1166468 14
s1516294 14
s1516294 55
s279031 14
s279031 31
s474475 14
s474475 26
s474475 32
s474475 38
s474475 59
s1963808 14
s1963808 35
s471783 14
s471783 46
s485384 14
s485384 58
s1786439 14
s592276 14
s592276 34
s160570 14
s160570 39
s1621246 14
s888164 14
s1735673 14
s1618430 14
s1618430 30
s913791 14
s1337793 14
s1337793 15
s1337793 39
s1337793 71
s726535 14
s726535 41
s726535 57
s726535 72
s1485531 14
s807632 14
s807632 36
s807632 48
s706213 14
s1401844 14
s1401844 68
s1376238 14
s208776 14
s208776 22
s208776 45
s1035822 14
s1035822 15
s1035822 19
s1035822 38
s1035822 41
s1881738 14
s198215 14
s198215 19
s398590 14
s698721 14
s698721 57
s698721 74
s1103889 14
s1103889 55
s1103889 61
s1111643 14
s1111643 24
s1111643 30
s1111643 32
s1956111 69
s1771219 69
s154208 69
s1092168 69
s1092168 70
s530407 69
s530407 71
s1000711 69
s1646402 69
s1646402 70
s981647 69
s975931 69
s1372934 69
s1372934 70
s1669657 69
s867608 69
s464046 69
s852142 69
s785834 69
s785834 71
s1022807 69
s1022807 70
s323742 69
s323742 70
s168168 69
s851449 69
s612205 69
s1707899 69
s121184 69
s1578402 69
s1137638 69
s141066 69
s536168 69
s126470 69
s1699527 69
s1947647 69
s1914258 69
s215777 69
s1921146 58
s375934 58
s627265 58
s724853 58
s1641793 58
s1778611 58
s1778611 62
s1778611 66
s1924694 58
s955731 58
s955731 64
s955731 66
s944931 58
s1005337 58
s1005337 66
s625307 58
s1114309 58
s1114309 62
s615568 58
s1126996 58
s1699378 58
s141660 58
s871268 58
s702320 58
s1184239 58
s1416418 37
s407637 37
s1350786 37
s328601 37
s1455023 37
s1172360 58
s1467356 37
s838836 58
s1101198 37
s1031857 58
s1031857 61
s62323 37
s62323 55
s555784 58
s1686682 58
s38102 37
s38102 52
s1363486 37
s1363486 59
s1214880 37
s1753485 37
s1753485 38
s1753485 71
s1045708 37
s569302 37
s569302 50
s734435 37
s734435 51
s120717 37
s120717 47
s1211086 37
s1211086 67
s1522192 37
s1522192 48
s463344 37
s463344 64
s463344 65
s201142 37
s201142 50
s593862 37
s1874895 37
s1874895 44
s1795299 37
s1795299 62
s1219682 37
s1219682 52
s710192 37
s710192 66
s1778948 37
s1778948 52
s142419 37
s1118216 37
s1424836 37
s1424836 46
s92576 37
s1755262 37
s1078598 37
s1078598 42
s636458 37
s1157255 37
s1157255 49
s1157255 70
s1366849 37
s1062075 37
s1062075 45
s1062075 50
s1163984 37
s1163984 71
s1163163 37
s134814 37
s134814 45
s134814 65
s134814 71
s1383091 37
s1930202 37
s735966 37
s735966 66
s735966 74
s1803153 37
s1803153 41
s1149653 37
s1149653 48
s1149653 57
s129255 37
s129255 48
s129255 64
s1923190 37
s1923190 43
s1923190 47
s1923190 54
s341133 37
s1943044 37
s1943044 44
s1629592 37
s941215 20
s941215 31
s678150 20
s5598 20
s5598 34
s1566238 20
s1566238 27
s1566238 43
s1566238 62
s443208 20
s443208 46
s465674 20
s465674 32
s93726 20
s93726 72
s752350 20
s752350 59
s274441 20
s1356005 20
s1356005 68
s1136800 20
s1598463 20
s1598463 61
s1598463 69
s1645913 20
s1645913 37
s1645913 64
s531570 20
s531570 34
s531570 60
s531570 70
s182433 20
s1331542 20
s1237170 20
s1237170 36
s1237170 47
s687618 20
s687618 43
s307342 20
s174276 20
s174276 47
s174276 51
s1318190 20
s1318190 66
s1403443 20
s1403443 31
s1855287 20
s1855287 44
s992305 20
s992305 28
s992305 30
s497181 20
s380915 20
s380915 27
s65766 20
s65766 24
s1943155 20
s1273696 20
s1273696 48
s1417468 20
s1417468 31
s1417468 39
s1766251 20
s269204 20
s269204 53
s269204 59
s269204 61
s692120 20
s1354535 20
s693950 20
s1965012 20
s1965012 44
s1407627 20
s1407627 49
s932428 20
s932428 26
s932428 28
s932428 31
s932428 41
s1484626 20
s933237 20
s933237 57
s1690554 20
s1690554 28
s1690554 42
s1690554 50
s1690554 70
s1939167 20
s1939167 47
s1939167 58
s834266 20
s834266 60
s1335283 20
s1335283 41
s1335283 64
s291522 20
s1907990 20
s1907990 34
s1907990 58
s1907990 59
s644692 20
s644692 39
s644692 70
s644692 71
s1473317 20
s1485217 20
s1485217 37
s1485217 44
s1545739 20
s1656853 20
s1461980 20
s1461980 48
s1461980 65
s1210717 20
s1210717 73
s1332199 20
s1262615 20
s1262615 53
s648611 20
s648611 66
s1353073 20
s1353073 71
s900901 20
s723931 20
s723931 45
s1388119 20
s1388119 68
s1009163 20
s528755 20
s528755 36
s1848957 20
s1318791 20
s1318791 33
s1853044 20
s1853044 64
s1067159 20
s1067159 37
s1653891 20
s1653891 23
s96866 20
s334846 20
s334846 57
s334846 67
s334846 71
s473932 20
s473932 53
s473932 74
s1769149 20
s1769149 52
s1769149 54
s1769149 63
s1191518 20
s1445674 20
s1445674 26
s369329 50
s845661 50
s845661 69
s1031218 50
s1414324 50
s125756 50
s449018 50
s1304092 50
s590890 50
s590890 62
s1906389 50
s181797 50
s181797 59
s181797 65
s417783 50
s417783 55
s417783 62
s417783 66
s1320537 50
s914977 50
s914977 61
s58905 50
s1392340 50
s1666083 50
s1666083 73
s259814 50
s259814 55
s1306777 50
s176529 50
s663336 50
s669470 50
s1526948 50
s1812404 50
s897881 39
s897881 42
s897881 63
s897881 73
s1485429 39
s1953420 39
s1757807 50
s1757807 62
s921039 50
s921039 56
s1296595 50
s1296595 67
s512242 39
s512242 48
s568090 50
s1752757 39
s222446 50
s222446 74
s1929761 39
s1527666 50
s1527666 54
s1343624 50
s1343624 51
s1047353 39
s374882 50
s77119 50
s1706949 39
s1559942 50
s968946 39
s230052 39
s230052 72
s308664 39
s940189 39
s59103 39
s422993 39
s698682 39
s698682 67
s788079 39
s788079 41
s788079 65
s788079 71
s1491478 39
s1491478 43
s1491478 53
s1665209 39
s1665209 68
s573622 39
s1028401 39
s964121 39
s964121 58
s336517 39
s336517 63
s1153581 39
s1153581 68
s1493256 39
s1493256 45
s1493256 61
s1493256 71
s1533061 39
s164538 39
s1385458 39
s1657830 39
s1657830 66
s1612739 39
s1612739 40
s1612739 71
s828081 39
s297021 39
s1434405 39
s1434405 46
s1434405 49
s721025 39
s721025 40
s721025 66
s872896 39
s867139 39
s578311 39
s578311 57
s519969 39
s519969 44
s1322254 39
s1322254 73
s1311432 39
s1169156 39
s1169156 68
s1078249 39
s1078249 56
s1078249 58
s1430825 39
s1597563 39
s1597563 51
s234393 39
s234393 60
s1365441 39
s1365441 41
s1365441 68
s359386 39
s1188758 39
s1188758 60
s523682 49
s523682 70
s544374 49
s544374 50
s544374 63
s15719 49
s15719 59
s15719 69
s558058 49
s1133763 49
s1133763 61
s1435987 49
s854281 49
s1514025 49
s1514025 50
s1514025 70
s601005 49
s1140046 49
s385772 49
s385772 72
s385772 74
s765770 49
s731308 49
s332775 49
s901769 49
s1540433 49
s1540433 64
s642149 49
s642149 69
s1134229 49
s1134229 57
s1807925 49
s387331 49
s1330631 49
s1330631 63
s627476 49
s627476 58
s490033 49
s657992 49
s657992 69
s1631764 49
s932555 49
s848912 49
s848912 66
s948590 49
s712325 49
s712325 63
s712325 64
s1355636 49
s1161145 49
s1161145 62
s1729542 49
s1729542 62
s1166296 49
s1009656 49
s780135 49
s1747317 49
s1747317 50
s1747317 64
s1944777 49
s1670424 49
s1852474 49
s1852474 61
s256955 49
s1917728 49
s1663474 49
s923013 49
s467404 49
s99492 49
s1118487 49
s1118487 70
s493028 49
s1926118 49
s1262939 3
s1262939 68
s493872 3
s493872 62
s1069696 3
s1069696 53
s818303 3
s1365799 3
s1365799 73
s104370 3
s104370 44
s104370 68
s776235 3
s1469273 3
s1469273 20
s1464655 3
s1464655 15
s1464655 18
s602431 3
s1801946 3
s1801946 7
s1801946 13
s1322004 3
s1322004 64
s1322004 71
s1538715 3
s1538715 39
s1538715 74
s798526 3
s798526 67
s339735 3
s339735 41
s1722113 3
s1722113 15
s1722113 42
s1722113 51
s1722113 55
s1722113 73
s1823228 3
s7705 3
s7705 60
s1592737 3
s1592737 38
s1631934 3
s1733998 3
s124438 3
s124438 18
s124438 29
s124438 48
s1649320 3
s1649320 4
s1649320 24
s1658945 3
s1658945 32
s1658945 58
s1747554 3
s1747554 68
s1292509 3
s1292509 39
s1292509 42
s1292509 48
s1292509 58
s17701 3
s17701 22
s17701 55
s929231 3
s929231 21
s929231 26
s929231 38
s703246 3
s703246 49
s1646614 3
s1646614 4
s1646614 21
s1646614 39
s1646614 42
s1646614 72
s1751740 3
s1751740 54
s1751740 56
s1751740 61
s943097 3
s943097 17
s943097 57
s1675512 3
s1675512 73
s1606723 3
s1606723 36
s1606723 74
s252889 3
s252889 7
s252889 39
s252889 62
s665658 3
s665658 46
s220958 3
s1504508 3
s1504508 59
s1000225 3
s1000225 49
s1000225 51
s339238 3
s138121 3
s138121 70
s1092165 3
s1092165 6
s1905268 3
s1939045 3
s1939045 54
s1939045 55
s602287 3
s602287 6
s602287 16
s602287 43
s755334 3
s755334 33
s589590 3
s1364373 3
s1364373 26
s1364373 29
s1364373 67
s1024256 3
s1024256 7
s1024256 39
s432095 3
s432095 47
s8510 3
s798568 3
s798568 34
s257732 3
s257732 4
s257732 71
s737983 3
s737983 40
s890158 3
s851135 3
s851135 29
s851135 67
s171863 3
s171863 12
s171863 61
s436143 3
s436143 42
s289655 3
s289655 16
s289655 42
s289655 45
s289655 65
s1556022 3
s1556022 39
s7688 3
s1658713 3
s1658713 36
s1658713 37
s455212 3
s658559 3
s658559 19
s658559 70
s1703373 3
s1551264 3
s1551264 66
s1522875 3
s1522875 42
s1522875 55
s1522875 58
s940807 3
s940807 33
s940807 43
s940807 74
s285382 3
s285382 7
s285382 43
s285382 69
s817206 3
s817206 17
s301528 3
s301528 23
s1402378 3
s1402378 19
s1402378 54
s1402378 61
s266987 3
s266987 9
s266987 33
s1113022 3
s1113022 22
s1113022 52
s100018 3
s100018 4
s100018 50
s100018 57
s100018 58
s175495 3
s1064969 3
s1064969 21
s899089 3
s287727 3
s287727 58
s287727 72
s1149109 3
s1149109 40
s814053 3
s814053 13
s814053 30
s1282727 3
s1282727 31
s1130330 3
s1130330 57
s1203742 3
s1203742 47
s1203742 52
s1977930 3
s1977930 7
s688937 3
s688937 22
s220187 3
s231771 3
s231771 7
s405476 3
s405476 42
s405476 67
s746663 3
s610564 3
s610564 8
s610564 43
s610564 58
s147710 3
s147710 39
s117504 3
s117504 58
s324945 3
s324945 27
s324945 47
s504782 53
s1586075 53
s1586075 74
s1110138 53
s1975764 53
s1975764 63
s1975764 71
s696068 53
s1379830 53
s1341848 53
s1341848 54
s1341848 64
s209845 53
s209845 56
s406500 53
s1936470 53
s1936470 56
s99573 53
s739570 53
s886044 53
s1304028 53
s537896 53
s537896 73
s1015769 53
s1284837 53
s1284837 74
s1780789 53
s1905853 53
s40078 53
s1145860 53
s1497131 53
s1693461 53
s1693461 55
s588214 53
s588214 63
s1934463 53
s1942262 53
s1942262 70
s887128 53
s1706961 53
s540001 53
s333712 53
s455838 53
s572113 23
s572113 64
s978473 23
s978473 41
s1807031 23
s1807031 51
s258260 23
s258260 53
s258260 68
s1901826 23
s1901826 45
s274234 23
s274234 60
s1181282 23
s1681559 23
s1171632 23
s1603265 23
s1603265 47
s1945443 23
s459916 23
s459916 61
s1800969 23
s1738927 23
s736921 23
s736921 67
s1530601 23
s1530601 28
s1335767 23
s1335767 37
s1335767 69
s1671334 23
s1671334 33
s1628784 23
s297770 23
s297770 48
s934185 23
s934185 61
s245821 23
s1270259 23
s1270259 52
s1223160 23
s1223160 43
s1482224 23
s1482224 26
s1482224 41
s1482224 60
s1098360 23
s1098360 73
s500440 23
s1859212 23
s1859212 24
s51873 23
s494664 23
s353197 23
s1812461 23
s1290339 23
s1290339 27
s1290339 44
s1021574 23
s1172421 23
s1172421 66
s1172421 74
s1251428 23
s568298 23
s1368 23
s1368 33
s1368 35
s340698 23
s340698 55
s823842 23
s823842 53
s823842 58
s375777 23
s375777 42
s375777 74
s1026284 23
s1026284 30
s1026284 71
s1558111 23
s1558111 31
s1558111 39
s447763 23
s61855 23
s61855 30
s1058582 23
s1058582 34
s1164381 23
s749552 23
s749552 33
s749552 40
s598988 23
s598988 30
s1328918 23
s1160921 23
s1160921 74
s517423 23
s517423 37
s517423 44
s517423 74
s1540456 23
s1540456 29
s92740 23
s92740 41
s92740 46
s1043340 23
s1043340 60
s355066 23
s355066 32
s959718 23
s959718 27
s959718 32
s1533217 23
s1533217 39
s1521981 23
s1812682 23
s1289546 23
s1289546 58
s931763 23
s931763 35
s628130 23
s628130 70
s1601118 23
s1601118 71
s1187214 15
s1187214 31
s337187 46
s641204 15
s641204 43
s641204 65
s1903713 15
s1903713 26
s1903713 54
s446201 46
s389325 71
s1499146 15
s1499146 21
s1499146 28
s1499146 36
s999303 15
s999303 35
s1534388 15
s1534388 26
s1534388 49
s1327284 46
s1327284 67
s766448 46
s1364581 15
s1364581 16
s1284312 15
s1284312 61
s1038353 15
s1038353 21
s774629 15
s774629 45
s774629 67
s774629 71
s739063 46
s739063 52
s183717 46
s1854068 71
s760959 15
s760959 36
s760959 38
s760959 40
s1443402 46
s1418169 71
s842586 15
s842586 43
s826288 46
s1762157 71
s1145624 15
s1145624 34
s1145624 35
s1145624 64
s157222 15
s920147 46
s920147 53
s1290965 15
s1284801 15
s1284801 41
s238637 46
s238637 64
s1423547 15
s1423547 59
s1595348 15
s1595348 32
s1595348 46
s310161 15
s894153 46
s1947915 71
s1166148 15
s1166148 64
s1983978 15
s1983978 23
s1266886 15
s583186 46
s1515860 46
s511683 15
s34073 15
s87335 46
s1314855 15
s1314855 25
s1243445 15
s418005 15
s592769 71
s25521 46
s25521 66
s1658513 15
s1658513 53
s828094 15
s147317 46
s648382 15
s1275358 71
s178087 15
s178087 61
s1656674 46
s1656674 48
s1237605 46
s1404164 15
s1404164 65
s1814567 15
s1415363 46
s1415363 56
s1243342 71
s686413 15
s686413 17
s1287165 46
s452746 15
s452746 17
s1459492 71
s474517 71
s700323 46
s700323 61
s1456931 15
s1456931 53
s1456931 73
s108327 46
s1794474 71
s696458 15
s696458 44
s559222 46
s559222 64
s1209579 15
s1209579 41
s1209579 45
s1209579 72
s955281 15
s955281 47
s797910 46
s797910 68
s1606586 15
s125426 46
s940586 15
s940586 70
s1160895 71
s552874 15
s552874 40
s1703433 46
s1703433 48
s1679418 15
s1679418 53
s1679418 55
s1046219 71
s371851 15
s371851 46
s1269759 15
s1269759 16
s1269759 40
s1660260 15
s1246616 15
s1246616 43
s1246616 52
s1246616 57
s1246616 60
s138355 15
s138355 42
s1571806 46
s1342201 15
s1342201 54
s1258424 15
s1258424 17
s1265648 46
s1265648 59
s1607215 15
s1607215 29
s132317 46
s394390 15
s394390 29
s394390 44
s394390 51
s394390 71
s1816040 15
s1371516 46
s1371516 67
s584672 15
s584672 52
s1121374 15
s281901 15
s281901 27
s281901 54
s281901 55
s1842520 46
s1819437 15
s1819437 20
s1166034 15
s28391 46
s771176 15
s771176 33
s822003 46
s273625 46
s716246 71
s1340803 15
s1340803 27
s1340803 61
s1340803 73
s262650 46
s182382 71
s1364034 15
s1364034 69
s1038461 15
s1038461 30
s1667818 15
s1465467 71
s1551910 15
s1575671 15
s1618453 15
s770310 71
s801126 46
s139497 15
s139497 26
s1955382 46
s1061723 57
s1061723 60
s612345 57
s612345 73
s1620656 57
s361437 57
s1288081 57
s531161 57
s1682591 57
s1380538 57
s1380538 66
s1197364 57
s915528 57
s1548709 57
s41210 57
s1105977 57
s1491356 57
s502571 57
s337631 57
s337631 59
s1231501 57
s1231501 65
s1259972 57
s237207 57
s1287164 57
s1885249 57
s1239521 57
s1832063 57
s1399152 57
s1399152 63
s781745 57
s1204798 57
s600550 57
s806903 57
s216233 57
s1305882 57
s1736596 57
s1287964 57
s1525788 57
s1445272 57
s600961 57
s1853391 57
s1750984 57
s230484 57
s1803283 57
s1803283 67
s814776 57
s814776 69
s1202755 12
s1202755 30
s1949205 12
s1949205 48
s631198 12
s631198 66
s1616860 12
s1233796 12
s1233796 47
s1233796 56
s307391 12
s307391 42
s307391 57
s307391 74
s499044 12
s499044 56
s310301 12
s310301 26
s310301 53
s1216480 12
s1216480 36
s1236749 12
s1236749 63
s1449833 12
s1449833 28
s1449833 43
s1449833 52
s827894 12
s827894 28
s536100 12
s536100 22
s44121 12
s44121 32
s44121 44
s304942 12
s869045 12
s869045 17
s869045 30
s869045 32
s869045 44
s869045 45
s1612159 12
s1612159 24
s1612159 63
s915922 12
s1630063 12
s811246 12
s1943382 12
s1943382 46
s1194052 12
s1194052 40
s1194052 53
s1194052 64
s836063 12
s836063 39
s836063 64
s1415810 12
s912898 12
s912898 21
s1125749 12
s1125749 18
s1556552 12
s1556552 27
s1517562 12
s1517562 16
s1517562 22
s1517562 42
s1517562 64
s170581 12
s170581 40
s170581 56
s1612366 12
s869816 12
s869816 59
s342879 12
s342879 33
s342879 37
s342879 67
s1410962 12
s273508 12
s273508 18
s273508 52
s273508 66
s693362 12
s1963300 12
s1447194 12
s1447194 63
s1556212 12
s1556212 71
s1624141 12
s1624141 23
s1624141 66
s1980057 12
s1980057 41
s1060695 12
s1060695 31
s1422789 12
s1422789 14
s1422789 56
s1422789 66
s1422789 73
s1033746 12
s1033746 35
s149866 12
s149866 27
s404322 12
s404322 23
s968385 12
s968385 67
s1122958 12
s1278852 12
s1278852 25
s1278852 32
s798676 12
s798676 29
s1258163 12
s1911338 12
s1911338 46
s1911338 50
s1911338 57
s1180973 12
s1180973 41
s1180973 43
s1767406 12
s1767406 48
s733556 12
s733556 69
s733556 72
s108227 12
s1842299 12
s1842299 22
s1842299 34
s629636 12
s629636 57
s629636 62
s661426 12
s661426 14
s838359 12
s838359 15
s838359 22
s838359 73
s1599489 12
s1599489 60
s1439655 12
s156728 12
s156728 29
s1658809 12
s1658809 34
s855523 12
s855523 46
s1428292 12
s1428292 52
s130358 12
s130358 62
s130358 71
s1659021 12
s626695 12
s647453 12
s1011347 12
s1011347 27
s475770 12
s475770 19
s475770 26
s475770 35
s1286745 12
s1286745 17
s1453722 12
s1256873 12
s1256873 22
s1256873 24
s1256873 55
s1971502 12
s1971502 39
s413150 12
s1391916 12
s490666 12
s1534511 12
s1534511 28
s1534511 60
s1974477 12
s87325 12
s87325 51
s87325 55
s1844427 12
s1844427 13
s1844427 57
s854465 43
s50532 43
s50532 55
s99871 43
s1299208 43
s1299208 72
s1585870 43
s1585870 74
s403012 43
s403012 74
s1062868 43
s1062868 48
s1062868 49
s1062868 73
s1800393 43
s657110 43
s485252 43
s224986 43
s1861497 43
s1861497 47
s1861497 54
s240948 43
s1784209 43
s967533 43
s967533 50
s1963544 43
s306107 43
s306107 47
s306107 71
s1602534 43
s1602534 67
s1744867 43
s1744867 64
s1810988 43
s6144 43
s6144 70
s1400295 43
s205352 43
s205352 54
s515021 43
s1688269 43
s1688269 55
s1688269 65
s1400367 43
s1400367 57
s1989354 43
s1989354 48
s1989354 59
s1579001 43
s1579001 50
s1579001 72
s1387704 43
s281044 43
s281044 71
s1105290 43
s1105290 70
s1105290 71
s511343 43
s511343 50
s511343 54
s511343 55
s491926 43
s393296 43
s1492474 43
s697196 43
s1642794 43
s1642794 44
s1642794 66
s1635780 43
s1635780 54
s1635780 63
s1245913 43
s1031772 43
s988877 43
s53211 43
s53211 49
s788776 43
s1299109 43
s1170446 43
s1170446 64
s1660902 43
s1359427 43
s1637172 43
s474333 43
s474333 72
s1846419 43
s1846419 47
s79521 68
s255119 68
s531622 68
s36871 68
s331436 68
s1833567 68
s1614167 68
s290104 68
s44413 68
s923448 68
s688091 68
s1392731 68
s931964 68
s63385 68
s63385 70
s63385 71
s505569 68
s102355 68
s102355 70
s923136 74
s1936686 74
s810200 68
s1396850 74
s1199334 74
s1531852 68
s1714129 74
s1839409 68
s835636 74
s1999619 68
s1607663 74
s1078666 74
s1789599 74
s1784150 68
s14512 74
s244964 74
s953950 74
s1427705 74
s886025 74
s739078 74
s957730 74
s112652 13
s112652 18
s112652 61
s1963004 13
s284011 13
s271304 74
s1445218 13
s1445218 26
s1445218 44
s283524 13
s735008 74
s1936297 74
s516065 13
s516065 47
s1505940 74
s1317693 13
s1317693 20
s1317693 54
s1300469 74
s1004435 13
s1004435 23
s1004435 63
s635800 13
s1022745 74
s299897 13
s299897 67
s653948 13
s653948 52
s653948 74
s1747393 13
s1509872 13
s1889715 13
s1889715 20
s1889715 28
s1889715 34
s1889715 45
s1203866 13
s1203866 33
s846204 13
s846204 21
s846204 47
s1297286 13
s1297286 35
s1481630 13
s1481630 38
s30227 13
s30227 30
s2214 13
s517610 13
s517610 43
s1731214 13
s1731214 48
s1731214 53
s1307269 74
s378890 13
s378890 32
s1277492 74
s363417 13
s363417 62
s1457785 74
s1146313 13
s1146313 39
s350818 74
s54751 13
s54751 37
s643070 13
s840888 74
s1651253 13
s147726 13
s147726 29
s147726 44
s147726 48
s147726 68
s943259 74
s863605 13
s863605 18
s863605 27
s110501 13
s110501 44
s307395 13
s307395 28
s307395 61
s60335 74
s1932817 13
s1932817 16
s1932817 56
s1118531 74
s1406345 13
s1406345 23
s112052 13
s112052 28
s1069613 13
s1069613 57
s558629 13
s558629 42
s405909 13
s405909 61
s866106 13
s63466 74
s59245 13
s1815097 74
s1185805 13
s1185805 43
s1185805 51
s1809330 74
s1790749 13
s262980 74
s606101 13
s606101 20
s606101 31
s606101 32
s827103 13
s827103 28
s827103 67
s516653 13
s516653 18
s516653 19
s516653 41
s309629 13
s309629 35
s309629 56
s1700461 13
s1300305 13
s1300305 30
s1556892 13
s1556892 35
s1556892 52
s1588328 13
s461761 13
s461761 46
s461761 51
s461761 66
s461761 71
s1469996 13
s1469996 55
s1469996 74
s1765706 13
s180345 13
s180345 58
s1139304 13
s1745742 13
s1745742 24
s1745742 59
s1745742 61
s1745742 72
s133101 13
s133101 62
s133101 74
s1555571 13
s1555571 22
s1555571 34
s1555571 58
s647508 13
s647508 36
s1281620 13
s1613710 13
s1717879 13
s1134048 13
s1134048 25
s1134048 29
s1308076 13
s1308076 37
s1247940 13
s674843 13
s1987531 13
s1987531 37
s1987531 42
s1987531 74
s601340 13
s601340 58
s1717696 13
s1717696 35
s1717696 41
s1717696 66
s593641 13
s593641 55
s231436 13
s231436 31
s450718 13
s450718 54
s450718 72
s1160680 13
s1160680 71
s1906938 13
s1906938 50
s706642 13
s1036409 29
s1036409 32
s1036409 63
s203637 29
s203637 40
s203637 58
s438519 29
s438519 33
s292857 29
s154227 29
s1055346 29
s1055346 62
s815523 29
s815523 31
s1824785 29
s1824785 52
s1824785 70
s554207 29
s841141 29
s841141 35
s1837963 29
s1837963 53
s1837963 65
s820399 29
s820399 65
s567545 29
s567545 40
s2336 29
s2336 31
s64447 29
s64447 30
s64447 32
s79082 29
s594369 29
s594369 53
s1006997 29
s1006997 59
s569655 29
s569655 45
s569655 55
s569655 68
s1840475 29
s1938182 29
s333745 29
s751852 29
s751852 66
s493947 29
s1202687 29
s1458545 29
s1458545 72
s1678096 29
s1675209 29
s1290234 29
s1167258 29
s1167258 50
s1775099 29
s279629 29
s1617278 29
s1617278 53
s1617278 61
s599326 29
s599326 73
s547543 29
s547543 30
s547543 65
s107491 29
s107491 33
s107491 70
s1742168 29
s1076603 29
s1087048 29
s1396213 29
s1911418 29
s201496 29
s201496 33
s201496 46
s201496 54
s1426377 29
s1426377 33
s428247 29
s428247 58
s428247 64
s1337045 29
s1337045 41
s1006215 29
s1006215 46
s522565 29
s1524935 29
s78309 29
s78309 64
s1233250 29
s1526313 40
s1164181 40
s221122 40
s221122 55
s608419 40
s608419 48
s249088 40
s249088 60
s249088 69
s1803011 40
s120752 40
s120752 49
s120752 69
s1541532 40
s1541532 44
s1541532 48
s1343852 40
s914567 40
s914567 54
s914567 63
s1253781 40
s242186 40
s242186 64
s1238906 40
s1238906 56
s452423 40
s339306 40
s755092 40
s755092 44
s247997 40
s247997 62
s247997 68
s553283 40
s553283 44
s553283 56
s1510114 40
s1510114 66
s895462 40
s895462 47
s1313555 40
s340531 40
s340531 48
s1072555 40
s1199397 40
s1199397 47
s1199397 53
s1617610 40
s1617610 54
s864093 40
s928748 40
s928748 56
s162981 40
s162981 62
s1516955 40
s1516955 55
s1516955 62
s448840 40
s448840 41
s448840 64
s635860 40
s769685 40
s1257505 40
s1281575 40
s1281575 71
s875432 40
s1571960 40
s1571960 62
s502689 40
s650974 40
s650974 63
s765846 40
s765846 45
s765846 46
s765846 53
s1026025 40
s290815 40
s1994133 40
s1994133 67
s881117 40
s881117 58
s863860 40
s863860 71
s68533 40
s68533 48
s1454064 40
s1889903 8
s1486082 8
s1486082 21
s1486082 44
s407452 8
s407452 22
s662221 8
s1271003 8
s1271003 21
s184063 8
s184063 14
s184063 40
s184063 52
s1753472 8
s1753472 55
s1753472 60
s995162 8
s995162 26
s321040 8
s321040 21
s321040 32
s321040 60
s1929602 8
s1258478 8
s1258478 49
s1258478 50
s1258478 70
s368514 8
s368514 55
s368514 62
s368514 70
s117986 8
s117986 36
s117986 52
s1434458 8
s1434458 63
s1556076 8
s1556076 51
s919475 8
s919475 27
s919475 28
s1198876 8
s65094 8
s65094 25
s231906 8
s707047 8
s707047 53
s707047 70
s1562289 8
s1562289 24
s594961 8
s594961 31
s594961 65
s873470 8
s873470 18
s690968 8
s690968 74
s1658548 8
s1658548 43
s1658548 58
s883937 8
s883937 38
s883937 70
s839359 8
s839359 72
s309492 8
s1537431 8
s1537431 69
s1206235 8
s1206235 58
s1206235 72
s1206235 73
s1134830 8
s426186 8
s426186 37
s426186 41
s325954 8
s1291126 8
s1745573 8
s1745573 28
s1606140 8
s1606140 48
s1606140 60
s1606140 64
s1606140 72
s1606140 74
s269156 8
s944958 8
s944958 42
s1430626 8
s788422 8
s788422 60
s1354634 8
s1354634 18
s1439030 8
s1439030 23
s1439030 30
s1774643 8
s1774643 18
s1723267 8
s1723267 12
s1723267 15
s1723267 16
s449500 8
s449500 21
s449500 40
s449500 64
s1236726 8
s1236726 30
s1236726 65
s1635409 8
s1907148 8
s1151699 8
s1151699 24
s1764946 8
s1764946 12
s1764946 45
s1764946 50
s704284 8
s704284 17
s704284 25
s704284 50
s704284 67
s1775565 8
s1775565 16
s1154184 8
s1154184 14
s444478 8
s918131 8
s918131 65
s356668 8
s356668 63
s356668 66
s356668 72
s1940386 8
s1940386 14
s1940386 38
s1940386 51
s1244279 8
s1244279 34
s1100523 8
s1100523 72
s852365 8
s867822 8
s867822 16
s1037831 8
s1037831 23
s1037831 46
s1101525 8
s1101525 63
s1764043 8
s1764043 62
s1764043 66
s760053 8
s760053 27
s882938 8
s882938 9
s1326618 8
s1326618 71
s1872037 8
s1996815 8
s1996815 63
s397153 8
s128423 8
s128423 48
s128423 72
s1565444 8
s1565444 16
s1807627 8
s1807627 41
s948247 8
s1434524 8
s1434524 28
s1434524 30
s1187526 8
s1187526 46
s1748309 8
s1748309 10
s1748309 53
s1748309 72
s844960 8
s844960 53
s844960 69
s1386364 8
s1386364 59
s1386364 70
s719946 8
s719946 50
s719946 61
s196982 8
s196982 38
s196982 42
s1021775 8
s1021775 35
s1770217 8
s759356 8
s759356 44
s759356 54
s1105252 8
s1105252 54
s1665802 65
s164089 65
s780921 65
s780921 70
s1802776 65
s1830918 65
s1830918 71
s845165 65
s845165 67
s1857953 65
s450893 65
s850618 65
s1380371 65
s777621 65
s1370992 65
s1904028 65
s939190 65
s127416 65
s127416 72
s1082979 65
s956568 65
s1979574 65
s970028 65
s341697 65
s405208 65
s738896 65
s905512 65
s278463 65
s3544 65
s987546 65
s1773440 65
s257996 65
s426098 65
s342421 65
s1696930 65
s1897533 1
s1897533 44
s1897533 50
s1897533 59
s1897533 72
s31264 1
s31264 40
s31264 44
s100324 1
s100324 10
s100324 36
s100324 69
s1355759 1
s1355759 14
s1355759 34
s458353 1
s458353 3
s458353 37
s458353 59
s1048327 1
s1048327 2
s1048327 18
s1048327 35
s1877358 1
s1877358 3
s575735 1
s575735 68
s707133 1
s1191265 1
s1191265 24
s1191265 60
s821263 1
s821263 51
s821263 54
s821263 62
s997272 1
s997272 7
s997272 12
s997272 27
s997272 64
s997272 69
s118537 1
s1498096 1
s528963 1
s528963 19
s528963 57
s1171405 1
s366350 1
s366350 55
s91654 1
s939688 67
s759640 1
s509873 67
s1251073 1
s809206 1
s102974 1
s102974 18
s102974 64
s102974 69
s111158 1
s111158 16
s111158 38
s111158 61
s111158 72
s1169081 1
s174630 1
s174630 10
s174630 57
s1038938 67
s1768098 1
s1768098 36
s1768098 37
s75153 1
s75153 12
s364032 1
s1198485 67
s1813260 1
s1813260 14
s1813260 51
s44073 67
s1078358 67
s1465952 1
s1465952 49
s415158 1
s415158 55
s1456709 1
s1456709 9
s1456709 67
s996493 1
s996493 29
s996493 37
s996493 46
s996493 64
s388278 67
s1409336 1
s1409336 35
s1409336 53
s702206 1
s906676 67
s578220 67
s578220 73
s1779379 1
s1779379 15
s1779379 17
s741500 1
s1571774 1
s1571774 26
s1571774 58
s1688024 1
s1688024 17
s1688024 44
s1417024 1
s1417024 18
s1417024 37
s1229670 1
s1229670 52
s1455475 67
s1953687 1
s1953687 51
s1953687 71
s1953687 72
s1143844 1
s1832611 1
s1832611 5
s1832611 37
s1887216 1
s1887216 9
s725335 1
s725335 35
s725335 38
s725335 67
s506592 1
s1116238 67
s277314 1
s277314 10
s277314 25
s277314 61
s1691112 1
s1691112 39
s1847379 1
s1847379 5
s704492 1
s949345 1
s1911535 67
s1745279 1
s1745279 42
s1745279 66
s266204 1
s266204 56
s266204 73
s19191 1
s19191 14
s19191 51
s53282 1
s53282 41
s53282 54
s781018 1
s781018 65
s442119 1
s442119 27
s103114 1
s103114 15
s1635322 1
s1635322 36
s1635322 70
s1234139 1
s1620374 1
s177900 67
s141569 1
s32254 67
s27258 67
s865037 1
s865037 54
s1758379 67
s560638 1
s560638 20
s560638 37
s560638 40
s1003843 1
s1133754 1
s1384512 1
s1384512 40
s1384512 67
s1280818 1
s1669830 1
s1013814 1
s1013814 36
s1867692 1
s1867692 15
s1867692 34
s1867692 57
s1614830 67
s969171 1
s969171 28
s969171 63
s1821166 67
s1116197 1
s1116197 28
s1600606 1
s714222 67
s1712563 67
s91484 1
s91484 11
s91484 23
s91484 71
s243330 1
s1604907 1
s1604907 56
s1604907 74
s537732 1
s537732 52
s148703 1
s148703 2
s148703 45
s148703 69
s1212027 67
s1662091 1
s1662091 33
s1662091 74
s1938210 67
s1249014 1
s1249014 16
s1249014 20
s1249014 51
s1881068 67
s26791 1
s26791 18
s26791 53
s26791 55
s1514483 1
s1600462 1
s1600462 39
s133529 1
s1219232 1
s1219232 62
s29816 1
s29816 34
s29816 45
s29816 47
s698607 1
s745424 1
s745424 32
s745424 74
s989667 1
s989667 53
s1921218 1
s375148 67
s1696 1
s1023100 67
s823900 1
s823900 18
s823900 51
s507514 1
s507514 72
s507514 73
s689328 1
s689328 17
s554679 1
s1202049 67
s726232 67
s1981028 67
s736097 48
s736097 60
s1713388 48
s1713388 69
s43125 48
s118993 56
s549804 56
s1291372 56
s1291372 62
s1291372 73
s1844855 48
s1844855 54
s1177215 55
s657463 56
s1730996 48
s977980 55
s1144130 48
s1208206 56
s1208206 63
s1208206 66
s1549532 55
s1084890 56
s11444 48
s11444 53
s11444 54
s488047 48
s908615 55
s1740347 56
s1767306 55
s1767306 69
s1767306 72
s300727 55
s338011 55
s383113 56
s383113 73
s463326 48
s463326 71
s826723 56
s826723 60
s1071897 48
s1911913 56
s1911913 70
s1923494 55
s1677795 44
s1677795 47
s1677795 62
s1677795 68
s327867 48
s327867 70
s1348842 48
s1285828 55
s742661 48
s1988328 55
s1988328 72
s940163 44
s765796 48
s23064 55
s1045027 56
s1045027 59
s636529 56
s736736 48
s1201877 48
s1021187 55
s1252119 44
s565257 55
s1182073 56
s762915 44
s762915 71
s250887 55
s1077590 55
s280477 48
s280477 56
s1698763 48
s1014798 55
s1014798 68
s24509 44
s1458509 48
s405620 48
s466489 48
s1216779 56
s1216779 72
s1019338 44
s494361 55
s1260748 55
s195241 44
s195241 53
s1883648 48
s1883648 53
s1871135 48
s108993 55
s1861648 48
s1474310 55
s1109379 44
s1109379 72
s1729131 44
s938551 48
s938551 63
s1035041 55
s1035041 64
s967425 55
s979424 44
s979424 56
s80332 56
s1068956 56
s1744888 55
s1744888 68
s1491624 55
s1492548 55
s1094143 56
s1094143 60
s1094143 68
s1094143 69
s1176128 48
s580920 55
s358824 56
s1079505 44
s1079505 58
s1819013 48
s833325 55
s1879965 48
s1583595 55
s1026534 56
s830762 44
s554804 48
s1892363 56
s726977 44
s1105656 56
s334290 48
s1053137 44
s1930046 56
s1337804 48
s1527930 56
s1527930 62
s1527930 68
s1136378 56
s919828 48
s919828 72
s1639276 44
s1025117 56
s551722 44
s551722 68
s48584 56
s1370027 44
s1370027 48
s1370027 49
s895583 55
s874549 44
s874549 71
s1527434 56
s837010 44
s331338 44
s331338 51
s439816 44
s439816 54
s1592924 38
s1802294 44
s840367 38
s1656534 38
s1422452 44
s1422452 72
s465432 44
s465432 52
s1560163 38
s1560163 66
s694741 38
s694741 48
s694741 53
s694741 63
s353018 44
s358940 44
s1348597 44
s588265 38
s1028222 44
s1679975 38
s1679975 57
s1679975 71
s483515 38
s483515 58
s120842 38
s120842 73
s845057 38
s845057 62
s1360696 38
s1106065 38
s1106065 69
s629941 38
s376724 38
s376724 51
s376724 54
s900688 38
s900688 46
s828702 38
s828702 57
s477237 38
s477237 46
s1920162 38
s1177695 38
s679547 38
s1898190 38
s1898190 64
s1898190 72
s1375609 38
s1375609 44
s1375609 59
s1375609 69
s46319 38
s46319 41
s46319 50
s46319 57
s1340586 38
s1340586 40
s1580807 38
s1580807 59
s12516 38
s1811360 38
s1811360 50
s1811360 51
s1890632 38
s817829 38
s102468 38
s102468 70
s1856298 38
s1856298 52
s1060357 38
s1060357 68
s1238845 38
s1238845 54
s1730963 38
s1730963 49
s1730963 74
s912266 38
s1647404 38
s938103 38
s855717 38
s855717 49
s855717 59
s157715 38
s157715 42
s1129411 38
s1129411 54
s975556 38
s975556 50
s975556 67
c608092 0
c1992546 1
c1463631 2
c404025 3
c486778 4
c1085756 5
c771503 6
c1700834 7
c1359258 8
c843644 9
c931208 10
c826264 11
c966820 12
c982052 13
c1285365 14
c419296 15
c181224 16
c1528811 17
c1885857 18
c723269 19
c183546 20
c1229557 21
c1826580 22
c1023799 23
c1821615 24
c11955 25
c211249 26
c819355 27
c1192644 28
c883001 29
c299246 30
c979884 31
c1640467 32
c286013 33
c1563829 34
c680430 35
c844266 36
c709776 37
c226360 38
c1881245 39
c1122868 40
c718957 41
c949720 42
c476175 43
c1522174 44
c919983 45
c812176 46
c766663 47
c252548 48
c796354 49
c1734484 50
c389082 51
c410470 52
c1311722 53
c595596 54
c838653 55
c113568 56
c11629 57
c1983435 58
c1506650 59
c147484 60
c1813679 61
c183958 62
c1807831 63
c1852346 64
c17629 65
c120532 66
c433380 67
c1565199 68
c1574904 69
c916750 70
c1804637 71
c876261 72
c643079 73
c959012 74
